# LAMMPS data file written by OVITO Basic 3.7.11
2656 atoms
1 atom types
0.0 39.57150679 xlo xhi
0.0 38.07770017 ylo yhi
0.0 40.4361248 zlo zhi

Masses

1 63.550  # Cu

Atoms  

1 1 0 0 0
2 1 2.19842 1.26926 0
3 1 0 2.53851 0
4 1 2.19842 3.80777 0
271 1 1.46561 2.31199e-16 2.07269
272 1 3.66403 1.26926 2.07269
273 1 1.46561 2.53851 2.07269
274 1 3.66403 3.80777 2.07269
31 1 4.39683 0 0
33 1 4.39683 2.53851 0
543 1 2.91082 2.637 4.26509
544 1 0.669568 3.88105 4.44601
32 1 6.59525 1.26926 0
34 1 6.59525 3.80777 0
301 1 5.86245 2.31199e-16 2.07269
302 1 8.06086 1.26926 2.07269
303 1 5.86245 2.53851 2.07269
304 1 8.06086 3.80777 2.07269
574 1 5.33854 3.80652 4.16488
61 1 8.79367 0 0
62 1 10.9921 1.26926 0
63 1 8.79367 2.53851 0
64 1 10.9921 3.80777 0
331 1 10.2593 2.31199e-16 2.07269
332 1 12.4577 1.26926 2.07269
333 1 10.2593 2.53851 2.07269
334 1 12.4577 3.80777 2.07269
91 1 13.1905 0 0
93 1 13.1905 2.53851 0
5 1 0 5.07703 0
6 1 2.19842 6.34628 0
7 1 0 7.61554 0
275 1 1.46561 5.07703 2.07269
276 1 3.66403 6.34628 2.07269
277 1 1.46561 7.61554 2.07269
35 1 4.39683 5.07703 0
37 1 4.39683 7.61554 0
36 1 6.59525 6.34628 0
305 1 5.86245 5.07703 2.07269
306 1 8.06086 6.34628 2.07269
307 1 5.86245 7.61554 2.07269
65 1 8.79367 5.07703 0
66 1 10.9921 6.34628 0
67 1 8.79367 7.61554 0
335 1 10.2593 5.07703 2.07269
336 1 12.4577 6.34628 2.07269
337 1 10.2593 7.61554 2.07269
95 1 13.1905 5.07703 0
97 1 13.1905 7.61554 0
8 1 2.19842 8.8848 0
9 1 0 10.1541 0
10 1 2.19842 11.4233 0
278 1 3.66403 8.8848 2.07269
279 1 1.46561 10.1541 2.07269
280 1 3.66403 11.4233 2.07269
39 1 4.39683 10.1541 0
38 1 6.59525 8.8848 0
40 1 6.59525 11.4233 0
308 1 8.06086 8.8848 2.07269
309 1 5.86245 10.1541 2.07269
310 1 8.06086 11.4233 2.07269
68 1 10.9921 8.8848 0
69 1 8.79367 10.1541 0
70 1 10.9921 11.4233 0
338 1 12.4577 8.8848 2.07269
339 1 10.2593 10.1541 2.07269
340 1 12.4577 11.4233 2.07269
99 1 13.1905 10.1541 0
11 1 0 12.6926 0
281 1 1.46561 12.6926 2.07269
41 1 4.39683 12.6926 0
12 1 2.19842 13.9618 0
13 1 0 15.2311 0
14 1 2.19842 16.5003 0
282 1 3.66403 13.9618 2.07269
283 1 1.46561 15.2311 2.07269
284 1 3.66403 16.5003 2.07269
43 1 4.39683 15.2311 0
311 1 5.86245 12.6926 2.07269
42 1 6.59525 13.9618 0
44 1 6.59525 16.5003 0
312 1 8.06086 13.9618 2.07269
313 1 5.86245 15.2311 2.07269
314 1 8.06086 16.5003 2.07269
71 1 8.79367 12.6926 0
341 1 10.2593 12.6926 2.07269
72 1 10.9921 13.9618 0
73 1 8.79367 15.2311 0
74 1 10.9921 16.5003 0
342 1 12.4577 13.9618 2.07269
343 1 10.2593 15.2311 2.07269
344 1 12.4577 16.5003 2.07269
101 1 13.1905 12.6926 0
103 1 13.1905 15.2311 0
614 1 9.57153 16.5067 4.4177
15 1 0 17.7696 0
16 1 2.19842 19.0389 0
17 1 0 20.3081 0
285 1 1.46561 17.7696 2.07269
286 1 3.66403 19.0389 2.07269
287 1 1.46561 20.3081 2.07269
45 1 4.39683 17.7696 0
47 1 4.39683 20.3081 0
46 1 6.59525 19.0389 0
315 1 5.86245 17.7696 2.07269
316 1 8.06086 19.0389 2.07269
317 1 5.86245 20.3081 2.07269
75 1 8.79367 17.7696 0
76 1 10.9921 19.0389 0
77 1 8.79367 20.3081 0
345 1 10.2593 17.7696 2.07269
346 1 12.4577 19.0389 2.07269
347 1 10.2593 20.3081 2.07269
105 1 13.1905 17.7696 0
107 1 13.1905 20.3081 0
18 1 2.19842 21.5774 0
19 1 0 22.8466 0
20 1 2.19842 24.1159 0
21 1 0 25.3851 0
288 1 3.66403 21.5774 2.07269
289 1 1.46561 22.8466 2.07269
290 1 3.66403 24.1159 2.07269
291 1 1.46561 25.3851 2.07269
49 1 4.39683 22.8466 0
51 1 4.39683 25.3851 0
48 1 6.59525 21.5774 0
50 1 6.59525 24.1159 0
318 1 8.06086 21.5774 2.07269
319 1 5.86245 22.8466 2.07269
320 1 8.06086 24.1159 2.07269
321 1 5.86245 25.3851 2.07269
78 1 10.9921 21.5774 0
79 1 8.79367 22.8466 0
80 1 10.9921 24.1159 0
81 1 8.79367 25.3851 0
348 1 12.4577 21.5774 2.07269
349 1 10.2593 22.8466 2.07269
350 1 12.4577 24.1159 2.07269
351 1 10.2593 25.3851 2.07269
109 1 13.1905 22.8466 0
111 1 13.1905 25.3851 0
22 1 2.19842 26.6544 0
23 1 0 27.9236 0
24 1 2.19842 29.1929 0
292 1 3.66403 26.6544 2.07269
293 1 1.46561 27.9236 2.07269
294 1 3.66403 29.1929 2.07269
53 1 4.39683 27.9236 0
52 1 6.59525 26.6544 0
54 1 6.59525 29.1929 0
322 1 8.06086 26.6544 2.07269
323 1 5.86245 27.9236 2.07269
324 1 8.06086 29.1929 2.07269
82 1 10.9921 26.6544 0
83 1 8.79367 27.9236 0
84 1 10.9921 29.1929 0
352 1 12.4577 26.6544 2.07269
353 1 10.2593 27.9236 2.07269
354 1 12.4577 29.1929 2.07269
113 1 13.1905 27.9236 0
25 1 0 30.4622 0
26 1 2.19842 31.7314 0
27 1 0 33.0007 0
295 1 1.46561 30.4622 2.07269
296 1 3.66403 31.7314 2.07269
297 1 1.46561 33.0007 2.07269
55 1 4.39683 30.4622 0
57 1 4.39683 33.0007 0
56 1 6.59525 31.7314 0
325 1 5.86245 30.4622 2.07269
326 1 8.06086 31.7314 2.07269
327 1 5.86245 33.0007 2.07269
85 1 8.79367 30.4622 0
86 1 10.9921 31.7314 0
87 1 8.79367 33.0007 0
355 1 10.2593 30.4622 2.07269
356 1 12.4577 31.7314 2.07269
357 1 10.2593 33.0007 2.07269
115 1 13.1905 30.4622 0
117 1 13.1905 33.0007 0
625 1 11.7715 30.269 4.08099
28 1 2.19842 34.2699 0
29 1 0 35.5392 0
30 1 2.19842 36.8084 0
298 1 3.66403 34.2699 2.07269
299 1 1.46561 35.5392 2.07269
300 1 3.66403 36.8084 2.07269
59 1 4.39683 35.5392 0
58 1 6.59525 34.2699 0
60 1 6.59525 36.8084 0
328 1 8.06086 34.2699 2.07269
329 1 5.86245 35.5392 2.07269
330 1 8.06086 36.8084 2.07269
88 1 10.9921 34.2699 0
89 1 8.79367 35.5392 0
90 1 10.9921 36.8084 0
358 1 12.4577 34.2699 2.07269
359 1 10.2593 35.5392 2.07269
360 1 12.4577 36.8084 2.07269
119 1 13.1905 35.5392 0
630 1 9.39541 36.8071 4.24222
542 1 0.874463 1.3362 4.16421
812 1 1.95369 1.19965 6.39776
814 1 2.16132 3.83609 6.47839
843 1 4.4724 2.4509 6.21668
1407 1 13.1438 0.18733 12.8886
2646 1 6.81791 33.7646 21.2016
572 1 5.43995 1.36268 4.16782
573 1 7.47181 2.56036 4.4934
842 1 6.57802 1.31444 6.44478
844 1 6.45037 3.93559 6.43121
873 1 8.87078 2.67721 6.45252
604 1 9.55788 4.0266 4.3547
603 1 11.5742 2.82238 4.12137
602 1 9.3989 1.33825 4.05171
872 1 11.0738 1.42117 6.23814
874 1 10.875 4.02042 6.35407
2312 1 9.71573 36.8121 17.1891
871 1 8.97405 0.0556229 6.45451
547 1 2.90459 7.65113 4.11198
546 1 0.780665 6.33859 4.33337
545 1 2.99122 5.20556 4.25758
816 1 2.11653 6.32015 6.33963
845 1 4.25558 4.93678 6.28321
2442 1 12.6725 36.9786 19.507
847 1 4.29944 7.78427 6.41258
577 1 7.45742 7.48984 4.16609
575 1 7.4482 5.08271 3.90826
576 1 5.00506 6.50486 4.36239
846 1 6.44384 6.34964 6.34713
875 1 8.63752 5.14159 6.59971
877 1 8.72044 7.6058 6.34658
606 1 9.72268 6.43332 4.24354
607 1 11.8436 7.76264 4.3324
605 1 11.801 5.26376 4.01538
876 1 11.1486 6.35786 6.28048
548 1 0.734921 8.89874 4.17537
549 1 2.80629 10.1332 4.17286
550 1 0.759845 11.5554 4.25762
818 1 2.09374 8.79737 6.42239
820 1 2.09785 11.4065 6.33732
849 1 4.29402 10.3529 6.54779
851 1 4.22124 12.8722 6.40833
579 1 7.52195 10.2198 4.27227
580 1 5.15233 11.4169 4.30364
578 1 5.16501 8.9772 4.10769
848 1 6.53062 8.85463 6.27282
850 1 6.55386 11.4871 6.34984
879 1 8.83495 10.3302 6.60594
881 1 8.69764 12.8413 6.58924
611 1 11.9359 12.7072 3.9809
610 1 9.60136 11.61 4.25006
609 1 11.6983 10.2428 4.32249
608 1 9.67259 9.01705 4.2128
878 1 10.8883 8.9586 6.30249
880 1 10.9286 11.6731 6.58874
551 1 2.95646 12.7128 4.00986
554 1 0.59007 16.3171 4.22851
552 1 0.638444 13.9391 4.26495
553 1 2.8466 15.2776 4.27734
822 1 1.99389 14.1351 6.12924
824 1 2.20857 16.5286 6.34177
853 1 4.42009 15.258 6.60917
835 1 0.195375 30.6176 6.53467
2250 1 9.59179 34.4396 17.2491
581 1 7.41045 12.6214 4.4437
584 1 5.01727 16.463 4.10631
583 1 7.4062 15.1712 4.11117
582 1 5.10133 14.1516 4.34218
852 1 6.52385 14.0631 6.56483
854 1 6.46573 16.4158 6.27163
883 1 8.74893 15.421 6.45133
612 1 9.48806 13.9467 4.11177
613 1 11.7066 15.2543 4.37272
882 1 10.754 13.9894 6.33978
884 1 10.97 16.3899 6.50509
911 1 13.1723 12.8548 6.14401
556 1 0.603043 18.8887 4.32456
557 1 2.96394 20.2503 4.02016
555 1 2.90222 17.9273 4.07132
826 1 2.16448 19.0902 6.54282
829 1 0.151057 22.7323 6.3552
2220 1 11.6947 35.5842 17.3206
855 1 4.32803 17.6978 6.03816
857 1 4.38902 20.3115 6.28638
587 1 7.16815 20.1184 4.20292
585 1 7.29104 17.7453 4.20648
586 1 5.08367 19.0839 4.17758
856 1 6.55404 19.0117 6.55926
887 1 8.56457 20.2618 6.25128
615 1 11.696 17.8461 4.24993
885 1 8.59087 17.8602 6.36332
616 1 9.50414 18.9771 4.09079
617 1 11.659 20.2434 4.04916
886 1 10.897 18.8818 6.34267
1699 1 0.0128931 25.4815 12.7582
560 1 0.974422 24.2064 4.00245
559 1 2.96078 22.9605 4.21741
558 1 0.801683 21.4113 4.10901
828 1 2.13418 21.3404 6.1583
830 1 2.05669 24.0341 6.17705
2441 1 10.1828 35.8291 19.513
561 1 3.01057 25.4263 4.23298
859 1 4.11918 22.8674 6.44632
590 1 5.18965 24.3116 4.11682
588 1 5.1239 21.7146 4.2474
589 1 7.14282 22.7943 4.19269
858 1 6.48025 21.5429 6.30071
860 1 6.41828 24.0986 6.40496
889 1 8.75574 22.8546 6.42994
591 1 7.22918 25.5253 4.33405
619 1 11.6599 22.7223 4.2677
620 1 9.3596 23.9713 4.31892
618 1 9.35116 21.5208 4.4688
888 1 10.8283 21.4245 6.45975
890 1 10.934 23.929 6.48139
621 1 11.5993 25.2552 4.25243
563 1 2.723 27.9677 4.2171
564 1 0.736167 29.2578 4.11472
562 1 0.617395 26.6026 4.12926
832 1 1.96658 26.8092 6.22049
834 1 2.1212 29.2032 6.39637
863 1 4.39971 27.9874 6.52606
2376 1 12.5169 34.3448 19.5425
2282 1 5.08297 34.204 17.1739
861 1 4.09854 25.3871 6.37516
594 1 5.25754 29.2294 4.23041
592 1 5.28364 26.6982 4.31085
593 1 7.38075 28.0045 4.29353
862 1 6.56924 26.6929 6.66153
864 1 6.59066 29.243 6.40948
893 1 8.73683 27.8252 6.29023
891 1 8.54603 25.2842 6.56482
623 1 11.6425 27.9288 4.12862
624 1 9.45868 29.2127 4.24015
622 1 9.56932 26.7331 4.26675
892 1 10.8281 26.5926 6.44238
894 1 11.2092 29.1026 6.40702
2446 1 5.98534 35.6986 19.3843
903 1 13.2155 2.76649 6.41901
565 1 2.84396 30.5034 4.1359
566 1 0.693972 31.8665 4.24802
567 1 2.94222 32.941 4.18477
836 1 2.28816 31.8787 6.35204
2243 1 7.32321 35.6782 17.239
1946 1 13.1939 12.4874 13.1011
865 1 4.18136 30.3857 6.29374
867 1 4.61632 33.0934 6.26432
595 1 7.36301 30.5503 4.07041
596 1 5.08932 31.6684 4.32459
597 1 7.32928 32.8932 4.27185
866 1 6.5595 31.662 6.40548
897 1 9.0311 32.9676 6.53761
1716 1 13.0928 15.1198 12.7807
895 1 8.8695 30.4967 6.434
627 1 11.8036 32.8777 4.40741
626 1 9.64874 31.7661 4.36764
896 1 11.0347 31.7587 6.37899
1705 1 13.1576 22.8498 12.8665
541 1 2.97792 0.0549909 4.15298
568 1 0.815956 34.273 4.1135
570 1 0.742671 36.7565 4.15434
569 1 3.06804 35.5424 4.17009
838 1 2.25488 34.2527 6.37189
840 1 2.32425 36.5971 6.10638
2080 1 13.1136 7.73776 12.3919
841 1 4.37485 38.0885 6.19379
571 1 7.3616 38.0541 4.35724
869 1 4.54331 35.6377 6.27336
599 1 7.26726 35.6472 4.19654
600 1 5.15702 36.7789 4.18786
598 1 5.12893 34.1366 4.09363
868 1 6.67148 34.2886 6.48239
870 1 6.71334 36.9155 6.39301
601 1 11.7841 0.107038 4.11315
899 1 8.88101 35.5516 6.32907
628 1 9.3079 34.2468 4.13948
629 1 11.6086 35.5291 4.22575
898 1 11.0775 34.3524 6.33468
900 1 11.0914 36.9231 6.44003
901 1 13.0847 0.281749 6.28103
1084 1 3.61806 3.6365 8.39633
1083 1 1.42711 2.39941 8.72048
1082 1 3.57665 1.25794 8.45701
1352 1 0.703141 0.981156 10.7194
1353 1 3.02109 2.54355 10.4037
1354 1 0.712518 3.95987 10.8566
1351 1 2.99535 38.0108 10.745
1112 1 8.12898 1.16174 8.54813
1113 1 5.89889 2.41426 8.54246
1382 1 5.15251 1.25804 10.6437
1383 1 7.39382 2.5845 10.6547
1384 1 5.14467 3.84541 10.6547
1114 1 8.13131 3.8634 8.6831
1111 1 5.87981 0.10138 8.52402
1143 1 10.1945 2.58488 8.30291
1144 1 12.4033 4.02582 8.46969
1142 1 12.3612 1.33769 8.47384
1412 1 9.51277 1.31081 10.703
1413 1 11.663 2.57337 10.6851
1414 1 9.57056 3.84752 10.7205
1141 1 10.2022 -0.0112566 8.64497
1411 1 11.7813 0.0229231 10.9197
1085 1 1.46862 5.0325 8.66835
1087 1 1.30854 7.64753 8.29465
1086 1 3.60859 6.24203 8.38924
1356 1 0.719192 6.24713 10.5696
1355 1 2.99634 5.32026 10.7304
1667 1 2.95069 7.7353 10.7644
1115 1 5.84143 5.04186 8.63241
1117 1 5.6188 7.69756 8.30445
1116 1 7.713 6.44897 8.43986
1385 1 7.19421 5.16885 10.7119
1694 1 5.01899 6.55526 10.6181
1389 1 7.17592 7.62662 10.8859
1145 1 10.2244 5.01505 8.64594
1147 1 10.1484 7.441 8.4215
1146 1 12.592 6.39168 8.4239
1416 1 9.38449 6.42173 10.5546
1800 1 11.6014 5.02135 10.7459
1832 1 11.5644 7.54351 10.4658
1088 1 3.54361 9.03942 8.50205
1358 1 0.56841 8.75728 10.6603
1089 1 1.37038 10.1261 8.19979
1090 1 3.50241 11.5451 8.51111
1359 1 0.43434 11.5734 10.9087
1357 1 2.71837 10.1927 10.5542
1091 1 1.44737 12.5603 8.80824
1360 1 2.94728 12.7086 10.7393
1119 1 5.76897 10.1171 8.60428
1118 1 7.87321 8.98262 8.30088
1120 1 7.68379 11.5094 8.43679
1390 1 5.06687 11.3214 10.781
2148 1 7.21128 10.1621 10.7171
1386 1 5.06329 8.95641 10.6302
1148 1 12.3048 8.92859 8.44805
1418 1 9.47793 9.0524 10.6467
1149 1 10.0165 10.1671 8.51514
1717 1 9.38787 11.4085 10.6173
1150 1 12.3644 11.6997 8.54547
1419 1 11.6789 10.2085 10.435
1151 1 10.0806 12.6482 8.75816
1092 1 3.74519 14.1104 8.55279
1093 1 1.46693 15.0571 8.49078
1362 1 0.389261 14.0832 10.4292
1363 1 2.83566 15.2633 10.5853
1364 1 0.55022 16.547 10.7274
1094 1 3.64033 16.6782 8.17326
1121 1 5.67435 12.88 8.6559
1391 1 7.37447 12.7457 10.8782
1124 1 7.9483 16.5365 8.57012
1122 1 7.93057 14.0426 8.69931
1123 1 5.66434 15.361 8.78816
1392 1 5.0539 14.0297 10.8743
1393 1 7.24294 15.3401 10.765
1394 1 4.92235 16.603 10.7496
1421 1 11.6002 12.6238 10.9543
1152 1 12.2523 14.0341 8.18047
1153 1 10.1103 15.1049 8.51559
1422 1 9.40029 14.1428 10.7351
1423 1 11.7533 15.2717 10.6355
1154 1 12.2469 16.5034 8.51227
1424 1 9.72813 16.5774 10.6137
1095 1 1.37 17.6701 8.45687
1096 1 3.55934 18.9209 8.69269
1097 1 1.54958 20.3066 9.08446
1365 1 2.68142 17.6501 10.6508
1366 1 0.633429 18.8667 10.9408
1367 1 2.78764 20.0695 10.9647
1125 1 5.96318 17.7209 8.9017
1126 1 7.92683 19.0996 8.56762
1127 1 5.68826 20.2427 8.51118
1395 1 7.41684 17.8431 10.768
1396 1 5.28469 19.0532 10.7353
1397 1 7.44973 20.275 10.6782
1155 1 10.1376 17.7053 8.52946
1156 1 12.2995 19.1724 8.55155
1157 1 10.212 20.2787 8.54725
1425 1 11.914 17.8794 10.5214
1426 1 9.67268 19.0097 10.6603
1427 1 11.6823 20.4747 10.4325
1098 1 3.52509 21.4563 8.66872
1368 1 0.696528 21.5856 10.7938
1099 1 1.45424 22.8444 8.34479
1100 1 3.45874 24.1401 8.64123
1369 1 2.90043 22.5848 10.7602
1370 1 0.762731 24.2449 10.5229
1398 1 5.18761 21.407 10.934
1128 1 7.7762 21.5495 8.45018
1129 1 5.59752 22.74 8.63433
1130 1 7.95602 23.9962 8.56159
1399 1 7.10592 22.9726 10.7841
1400 1 4.92185 23.9711 10.5823
1158 1 12.477 21.732 8.23996
1428 1 9.57753 21.7131 10.7685
1160 1 12.7088 24.1602 8.49966
1159 1 10.3033 22.7414 8.62341
1429 1 11.6028 22.8701 10.84
1430 1 9.36197 24.0041 10.9998
1161 1 10.182 25.1299 8.53641
1431 1 11.6203 25.2554 10.4369
1371 1 2.88523 25.4478 10.6901
1101 1 1.34882 25.47 8.21692
1102 1 3.58619 26.6874 8.776
1103 1 1.38244 27.947 8.63327
1372 1 0.776311 26.6243 10.4861
1373 1 3.11136 27.9591 10.8121
1104 1 3.55924 29.1929 8.74906
1775 1 0.940762 29.1976 10.8842
1401 1 7.27585 25.3391 10.9496
1131 1 5.72251 25.534 8.53027
1134 1 7.96404 29.0261 8.43656
1133 1 5.56181 27.9151 8.70373
1132 1 7.83821 26.4779 8.73145
1402 1 5.2066 26.6111 10.8503
1404 1 5.09025 29.3194 10.7922
1403 1 7.19765 27.9832 10.7178
1162 1 12.3286 26.6054 8.46142
1163 1 10.1814 27.8964 8.29075
1432 1 9.40476 26.4031 10.7493
1433 1 11.7969 27.7607 10.6555
1164 1 12.4205 29.2348 8.52665
1818 1 9.65707 29.1648 10.5398
1106 1 3.75214 31.6941 8.55228
1105 1 1.55185 30.5109 8.43046
1107 1 1.61215 33.0251 8.71733
1375 1 2.97621 30.4659 10.686
1377 1 3.12018 32.9706 10.8318
1376 1 0.871507 31.6415 10.72
1135 1 5.93793 30.5353 8.54414
1787 1 5.38212 31.6495 10.5498
1136 1 8.17043 31.7745 8.58645
1137 1 5.9876 33.0401 8.43039
1405 1 7.51859 30.4562 10.5518
1438 1 7.33261 33.0134 10.741
1167 1 10.1535 33.1224 8.68329
1894 1 11.7538 33.1911 10.7528
1165 1 10.2505 30.5597 8.52735
1166 1 12.3599 31.6435 8.50662
1436 1 9.76933 31.8066 10.6931
1435 1 11.819 30.4688 10.843
1081 1 1.48039 -0.0307633 8.42195
1378 1 0.93762 33.9968 10.9237
1109 1 1.40894 35.6443 8.44657
1108 1 3.67611 34.3201 8.24604
1110 1 3.79241 36.7894 8.56873
1379 1 3.006 35.5446 10.6301
1380 1 0.957535 36.7248 10.583
1381 1 7.21634 0.0202619 10.8151
1408 1 5.29107 34.2348 10.6558
1139 1 5.80721 35.5578 8.60273
1140 1 8.05149 36.7496 8.51248
1138 1 8.10482 34.2107 8.46811
1409 1 7.42242 35.4083 10.6144
1410 1 5.21857 36.6993 10.7101
1170 1 12.2269 36.9418 8.61415
1835 1 9.3783 34.2008 10.5423
1439 1 11.823 35.6195 10.8823
1169 1 10.1991 35.6685 8.64641
1168 1 12.3521 34.3925 8.58521
1440 1 9.45224 36.7395 10.7379
2049 1 1.52781 2.56731 15.0462
1670 1 2.24816 1.22034 12.9121
2114 1 3.81685 1.593 15.0061
1682 1 2.24036 3.75121 12.5989
2307 1 3.67034 3.93362 14.6874
2475 1 8.0875 34.3555 19.2732
2082 1 1.45946 38.02 15.0331
1668 1 4.42737 2.58461 12.5482
2136 1 5.82493 2.65148 14.783
1731 1 6.76815 1.4185 12.8567
2151 1 8.23124 1.24145 15.1474
1676 1 6.54771 3.89848 12.7956
2177 1 8.16922 3.75729 14.804
1760 1 8.94766 2.46048 12.8365
2158 1 10.3263 2.64798 14.9459
1913 1 11.0939 1.25806 13.0544
1415 1 12.71 1.27713 15.2223
1861 1 10.9862 3.93741 12.7283
2120 1 12.5372 3.7614 15.0675
1964 1 2.1783 6.22408 12.749
2329 1 1.3223 5.01719 14.9859
2154 1 1.42798 7.54297 15.2235
2143 1 3.60203 6.33078 15.0756
2115 1 4.57214 5.11794 12.8658
1721 1 4.25041 7.70095 12.9782
1961 1 6.49102 6.41883 12.7931
2504 1 5.89786 5.14766 14.9765
1388 1 5.69426 7.60037 14.8988
2579 1 8.15072 6.32523 14.9187
2186 1 8.80718 4.99749 12.8958
1387 1 8.70396 7.81793 12.611
1773 1 10.1697 7.72676 14.7919
2210 1 10.4634 5.14417 14.8257
1904 1 10.9568 6.43381 12.5619
2161 1 12.5694 6.32485 15.0824
907 1 13.1945 7.88762 6.24486
2139 1 1.87905 9.05717 13.0167
1662 1 2.12476 11.6127 12.9443
2544 1 3.62157 11.4078 14.9886
2612 1 3.5616 8.89562 14.9999
2133 1 1.37632 10.21 15.0078
2231 1 1.65402 12.8151 15.0195
2488 1 8.21745 37.1971 19.1419
1672 1 4.44421 10.3581 12.9334
1871 1 8.04187 9.00237 14.9001
1791 1 6.45471 8.88527 12.6407
1772 1 8.08473 11.5839 15.0528
1831 1 6.66587 11.5232 12.8584
2529 1 5.72198 9.96616 14.8829
1361 1 4.2948 12.8269 13.0526
2043 1 5.99583 12.886 15.1997
2253 1 8.90909 10.2434 12.809
2150 1 12.4467 8.92182 14.8751
1830 1 10.9039 8.82578 12.7881
2063 1 12.3064 11.3899 15.1627
1900 1 10.9143 11.361 12.8215
1854 1 10.0507 10.2053 15.2316
1420 1 8.83625 12.7798 13.1367
1891 1 13.102 10.11 12.7427
2325 1 5.11395 36.7649 17.2995
1646 1 1.98209 13.9905 12.8965
1726 1 2.01232 16.5378 12.8974
2459 1 1.46929 15.2589 15.2112
1985 1 3.68392 16.6992 14.8561
2238 1 3.75496 14.0813 15.0918
1747 1 4.33146 15.1559 12.8171
2123 1 7.96876 14.1202 14.9684
1801 1 6.49188 13.9891 12.9642
1648 1 6.37739 16.5599 12.7592
2098 1 5.92929 15.2408 15.0568
2099 1 8.16798 16.5862 15.0487
2101 1 10.2265 12.749 15.1837
1728 1 8.71062 15.3348 12.7568
1759 1 10.9896 13.9134 12.8841
1729 1 11.0504 16.3849 12.6743
2040 1 12.4766 14.0316 14.9139
2103 1 10.12 15.1735 14.887
1774 1 12.399 16.518 14.9455
919 1 13.2099 22.9493 6.31366
905 1 13.1935 4.99774 6.34847
2051 1 1.5522 17.935 15.0548
1988 1 1.42337 20.4987 15.1687
1657 1 1.94005 18.9968 12.9488
1969 1 3.5381 19.0993 14.8615
1709 1 4.15639 20.2827 12.9928
1715 1 4.26718 17.7251 12.7433
2036 1 8.0709 19.1065 15.3853
1640 1 6.51821 19.0669 13.0909
2087 1 5.82947 20.229 15.1165
2366 1 5.77873 17.7997 15.197
1688 1 8.58401 17.8225 12.9508
1649 1 8.76208 20.2553 13.0296
2064 1 10.27 17.7454 15.2324
1898 1 12.4646 18.8786 15.1158
2021 1 10.2458 20.1746 15.2008
1696 1 10.9259 19.0066 12.9551
2279 1 7.48613 0.17787 17.1614
1456 1 13.1271 17.6557 12.6447
1956 1 3.67455 21.7168 15.2363
1642 1 2.09488 21.4922 12.7232
1751 1 2.14842 24.0652 12.872
1930 1 1.51137 22.9439 15.0869
2291 1 3.75218 24.173 15.0684
1803 1 4.39015 25.2192 12.8059
1771 1 1.45395 25.4259 15.0258
2509 1 3.56327 34.1721 19.4039
1630 1 4.22519 22.8348 13.1122
1639 1 6.67323 21.4761 13.0408
1954 1 8.07332 21.6203 15.2422
2009 1 8.09944 24.3247 15.3213
1679 1 6.61288 23.9157 13.221
1936 1 5.75153 22.8727 15.2658
1740 1 8.77445 22.6011 13.0839
1802 1 8.73956 25.199 13.0498
1931 1 5.94098 25.5089 15.0982
1658 1 12.3852 21.5933 14.9533
1650 1 10.9871 21.3172 12.8753
1659 1 12.4796 24.2087 15.1907
2019 1 10.2725 22.8112 14.924
1627 1 11.025 24.0931 12.9183
2416 1 0.941141 36.5459 17.031
1730 1 12.969 25.3254 12.8642
2527 1 3.83665 36.5861 19.1083
1880 1 3.74891 26.6746 14.6648
2241 1 2.20618 26.356 12.6946
2395 1 1.72821 28.112 14.9757
1839 1 3.87287 29.3549 15.1568
1777 1 2.4888 29.3714 13.0531
2554 1 1.50247 35.6112 19.165
1794 1 4.59975 28.0119 13.0015
1932 1 5.95537 28.1416 15.0676
1866 1 6.61831 26.5626 12.9029
1937 1 8.00088 26.6435 15.0832
1812 1 6.78806 29.0882 12.7724
2027 1 8.15113 29.1001 14.9981
1865 1 8.83875 27.837 12.7949
2195 1 10.3436 25.2883 15.1058
2149 1 12.4415 26.5926 15.1317
2023 1 10.1909 27.9028 15.0246
1637 1 10.8316 26.5675 12.9871
1819 1 11.1548 29.0773 12.9641
2147 1 12.4743 29.1387 15.1621
2458 1 2.9904 35.5145 17.1697
2417 1 0.589593 34.2188 17.2515
1855 1 1.53011 30.6258 15.2939
1878 1 1.35561 32.9014 14.9172
1736 1 2.02098 31.662 12.7723
1876 1 3.57932 32.0172 14.9985
1406 1 4.59154 32.9623 13.0542
1762 1 4.47269 30.6739 12.7738
2048 1 5.84249 33.0871 15.1095
1893 1 5.99811 30.4653 14.863
2094 1 8.13763 31.7091 15.0163
1996 1 6.81856 31.8228 12.863
1918 1 8.96564 32.7953 12.8522
1434 1 8.99215 30.2965 12.5236
1437 1 11.1176 31.6867 13.0476
2079 1 10.2763 30.4562 15.063
2111 1 12.5406 31.8619 15.118
2118 1 10.3203 33.1572 15.0442
2613 1 1.5199 38.0198 19.1911
1924 1 3.78812 34.313 15.1476
1757 1 2.63138 34.2702 12.8267
2024 1 1.59382 35.3735 15.0475
1779 1 2.35509 36.9255 12.9615
2000 1 3.74769 36.9054 15.1977
1710 1 0.1955 35.5894 12.7528
2006 1 5.90734 0.30128 14.8368
1768 1 8.86215 0.20347 12.9879
1708 1 4.68431 0.132079 12.8473
1711 1 4.54158 35.5071 13.0951
1965 1 5.96631 35.6828 15.05
2035 1 8.0251 34.2509 15.1513
1783 1 6.83029 34.3321 12.9609
1780 1 6.87613 36.9415 12.8961
1981 1 8.1466 36.8513 15.2122
1795 1 8.81991 35.5155 13.002
2160 1 10.4537 38.0128 15.0981
1853 1 12.3791 34.2803 14.9186
1935 1 10.9019 34.1687 12.74
1828 1 11.0302 36.6057 12.7007
2105 1 12.4977 36.7525 15.3443
2061 1 10.3511 35.5131 14.943
2631 1 3.79569 1.39467 19.0725
2462 1 0.780817 1.21906 17.1557
2419 1 3.01611 2.40616 17.0872
1622 1 0.701332 3.58036 17.4647
2639 1 3.62648 4.10875 18.9613
2423 1 3.03866 38.0259 17.2134
2558 1 6.14898 0.161903 19.3063
2626 1 7.96345 1.65266 19.8694
2549 1 5.84076 2.88739 19.1164
2349 1 5.23576 1.4427 17.1449
2365 1 7.30756 2.61772 17.1125
2589 1 5.00193 3.8555 16.8246
2599 1 7.89244 4.18947 19.2918
2500 1 10.2014 0.40352 19.5323
2254 1 11.7183 0.0758645 17.2796
2574 1 10.1472 2.90834 19.2261
2317 1 9.76737 1.30051 16.9908
2318 1 12.406 4.28546 19.556
2411 1 12.2543 1.31057 19.4391
2369 1 9.67419 4.08831 17.1378
2595 1 0.539005 6.25559 17.3627
2535 1 2.80508 5.09369 16.8156
2638 1 2.84891 7.63075 17.2782
2650 1 5.79114 5.30576 19.0657
1727 1 7.27914 7.7441 17.3339
2468 1 5.19682 6.60969 17.0181
2469 1 7.24613 5.37459 17.1553
2637 1 9.38177 6.41895 17.1188
2401 1 11.6571 7.72371 16.9521
2353 1 11.9158 5.23488 17.2279
2642 1 10.2291 5.25539 19.5257
2641 1 0.713557 11.4992 17.3241
1732 1 2.98327 10.2019 17.057
2427 1 0.632595 9.0346 17.4487
1816 1 5.06492 9.07977 17.3412
2214 1 5.07614 11.4876 17.195
2553 1 7.17164 10.1129 16.8359
2410 1 7.29992 12.5653 17.819
2124 1 9.514 8.80193 17.0685
2447 1 9.54895 11.4468 17.362
2191 1 11.6422 10.0098 17.3283
2386 1 11.58 12.8188 17.4382
2498 1 3.1152 12.6775 17.0393
2654 1 1.44459 15.1608 19.5568
2633 1 2.83335 15.2678 17.4316
2144 1 0.629694 16.4257 17.6692
2575 1 0.832622 13.8876 17.2872
2602 1 3.66663 16.313 19.4784
2617 1 8.02197 14.2324 19.4305
2593 1 5.84584 15.3231 19.2202
2484 1 5.18752 16.3577 17.179
2438 1 5.15423 13.9814 17.3307
2355 1 7.21809 14.9878 17.1751
2497 1 8.13509 16.5993 19.4383
2537 1 10.0067 12.9166 19.321
2567 1 12.648 14.075 18.996
2431 1 9.41989 13.8462 17.1345
2322 1 10.59 15.4808 19.2949
2323 1 11.5932 15.2639 16.9915
2382 1 9.55447 16.4155 17.1795
2514 1 12.7073 16.4346 19.5432
2610 1 1.69608 20.2181 19.3773
2609 1 1.75417 17.6781 19.3757
2582 1 3.70617 18.8177 19.4007
2454 1 0.671041 18.7633 17.2251
2388 1 2.79095 20.2217 17.2842
2426 1 3.04314 17.6637 17.2307
2538 1 5.97445 20.1308 19.4818
2493 1 6.00432 17.6214 19.4623
2480 1 8.14742 19.0042 19.7284
1976 1 5.12665 19.0263 17.5435
2273 1 7.22146 20.3241 17.3913
2363 1 7.27618 17.6928 17.318
2481 1 10.5922 17.646 20.2269
2260 1 11.6452 17.8275 17.223
2327 1 11.6574 20.24 17.3316
2211 1 9.50156 18.9036 17.4355
2466 1 10.3922 20.0894 19.4578
2444 1 12.6218 19.0218 19.3419
2532 1 3.73579 21.6762 19.508
2550 1 1.27726 22.8155 19.1279
2556 1 3.54347 24.2174 19.2753
2290 1 0.644844 21.3661 17.2747
1872 1 0.514504 24.0116 17.2669
2275 1 2.93472 22.795 17.1491
2620 1 1.38722 25.3252 19.223
1908 1 2.91402 25.569 17.2473
2546 1 5.96183 22.6686 19.6357
2295 1 5.11608 21.5916 17.3407
2478 1 8.15404 21.4586 19.382
2502 1 8.01724 24.1801 19.3798
2301 1 7.26802 23.042 17.2553
2266 1 4.90252 24.2139 17.301
2571 1 5.72461 25.555 19.5841
2270 1 7.14316 25.3611 17.2416
2308 1 9.6268 21.4207 17.2064
2467 1 12.5788 21.5039 19.2964
2496 1 9.67553 24.0262 17.0404
2437 1 10.2391 22.8727 19.3273
2299 1 11.6737 22.7625 17.1055
2412 1 12.524 24.0694 19.3435
2517 1 10.3519 25.4264 19.1001
2232 1 11.8519 25.5144 17.0956
2586 1 1.34997 27.6994 19.1386
2580 1 3.56086 26.7056 19.7093
2339 1 3.06184 28.0804 17.0699
2268 1 0.51768 26.429 17.2056
2472 1 0.644876 29.1815 17.316
2516 1 3.72396 29.3752 19.3149
2499 1 7.89989 26.7154 19.301
2456 1 8.0259 29.3073 19.3431
2013 1 5.67332 28.0886 19.3275
2269 1 5.11913 26.6249 17.2256
2246 1 7.36802 27.9572 17.295
2288 1 5.05621 29.1038 17.2236
2200 1 10.2376 28.0857 19.5518
2255 1 9.4869 26.7058 17.12
2486 1 12.4514 26.8437 19.2358
2403 1 11.6956 27.9511 17.1186
2202 1 9.51696 29.0075 17.3909
2510 1 12.5636 29.2932 19.7482
2628 1 1.3547 33.0061 19.0746
2297 1 0.428177 31.7232 17.0512
2597 1 1.35458 30.4152 19.4629
2379 1 2.90183 30.4328 17.3499
2555 1 3.66716 31.8846 19.2018
2389 1 3.05113 32.9063 17.1249
2503 1 8.06473 31.7883 19.3494
2492 1 5.84682 30.6119 19.1123
2276 1 4.98783 31.717 16.9527
2518 1 5.89435 33.0861 19.252
2274 1 7.40597 30.6053 17.0852
2300 1 7.33572 33.1586 17.2174
2393 1 12.4568 31.9356 19.4516
2391 1 10.3909 30.6362 19.6544
2345 1 10.1919 33.3172 19.3743
2203 1 11.7617 32.9627 17.3381
2205 1 9.50044 31.8215 17.3484
2188 1 11.6673 30.4794 17.3798
1916 1 13.1611 20.2288 12.9998
917 1 13.0281 20.1686 6.46921
921 1 13.1113 25.5483 6.17408
815 1 0.0305928 5.15059 6.45578
1669 1 0.141342 38.0943 12.9453
811 1 0.0704966 38.0688 6.10696
813 1 0.0844875 2.64616 6.47427
837 1 0.108809 33.0056 6.60443
1804 1 -0.0192543 27.8691 13.0316
1753 1 -0.0282525 20.418 12.8768
839 1 0.0205799 35.5572 6.30011
92 1 15.3889 1.26926 0
94 1 15.3889 3.80777 0
361 1 14.6561 2.31199e-16 2.07269
362 1 16.8545 1.26926 2.07269
363 1 14.6561 2.53851 2.07269
364 1 16.8545 3.80777 2.07269
121 1 17.5873 0 0
123 1 17.5873 2.53851 0
122 1 19.7858 1.26926 0
124 1 19.7858 3.80777 0
391 1 19.0529 2.31199e-16 2.07269
392 1 21.2514 1.26926 2.07269
393 1 19.0529 2.53851 2.07269
394 1 21.2514 3.80777 2.07269
151 1 21.9842 0 0
152 1 24.1826 1.26926 0
153 1 21.9842 2.53851 0
154 1 24.1826 3.80777 0
421 1 23.4498 2.31199e-16 2.07269
422 1 25.6482 1.26926 2.07269
423 1 23.4498 2.53851 2.07269
424 1 25.6482 3.80777 2.07269
181 1 26.381 0 0
183 1 26.381 2.53851 0
96 1 15.3889 6.34628 0
365 1 14.6561 5.07703 2.07269
366 1 16.8545 6.34628 2.07269
367 1 14.6561 7.61554 2.07269
125 1 17.5873 5.07703 0
127 1 17.5873 7.61554 0
126 1 19.7858 6.34628 0
395 1 19.0529 5.07703 2.07269
396 1 21.2514 6.34628 2.07269
397 1 19.0529 7.61554 2.07269
155 1 21.9842 5.07703 0
156 1 24.1826 6.34628 0
157 1 21.9842 7.61554 0
425 1 23.4498 5.07703 2.07269
426 1 25.6482 6.34628 2.07269
427 1 23.4498 7.61554 2.07269
185 1 26.381 5.07703 0
187 1 26.381 7.61554 0
98 1 15.3889 8.8848 0
100 1 15.3889 11.4233 0
368 1 16.8545 8.8848 2.07269
369 1 14.6561 10.1541 2.07269
370 1 16.8545 11.4233 2.07269
129 1 17.5873 10.1541 0
128 1 19.7858 8.8848 0
130 1 19.7858 11.4233 0
398 1 21.2514 8.8848 2.07269
399 1 19.0529 10.1541 2.07269
400 1 21.2514 11.4233 2.07269
158 1 24.1826 8.8848 0
159 1 21.9842 10.1541 0
160 1 24.1826 11.4233 0
428 1 25.6482 8.8848 2.07269
429 1 23.4498 10.1541 2.07269
430 1 25.6482 11.4233 2.07269
189 1 26.381 10.1541 0
371 1 14.6561 12.6926 2.07269
131 1 17.5873 12.6926 0
102 1 15.3889 13.9618 0
104 1 15.3889 16.5003 0
372 1 16.8545 13.9618 2.07269
373 1 14.6561 15.2311 2.07269
374 1 16.8545 16.5003 2.07269
133 1 17.5873 15.2311 0
644 1 13.8338 16.4747 4.26142
401 1 19.0529 12.6926 2.07269
132 1 19.7858 13.9618 0
134 1 19.7858 16.5003 0
402 1 21.2514 13.9618 2.07269
403 1 19.0529 15.2311 2.07269
404 1 21.2514 16.5003 2.07269
161 1 21.9842 12.6926 0
431 1 23.4498 12.6926 2.07269
162 1 24.1826 13.9618 0
163 1 21.9842 15.2311 0
164 1 24.1826 16.5003 0
432 1 25.6482 13.9618 2.07269
433 1 23.4498 15.2311 2.07269
434 1 25.6482 16.5003 2.07269
191 1 26.381 12.6926 0
193 1 26.381 15.2311 0
106 1 15.3889 19.0389 0
375 1 14.6561 17.7696 2.07269
376 1 16.8545 19.0389 2.07269
377 1 14.6561 20.3081 2.07269
135 1 17.5873 17.7696 0
137 1 17.5873 20.3081 0
136 1 19.7858 19.0389 0
405 1 19.0529 17.7696 2.07269
406 1 21.2514 19.0389 2.07269
407 1 19.0529 20.3081 2.07269
165 1 21.9842 17.7696 0
166 1 24.1826 19.0389 0
167 1 21.9842 20.3081 0
435 1 23.4498 17.7696 2.07269
436 1 25.6482 19.0389 2.07269
437 1 23.4498 20.3081 2.07269
195 1 26.381 17.7696 0
197 1 26.381 20.3081 0
108 1 15.3889 21.5774 0
110 1 15.3889 24.1159 0
378 1 16.8545 21.5774 2.07269
379 1 14.6561 22.8466 2.07269
380 1 16.8545 24.1159 2.07269
381 1 14.6561 25.3851 2.07269
139 1 17.5873 22.8466 0
141 1 17.5873 25.3851 0
138 1 19.7858 21.5774 0
140 1 19.7858 24.1159 0
408 1 21.2514 21.5774 2.07269
409 1 19.0529 22.8466 2.07269
410 1 21.2514 24.1159 2.07269
411 1 19.0529 25.3851 2.07269
168 1 24.1826 21.5774 0
169 1 21.9842 22.8466 0
170 1 24.1826 24.1159 0
171 1 21.9842 25.3851 0
438 1 25.6482 21.5774 2.07269
439 1 23.4498 22.8466 2.07269
440 1 25.6482 24.1159 2.07269
441 1 23.4498 25.3851 2.07269
199 1 26.381 22.8466 0
201 1 26.381 25.3851 0
112 1 15.3889 26.6544 0
114 1 15.3889 29.1929 0
382 1 16.8545 26.6544 2.07269
383 1 14.6561 27.9236 2.07269
384 1 16.8545 29.1929 2.07269
143 1 17.5873 27.9236 0
142 1 19.7858 26.6544 0
144 1 19.7858 29.1929 0
412 1 21.2514 26.6544 2.07269
413 1 19.0529 27.9236 2.07269
414 1 21.2514 29.1929 2.07269
684 1 18.4085 29.3205 4.13347
172 1 24.1826 26.6544 0
173 1 21.9842 27.9236 0
174 1 24.1826 29.1929 0
442 1 25.6482 26.6544 2.07269
443 1 23.4498 27.9236 2.07269
444 1 25.6482 29.1929 2.07269
203 1 26.381 27.9236 0
116 1 15.3889 31.7314 0
385 1 14.6561 30.4622 2.07269
386 1 16.8545 31.7314 2.07269
387 1 14.6561 33.0007 2.07269
145 1 17.5873 30.4622 0
147 1 17.5873 33.0007 0
146 1 19.7858 31.7314 0
415 1 19.0529 30.4622 2.07269
416 1 21.2514 31.7314 2.07269
417 1 19.0529 33.0007 2.07269
175 1 21.9842 30.4622 0
176 1 24.1826 31.7314 0
177 1 21.9842 33.0007 0
445 1 23.4498 30.4622 2.07269
446 1 25.6482 31.7314 2.07269
447 1 23.4498 33.0007 2.07269
205 1 26.381 30.4622 0
207 1 26.381 33.0007 0
118 1 15.3889 34.2699 0
120 1 15.3889 36.8084 0
388 1 16.8545 34.2699 2.07269
389 1 14.6561 35.5392 2.07269
390 1 16.8545 36.8084 2.07269
149 1 17.5873 35.5392 0
148 1 19.7858 34.2699 0
150 1 19.7858 36.8084 0
418 1 21.2514 34.2699 2.07269
419 1 19.0529 35.5392 2.07269
420 1 21.2514 36.8084 2.07269
178 1 24.1826 34.2699 0
179 1 21.9842 35.5392 0
180 1 24.1826 36.8084 0
448 1 25.6482 34.2699 2.07269
449 1 23.4498 35.5392 2.07269
450 1 25.6482 36.8084 2.07269
209 1 26.381 35.5392 0
632 1 13.7559 1.55134 4.22945
634 1 13.7336 4.08019 4.1311
633 1 16.1697 2.54424 4.15418
902 1 15.3509 1.34557 6.27647
904 1 15.4023 4.07123 6.20312
931 1 17.4722 37.9877 6.4453
631 1 15.957 0.074201 4.33168
2041 1 13.2901 27.9273 12.8007
663 1 20.4256 2.53266 4.31052
933 1 17.5734 2.67885 6.44271
662 1 18.3975 1.24766 4.35975
664 1 18.5119 3.78267 4.17605
932 1 19.8289 1.30988 6.4167
934 1 19.8022 4.00139 6.37854
661 1 20.4117 -0.037779 4.4521
963 1 22.0054 2.50064 6.27691
961 1 21.8807 37.8565 6.57035
693 1 24.7617 2.61947 4.3456
694 1 22.6298 3.86518 4.28404
692 1 22.5341 1.26238 4.27256
962 1 24.1372 1.35441 6.59916
964 1 24.1297 3.87163 6.54432
691 1 24.7522 0.135653 4.24033
2624 1 18.0306 30.1866 21.2351
635 1 16.1816 5.06776 3.95629
637 1 16.2085 7.64203 4.24007
636 1 14.0087 6.53928 4.04379
906 1 15.2044 6.42325 6.42749
935 1 17.539 5.05 6.24763
2622 1 17.6447 27.7723 21.4401
2627 1 17.3423 24.8001 21.1608
937 1 17.416 7.59383 6.20516
665 1 20.6965 5.11363 4.38804
667 1 20.502 7.6132 4.11071
666 1 18.3746 6.26734 4.23015
936 1 19.9173 6.44138 6.41555
965 1 22.0852 5.06178 6.40315
967 1 21.9028 7.72083 6.22761
695 1 24.9942 5.20495 4.32196
696 1 22.7421 6.3724 4.34294
697 1 24.8992 7.70724 4.1842
966 1 24.143 6.38275 6.12105
2645 1 19.8212 26.0848 21.513
2649 1 20.0463 28.6875 21.4635
640 1 14.0944 11.5308 4.21715
638 1 13.9155 9.15436 4.34859
639 1 16.2876 9.99492 4.13539
908 1 15.3687 9.10814 6.32169
910 1 15.3585 11.4527 6.3719
941 1 17.514 12.7452 6.41064
2305 1 16.8034 29.2277 19.3574
939 1 17.6592 10.271 6.49891
670 1 18.3996 11.4416 4.19546
668 1 18.335 8.89864 4.24564
669 1 20.6254 10.3082 4.34848
938 1 19.7776 8.86149 6.39333
940 1 19.6175 11.3772 6.47353
671 1 20.4022 12.7338 4.31168
969 1 22.0291 10.161 6.47492
698 1 22.6542 8.72934 3.93091
700 1 22.8143 11.4243 4.46561
699 1 25.0284 9.97152 4.16919
968 1 24.0623 8.82438 6.33261
970 1 24.2408 11.3602 6.42715
2640 1 15.7761 26.4977 21.6952
971 1 21.8546 12.6845 6.33797
701 1 24.9004 12.5192 4.19523
641 1 16.3115 12.7528 4.18589
642 1 14.0446 13.9964 4.10137
643 1 16.495 15.2752 4.35763
912 1 15.3732 13.9069 6.23062
914 1 15.3835 16.4787 6.33857
2651 1 19.4699 23.7806 21.4751
943 1 17.5745 15.3191 6.30957
673 1 20.6526 15.3703 4.01371
674 1 18.623 16.5375 4.08356
672 1 18.4603 14.0371 4.12078
942 1 19.7847 14.0806 6.63438
944 1 19.8458 16.3622 6.21241
973 1 22.1843 15.181 6.21912
702 1 22.7535 13.9223 4.15987
703 1 24.8771 15.1758 4.24861
704 1 22.777 16.4008 4.20465
972 1 24.3813 14.0748 6.49209
974 1 24.4445 16.6123 6.28982
2655 1 19.771 13.7516 21.2598
647 1 16.1616 20.2848 4.11228
645 1 16.1675 17.5992 4.33447
646 1 14.0094 18.9379 4.07448
916 1 15.5387 18.937 6.31223
947 1 17.6524 20.5739 6.15348
2643 1 19.8531 3.48954 21.1237
945 1 17.7854 17.7361 6.46181
677 1 20.7292 20.2571 4.27701
676 1 18.4066 19.031 4.17777
675 1 20.6616 17.8289 4.20196
946 1 19.8779 19.1455 6.16862
975 1 22.0634 17.94 6.51948
977 1 22.0124 20.2748 6.36648
706 1 22.7848 18.8598 4.1044
707 1 24.9668 20.1138 4.33391
705 1 24.9075 17.7449 4.09285
976 1 24.5337 19.0053 6.28617
649 1 16.113 22.712 4.27082
650 1 13.9289 24.0945 4.27523
648 1 13.7394 21.6129 4.22443
918 1 15.2763 21.5808 6.14337
920 1 15.3559 24.3248 6.33301
949 1 17.5476 23.0915 6.32436
951 1 17.5978 25.3126 6.4862
2644 1 18.664 1.25825 21.3537
679 1 20.4559 23.1762 4.26564
680 1 18.305 24.2496 4.47399
678 1 18.4755 21.609 4.05801
948 1 19.7002 21.8341 6.33368
950 1 19.9085 24.1279 6.5405
681 1 20.6386 25.6101 4.13076
979 1 21.838 22.792 6.37351
709 1 24.897 22.7953 4.00198
708 1 22.742 21.476 4.30262
710 1 22.7956 24.1902 4.07151
978 1 24.1886 21.4985 6.34275
980 1 24.2821 23.9936 6.31796
2439 1 23.2129 0.0945125 19.4144
653 1 16.0855 27.9105 4.11791
651 1 16.1919 25.4995 4.37104
652 1 13.7388 26.6733 4.07388
654 1 13.852 29.2574 4.23157
922 1 15.4528 26.8483 6.40942
924 1 15.3045 29.1887 6.28343
953 1 17.5473 28.0207 6.19361
981 1 22.2012 25.3003 6.35745
683 1 20.5349 28.195 4.09851
682 1 18.3232 26.6278 4.05872
952 1 19.9967 26.8361 6.27503
954 1 19.8115 29.294 6.38065
983 1 22.1435 27.9842 6.43638
711 1 24.9222 25.4861 4.37973
714 1 22.7163 29.221 4.19744
712 1 22.9717 26.7239 4.19734
713 1 25.0369 27.9288 4.095
982 1 24.263 26.7297 6.37699
984 1 24.3564 29.2376 6.21092
655 1 16.1332 30.5556 4.4142
657 1 16.2443 33.2225 4.34115
656 1 13.9557 31.7108 4.35281
926 1 15.444 31.6722 6.59897
955 1 17.5271 30.3614 6.3073
957 1 17.7553 32.8482 6.49335
687 1 20.5879 33.1334 4.2773
686 1 18.3347 31.8324 4.09282
685 1 20.7544 30.6164 4.37282
956 1 19.9308 31.5479 6.69839
985 1 22.2202 30.4786 6.25968
715 1 25.059 30.482 4.20401
987 1 22.187 33.1001 6.315
717 1 24.8203 33.1584 4.21426
716 1 22.7692 31.8644 4.20442
986 1 24.3073 31.8525 6.45989
2402 1 25.5313 34.4033 19.1848
658 1 14.0209 34.3815 4.36204
659 1 16.1055 35.5679 4.45403
660 1 13.8788 36.9523 4.12744
928 1 15.4226 34.4122 6.53294
930 1 15.3342 36.8874 6.47696
959 1 17.5969 35.5631 6.26436
689 1 20.3945 35.6747 4.14904
688 1 18.3542 34.2511 4.33985
690 1 18.4435 36.7717 4.03448
958 1 19.884 34.2236 6.33705
960 1 19.7463 36.9324 6.38627
989 1 21.9731 35.6229 6.33856
719 1 24.9956 35.7272 4.06556
718 1 22.7589 34.3811 4.30804
720 1 22.6216 36.7859 4.40991
988 1 24.287 34.3352 6.38149
990 1 24.1013 36.8456 6.30788
991 1 26.3669 38.079 6.43576
1173 1 14.7374 2.5721 8.429
1172 1 16.9059 1.30075 8.69991
1442 1 13.9876 1.35985 10.7762
1443 1 16.2125 2.66803 10.8432
1174 1 16.8994 3.86638 8.53795
1444 1 13.6892 4.0224 10.56
1441 1 15.9407 0.321844 10.6156
1204 1 21.3904 3.82204 8.44964
1202 1 21.4696 1.27169 8.46236
1203 1 19.1887 2.86185 8.7665
1472 1 18.2698 1.35552 10.5699
1473 1 20.3787 2.44517 10.7809
1474 1 18.1814 3.78611 10.6598
1233 1 23.4739 2.72456 8.53086
1232 1 25.5744 1.61604 8.72247
1723 1 24.7332 2.66914 10.6628
1793 1 22.7886 1.16133 10.7603
1504 1 22.5693 4.0869 10.6387
1234 1 25.555 4.12595 8.64756
1231 1 23.5686 38.0499 8.50823
1176 1 16.8039 6.34498 8.4774
1177 1 14.4559 7.75628 8.36724
1446 1 13.6876 6.35867 10.577
1175 1 14.8972 4.9929 8.53445
1476 1 16.0858 5.06311 10.6752
1417 1 15.9827 7.43389 10.5784
1206 1 21.2405 6.54567 8.52695
1205 1 19.1898 5.29173 8.57825
1207 1 18.8967 7.72946 8.41483
1477 1 20.4077 7.78774 10.5991
1826 1 20.287 5.10151 10.8172
1475 1 18.2449 6.41579 10.7114
1236 1 25.716 6.44638 8.61823
1237 1 23.4235 7.8766 8.59436
1235 1 23.5013 5.267 8.4291
1505 1 24.6727 5.06772 10.8829
1506 1 22.5579 6.44227 10.517
1507 1 24.8369 7.65843 10.8862
1178 1 16.6428 8.91965 8.3587
1179 1 14.3986 10.391 8.42663
1448 1 13.7937 8.94368 10.6432
1180 1 16.8601 11.4228 8.57761
1450 1 13.8788 11.3958 10.4348
1449 1 16.1698 10.0401 10.5641
1208 1 21.2262 9.11622 8.60357
1478 1 18.1771 8.79396 10.6306
1210 1 21.1292 11.5385 8.56027
1209 1 18.928 10.0858 8.67387
1479 1 20.6781 10.322 10.8984
1480 1 18.3973 11.5054 10.7314
1481 1 20.644 12.6972 10.6311
1211 1 19.0236 12.696 8.54914
1756 1 22.6538 9.00214 10.731
1238 1 25.8152 9.21176 8.22445
1240 1 25.7023 11.6142 8.59373
1239 1 23.7183 10.2798 8.51359
1509 1 24.9179 10.3817 10.6198
1510 1 22.7116 11.4726 10.913
1451 1 16.1299 12.7003 10.3889
1181 1 14.5899 13.0045 8.38891
1183 1 14.3863 15.3098 8.37081
1182 1 16.8842 14.125 8.64933
1452 1 13.7868 13.8424 10.5807
1453 1 16.0817 15.1062 10.6567
1454 1 13.7459 16.4798 10.583
1184 1 16.6443 16.6187 8.4838
1213 1 19.0366 15.4719 8.76252
1214 1 21.1831 16.5808 8.46474
1212 1 21.3177 14.2137 8.51026
1482 1 18.3321 14.0235 10.8188
1483 1 20.4482 15.3434 10.5974
1484 1 18.052 16.4616 10.6898
1511 1 24.8026 13.0072 10.6459
1241 1 23.5399 12.752 8.46895
1242 1 25.553 14.0541 8.59061
1243 1 23.5811 15.4618 8.50973
1512 1 22.5912 14.1973 10.8389
1514 1 22.6155 16.6644 10.7217
1513 1 24.9369 15.4525 10.7132
1244 1 25.8745 16.6752 8.53838
1185 1 14.5819 17.9765 8.36324
1187 1 14.4889 20.521 8.73781
1186 1 16.7939 19.0352 8.45183
1455 1 16.0361 17.8268 10.5595
1457 1 16.1948 20.3705 10.4964
1700 1 13.8047 19.2382 10.8082
1217 1 19.0419 20.1791 8.21815
1216 1 21.2574 19.2171 8.53358
1215 1 19.1788 17.8173 8.40075
1485 1 20.3601 17.7249 10.8054
1486 1 18.2379 18.9533 10.5767
1487 1 20.438 20.4266 10.7469
1245 1 23.7925 18.0061 8.57364
1246 1 25.7114 19.2475 8.54975
1247 1 23.5307 20.3084 8.41004
1515 1 25.0394 17.8863 10.694
1516 1 22.6121 19.1866 10.7195
1517 1 24.8866 20.4927 10.5908
1458 1 13.9249 21.8293 10.6268
1188 1 16.8424 21.5837 8.3716
1189 1 14.6886 22.8711 8.24665
1190 1 16.8516 24.1219 8.61255
1459 1 16.069 22.7006 10.4807
1460 1 13.9385 24.0596 10.5188
1461 1 16.1906 25.3183 10.4588
1191 1 14.704 25.5374 8.35109
1219 1 18.9837 22.65 8.435
1488 1 18.3874 21.6111 10.4834
1220 1 21.4056 24.1062 8.52777
1218 1 21.1818 21.6881 8.65616
1489 1 20.4647 22.9498 10.7826
1490 1 18.2302 24.0591 10.7386
1491 1 20.6697 25.5016 10.6668
1221 1 18.9828 25.4444 8.52423
1250 1 25.8298 23.9351 8.5635
1248 1 25.9962 21.6037 8.12907
1249 1 23.4789 22.6822 8.38772
1518 1 22.7937 21.7339 10.5834
1519 1 25.118 22.8959 10.7017
1520 1 22.8092 24.1505 10.4994
1193 1 14.5196 28.0307 8.5662
1192 1 16.748 26.703 8.4121
1462 1 13.7913 26.5978 10.4947
1463 1 16.0054 27.8382 10.6007
1194 1 16.6027 29.1955 8.76024
1464 1 13.9341 29.1318 10.7198
1222 1 21.3825 26.6056 8.52052
1223 1 19.1652 27.9459 8.33613
1492 1 18.4196 26.5118 10.6552
1493 1 20.4527 28.1065 10.5359
1494 1 18.3113 29.2189 10.6025
1224 1 21.1106 29.3336 8.30795
1251 1 23.3977 25.4081 8.49931
1521 1 24.8902 25.5415 10.7941
1252 1 25.6951 26.3852 8.72057
1253 1 23.3904 27.8652 8.59027
1522 1 22.771 26.8446 10.7207
1523 1 25.0649 28.0643 10.6561
1524 1 22.6073 29.3099 10.5692
1254 1 25.4798 29.0769 8.54747
1196 1 16.6765 31.8781 8.78911
1465 1 15.8804 30.6399 10.8355
1195 1 14.6731 30.5266 8.58191
1197 1 14.5351 33.1452 8.69694
1466 1 13.8781 31.7091 10.619
1467 1 16.4204 33.0594 10.8614
1226 1 21.3614 31.8009 8.51635
1225 1 18.8374 30.5002 8.48278
1497 1 20.3397 33.0018 10.9933
1227 1 19.0685 33.2638 8.6589
1495 1 20.4167 30.4484 10.4629
1496 1 18.2693 31.6283 10.8975
1256 1 25.8476 31.9998 8.66645
1255 1 23.6331 30.8403 8.42766
1257 1 23.6242 33.266 8.89929
1526 1 22.6711 31.8268 10.7296
1527 1 25.1328 33.2655 10.8715
1525 1 24.8509 30.4546 10.5967
1171 1 14.6899 -0.0309395 8.52329
1198 1 17.086 34.3178 8.46204
1468 1 13.8083 34.6122 10.9145
1200 1 16.7534 36.9134 8.60406
1199 1 14.5714 35.6384 8.6292
1470 1 13.8755 36.9904 10.4856
1469 1 15.9699 35.6331 10.9076
1201 1 19.1268 0.232681 8.46828
1471 1 20.4128 -0.00828415 10.7577
1498 1 18.3268 34.5811 10.6806
1228 1 21.3137 34.3357 8.48852
1229 1 19.2113 35.8482 8.51069
1230 1 21.3493 36.7622 8.57843
1499 1 20.488 35.5997 10.5012
1500 1 18.3324 36.8976 11.0239
1501 1 24.9062 0.100034 10.6526
1258 1 25.9249 34.4429 8.52279
1260 1 25.6538 37.0923 8.52793
1528 1 22.5675 34.2491 10.813
1259 1 23.5682 35.5084 8.37693
1529 1 24.777 35.4664 10.7897
1530 1 22.5445 36.7546 10.8861
2042 1 16.9022 1.32177 14.9498
1755 1 15.3219 1.43851 13.0555
2086 1 14.6144 2.63061 15.3801
2034 1 16.8114 3.93987 15.2514
1445 1 15.3376 3.88355 12.9663
2224 1 24.9114 35.5427 17.0633
1899 1 17.629 2.59942 12.9753
1868 1 19.7001 1.28889 12.8255
1847 1 19.7464 3.89991 12.8026
2002 1 21.1223 1.3398 15.0937
2221 1 18.9901 2.7913 14.8689
1882 1 21.2318 3.99764 15.0144
2005 1 18.8811 0.0355435 14.923
1502 1 22.0041 2.70114 12.7387
1822 1 24.3991 1.3261 12.9002
1933 1 23.2448 2.56959 15.0682
1912 1 25.8115 1.27823 14.8188
1917 1 25.7923 4.22957 14.9653
1769 1 24.1076 3.86814 13.1147
2285 1 23.2366 0.163336 15.1092
915 1 13.2146 17.6387 6.37855
1987 1 13.2969 35.6583 12.9589
2129 1 14.6115 7.55659 14.7609
1447 1 15.4364 6.47691 12.8257
2092 1 16.8447 6.35693 14.9458
2122 1 14.7681 5.10408 15.0679
2047 1 17.612 7.84043 12.6225
1706 1 17.5321 4.9032 12.696
1877 1 22.8504 34.0831 17.0455
1960 1 19.0296 5.25589 15.0571
1836 1 19.6384 6.52409 12.9792
1799 1 21.2209 6.4993 15.1809
1922 1 18.8614 7.81631 15.1141
2057 1 22.0058 5.33127 12.8164
1873 1 22.0633 7.86607 12.7215
2050 1 23.6095 7.89055 14.8594
2090 1 23.5216 5.31477 15.1109
1823 1 24.1526 6.55635 12.8758
2066 1 25.5871 6.62473 14.9374
2533 1 25.4672 36.9405 19.1578
1920 1 15.2433 9.06978 12.6887
2084 1 16.757 8.92274 14.8066
1879 1 15.3573 11.4038 12.8101
1974 1 16.8287 11.4128 15.0196
2097 1 14.7172 10.1854 15.0562
2280 1 14.5934 12.6676 14.9758
1834 1 17.3701 12.5899 12.9184
2425 1 23.3307 35.4669 19.1304
1749 1 17.6091 10.216 12.7961
1856 1 19.9012 8.94722 12.7552
2085 1 21.2445 8.88649 15.0573
1698 1 19.7476 11.3588 12.9517
1742 1 21.276 11.5689 15.1873
2060 1 19.093 10.2381 14.9755
1883 1 21.9748 10.3024 13.1847
2001 1 18.9951 12.746 15.1004
1788 1 22.1408 12.8501 12.9337
2037 1 25.7132 9.22869 14.8511
1508 1 24.2339 9.03845 12.8568
1993 1 24.1207 11.6137 12.7855
2207 1 25.7198 11.5059 15.0216
2030 1 23.5507 10.3462 15.3061
2004 1 14.6853 15.0663 14.7349
1702 1 15.2167 13.8418 12.6976
2032 1 16.8715 13.8387 15.11
1693 1 15.3072 16.4028 12.5553
1995 1 16.8627 16.4121 14.8489
1703 1 17.438 15.0299 12.9322
993 1 26.2637 2.59489 6.41053
1743 1 19.8119 13.7525 12.8173
1915 1 19.0874 15.1887 14.9952
1686 1 19.6051 16.5575 13.0509
1978 1 21.2862 13.8611 14.926
1925 1 21.1839 16.379 14.9297
1685 1 21.9258 15.3049 12.8165
2016 1 23.4514 12.8118 14.9228
1971 1 23.3496 15.2449 15.091
1748 1 24.2509 14.0446 12.8138
1690 1 24.1466 16.6617 12.8466
1959 1 25.8241 16.5666 14.8078
1991 1 25.7339 14.1251 14.8194
2010 1 14.693 17.5066 14.8766
2007 1 16.7938 18.954 14.6583
1811 1 15.3621 19.0548 12.7288
1895 1 14.7425 20.2413 14.9094
1638 1 17.5698 20.3833 12.6546
1661 1 17.4264 17.7261 12.764
1909 1 18.9771 20.2172 14.8478
1651 1 19.9327 19.2079 12.9583
1887 1 21.3128 18.9684 15.0511
2316 1 18.994 17.819 15.0844
1655 1 22.1309 20.4171 12.7434
1666 1 21.9924 18.0025 12.7944
1914 1 23.5328 17.5949 15.0614
1927 1 23.4776 20.2584 14.8713
1902 1 24.4123 18.9716 12.9683
1955 1 25.7411 18.8131 15.0166
2171 1 24.8898 38.1115 16.9861
1984 1 16.7919 21.4138 14.7579
1967 1 15.2694 21.5796 12.7972
1647 1 15.3688 24.0824 12.5651
1926 1 17.0853 23.7633 14.9072
1973 1 14.6719 22.8891 14.8874
1634 1 17.7036 22.8362 12.6711
2093 1 14.7951 25.3153 14.6677
1632 1 17.606 25.4484 12.8533
1631 1 19.8551 21.6722 12.7863
1881 1 21.3743 21.5952 14.8924
1664 1 19.3124 22.7672 14.8897
1636 1 19.9298 24.1316 12.6847
1990 1 21.3584 24.327 14.9836
1644 1 22.0909 22.8961 12.8761
1885 1 19.2829 25.2752 14.9933
1673 1 22.1357 25.4726 12.8592
2054 1 25.5349 21.5984 15.1532
1625 1 24.2428 21.7649 12.6732
2053 1 25.6207 24.1448 15.1114
2008 1 23.2718 22.9134 15.1333
1982 1 24.4404 24.2879 12.8616
1635 1 23.486 25.4026 15.0256
2076 1 14.5065 27.903 14.9416
2110 1 16.8419 26.6452 14.8991
1665 1 15.3925 26.7072 12.867
1738 1 15.4514 29.3744 13.1946
2126 1 16.914 29.1818 15.0803
1660 1 17.5232 28.0264 12.5674
1629 1 19.8944 26.6601 12.7305
2025 1 21.4544 26.7181 14.8881
1966 1 19.1922 28.0336 14.9472
1968 1 19.6171 29.2584 12.9054
2068 1 20.9948 29.3009 15.1092
1663 1 21.9435 28.0174 12.6182
1654 1 23.5079 27.8782 15.1107
1767 1 24.1727 26.6423 12.8615
2031 1 25.5682 26.6024 15.3196
1784 1 24.3654 29.2581 12.8242
2067 1 25.4894 29.4562 15.2073
2320 1 22.7267 36.9494 17.3589
2096 1 16.8512 31.9135 15.0523
1994 1 14.6813 33.0616 15.157
1707 1 15.3702 32.002 13.0115
1745 1 14.7707 30.5017 15.2284
1776 1 17.5987 30.6109 12.9136
2309 1 20.5547 35.8727 17.3223
1785 1 17.5445 33.033 13.1315
2029 1 18.9185 30.5145 15.2272
1897 1 19.6373 31.6701 13.097
1929 1 21.3099 31.7693 14.9921
1958 1 18.9998 33.116 15.1346
1714 1 21.8464 32.8775 12.9289
1763 1 22.0942 30.3858 12.8157
2259 1 23.5976 32.9491 15.0084
2020 1 25.6541 31.9138 15.0322
1890 1 23.315 30.4564 14.9349
1725 1 24.2955 31.8087 12.8706
2364 1 19.0998 35.4975 19.424
1807 1 26.2979 5.22672 12.8048
2225 1 14.6446 38.0318 15.0642
1815 1 17.4533 0.0416355 12.8601
2108 1 14.5529 35.5814 15.1218
1691 1 16.6087 36.8608 15.0954
1852 1 15.4936 34.376 13.0544
2083 1 16.7571 34.424 15.4428
1805 1 15.2873 36.952 13.0065
2277 1 18.5414 37.2109 17.2331
2394 1 19.137 37.9443 19.2691
1770 1 17.4782 35.4448 12.9812
1718 1 19.7992 34.2575 13.0572
1903 1 21.1421 34.1382 15.1028
1970 1 21.3122 36.8931 15.12
1939 1 18.8828 35.6515 15.2767
1778 1 19.9283 36.8391 12.8273
1817 1 22.0329 37.9131 12.896
1766 1 21.9991 35.3479 12.9069
1901 1 25.5337 34.3278 15.0828
1692 1 24.2363 34.3328 12.7846
1953 1 23.3648 35.4993 14.8232
1744 1 24.1827 36.868 12.885
1874 1 25.4276 36.7407 14.9635
1938 1 26.3123 27.8671 13.0868
2479 1 16.8046 3.88799 19.5355
2407 1 16.6668 1.30742 19.8418
2501 1 14.2351 2.6853 19.4413
2289 1 15.9497 2.36676 17.57
2321 1 13.9654 1.3031 17.2831
2267 1 13.9472 4.03388 17.2532
2223 1 16.2871 38.0216 17.3928
2524 1 14.6868 0.242007 19.2476
1896 1 20.5969 0.220946 17.2779
2482 1 21.1442 1.4305 19.605
2461 1 18.9482 2.14147 19.1639
1952 1 18.313 1.67337 16.9885
2265 1 20.5283 2.65153 17.0419
2281 1 18.1859 4.15278 17.3773
2406 1 21.3057 3.84566 19.2801
2542 1 25.5428 1.2033 19.0426
2380 1 23.5225 2.56906 19.5311
2263 1 22.8734 1.28229 17.2762
2216 1 25.055 2.50429 16.8776
2217 1 22.6994 3.96069 17.1866
2375 1 25.713 3.48928 19.3567
2333 1 13.9606 6.51026 16.9836
2311 1 15.9554 5.39894 17.4109
2344 1 15.9192 7.77777 17.0957
2508 1 14.6078 5.0529 19.4671
2476 1 17.0172 6.52087 19.3852
2583 1 19.0094 4.97229 19.3587
2531 1 18.9628 7.79967 19.4295
2528 1 21.0099 6.24596 19.6176
2304 1 18.2267 6.47372 17.1362
2233 1 20.5036 5.03215 17.2625
2218 1 20.7289 7.47132 17.3194
2540 1 23.4203 5.17901 19.6245
2577 1 25.6949 6.28219 19.2808
2212 1 22.9617 6.46404 17.4202
2168 1 24.9831 4.96363 17.3097
2201 1 25.0742 7.66951 17.1705
2566 1 23.48 7.82898 19.752
2422 1 13.8539 9.08812 16.9862
2065 1 13.8243 11.4979 17.089
2399 1 16.1484 10.1719 17.1161
2315 1 17.0045 8.85335 19.2512
2471 1 16.7644 11.2189 19.212
2409 1 16.2473 12.5857 17.2738
2636 1 21.0911 11.7169 19.6267
2615 1 21.4947 9.10275 19.3238
2342 1 20.6609 9.97979 17.2816
2573 1 19.0283 10.0855 19.6544
2302 1 18.3995 11.0993 17.2431
2653 1 18.7728 12.5834 19.2579
2587 1 25.6283 8.88309 19.4268
2596 1 25.7921 11.2745 19.0364
2557 1 22.8151 8.98154 17.0178
2169 1 23.4819 10.1853 19.0628
2072 1 25.0658 10.0037 16.9617
2298 1 22.8224 11.3505 17.1396
2522 1 14.5671 12.6021 19.0605
2561 1 16.8929 13.9647 19.3405
2385 1 15.987 15.3688 17.0406
2405 1 14.9199 15.1246 19.2052
2513 1 14.0733 13.9095 16.9804
2334 1 13.8088 16.5411 17.1999
2494 1 17.0092 16.4019 19.3464
2387 1 20.5116 12.5998 17.3258
2512 1 21.3552 13.9803 19.3076
2360 1 20.5809 15.2109 17.3503
2357 1 18.2218 13.864 17.0855
2371 1 18.3681 16.4077 16.97
2465 1 19.0154 15.161 19.5255
2443 1 21.1023 16.5255 19.637
2543 1 23.5456 12.6572 19.3193
2303 1 24.9159 12.8049 16.9498
2536 1 25.5932 16.4115 19.4699
2548 1 23.5312 15.1494 19.5524
2230 1 22.6629 13.8078 17.115
2198 1 24.9402 15.241 17.0455
2526 1 25.6212 13.8189 19.2219
2190 1 22.6073 16.3663 17.1885
2559 1 14.8261 17.6749 19.0607
2511 1 16.2304 17.7781 16.8007
2453 1 14.7043 20.4799 19.4226
2433 1 16.6824 18.9394 19.139
2173 1 16.384 20.1058 17.0222
2336 1 14.039 19.0164 17.2867
2449 1 21.1552 19.1289 19.3073
2436 1 19.1103 17.6407 19.2757
1884 1 18.3268 19.0555 17.0546
2354 1 20.469 17.5917 17.3887
2219 1 20.3089 20.205 16.9104
2350 1 19.012 20.1181 19.1077
2474 1 23.4673 17.7299 19.4155
2541 1 25.3988 19.0835 19.2365
2292 1 24.8435 17.6944 17.2281
2153 1 24.8009 20.1836 17.2393
2127 1 22.6749 19.0203 17.3035
2424 1 23.3913 20.3104 19.5026
2451 1 14.5913 22.8787 19.2132
2284 1 13.8131 21.5007 17.0337
2398 1 16.9175 21.4158 18.9857
2429 1 16.8367 23.7202 18.9384
2237 1 14.1053 24.2154 17.0152
2226 1 16.0579 22.674 16.9757
2414 1 21.0123 21.5671 19.5657
2332 1 21.0399 24.1006 19.8373
2239 1 18.4283 21.6549 17.0075
2428 1 18.8875 22.6901 19.4023
2184 1 18.4247 24.2521 17.1546
2194 1 20.5273 22.9186 17.1507
2228 1 20.5487 25.4796 17.2786
2413 1 25.4346 21.5262 19.6219
2470 1 25.3216 24.0971 19.5283
2257 1 22.6674 21.5332 17.4454
2430 1 23.2186 22.7311 19.6376
2131 1 22.7841 24.1808 17.3731
2159 1 24.7939 22.7021 17.3719
2146 1 24.9386 25.4175 17.3495
2361 1 23.4904 25.5013 19.5711
2348 1 14.5828 25.4661 19.3046
2167 1 16.2727 25.4007 17.2308
2404 1 14.523 28.0221 19.7826
2352 1 16.7181 26.5107 19.4452
2174 1 15.9968 28.0003 17.1177
2222 1 13.951 26.7499 17.2491
2170 1 13.937 29.1108 17.495
2383 1 18.9368 25.3582 19.3005
2324 1 21.109 26.5398 19.5077
2351 1 18.9128 27.9776 19.3262
2193 1 20.5602 27.7839 17.2047
2183 1 18.2696 26.8424 17.2076
2187 1 18.3571 29.1983 17.1435
2338 1 21.177 29.0285 19.6307
2356 1 23.4312 27.8412 19.5496
2384 1 25.5592 26.6239 19.5775
2249 1 24.8426 27.9327 17.3785
2134 1 22.7193 26.6169 17.1392
2197 1 22.8528 29.1975 17.1737
2445 1 25.435 29.1578 19.4311
2335 1 14.5411 30.717 19.7311
2206 1 16.0227 32.9534 17.3011
2196 1 13.7692 31.4495 17.2927
2326 1 16.8922 31.8062 19.2155
2213 1 16.284 30.3331 17.223
2340 1 14.7101 33.1503 19.4493
2328 1 18.9607 32.944 19.5105
2256 1 20.5712 33.2377 17.2995
2209 1 20.5845 30.6618 17.2368
2358 1 21.1976 31.7262 19.2682
2166 1 18.3028 31.587 17.3341
2310 1 19.2486 30.344 19.2446
2252 1 22.6614 31.7478 17.2536
2415 1 25.8024 31.7335 19.627
2341 1 23.5103 32.9776 19.2056
2271 1 25.1224 30.5739 17.3937
2377 1 23.2561 30.3297 19.4723
2215 1 25.0343 32.9748 17.233
2314 1 16.8667 34.2782 19.7492
2370 1 16.9487 36.9851 19.7284
1923 1 13.9084 36.8932 17.4004
2227 1 14.0098 34.2994 17.5181
2434 1 14.755 35.6625 19.6467
2172 1 16.33 35.7156 17.5967
2373 1 21.2276 34.3447 19.3203
2247 1 18.3915 34.3498 17.2891
2368 1 21.2637 36.8189 19.7989
1019 1 26.4235 35.5955 6.34061
1560 1 26.3813 0.0543433 12.7201
995 1 26.3734 5.29975 6.4242
1746 1 26.2805 35.5265 12.7292
1860 1 13.3129 32.9179 12.7742
923 1 13.2013 27.8093 6.21451
925 1 13.3472 30.3776 6.3673
927 1 13.3267 32.8828 6.40342
1906 1 13.3465 5.14488 12.7266
929 1 13.1945 35.5525 6.44138
1813 1 13.2329 2.78051 12.7003
913 1 13.2802 15.3837 6.2547
909 1 13.2856 10.4535 6.3108
1821 1 13.389 30.5561 12.6768
182 1 28.5794 1.26926 0
184 1 28.5794 3.80777 0
451 1 27.8466 2.31199e-16 2.07269
452 1 30.045 1.26926 2.07269
453 1 27.8466 2.53851 2.07269
454 1 30.045 3.80777 2.07269
211 1 30.7778 0 0
213 1 30.7778 2.53851 0
212 1 32.9763 1.26926 0
214 1 32.9763 3.80777 0
481 1 32.2434 2.31199e-16 2.07269
482 1 34.4419 1.26926 2.07269
483 1 32.2434 2.53851 2.07269
484 1 34.4419 3.80777 2.07269
754 1 31.6434 3.81354 4.23943
241 1 35.1747 0 0
242 1 37.3731 1.26926 0
243 1 35.1747 2.53851 0
244 1 37.3731 3.80777 0
511 1 36.6403 2.31199e-16 2.07269
512 1 38.8387 1.26926 2.07269
513 1 36.6403 2.53851 2.07269
514 1 38.8387 3.80777 2.07269
186 1 28.5794 6.34628 0
455 1 27.8466 5.07703 2.07269
456 1 30.045 6.34628 2.07269
457 1 27.8466 7.61554 2.07269
215 1 30.7778 5.07703 0
217 1 30.7778 7.61554 0
216 1 32.9763 6.34628 0
485 1 32.2434 5.07703 2.07269
486 1 34.4419 6.34628 2.07269
487 1 32.2434 7.61554 2.07269
245 1 35.1747 5.07703 0
246 1 37.3731 6.34628 0
247 1 35.1747 7.61554 0
515 1 36.6403 5.07703 2.07269
516 1 38.8387 6.34628 2.07269
517 1 36.6403 7.61554 2.07269
188 1 28.5794 8.8848 0
190 1 28.5794 11.4233 0
458 1 30.045 8.8848 2.07269
459 1 27.8466 10.1541 2.07269
460 1 30.045 11.4233 2.07269
219 1 30.7778 10.1541 0
731 1 29.3257 12.8014 4.02972
218 1 32.9763 8.8848 0
220 1 32.9763 11.4233 0
488 1 34.4419 8.8848 2.07269
489 1 32.2434 10.1541 2.07269
490 1 34.4419 11.4233 2.07269
248 1 37.3731 8.8848 0
249 1 35.1747 10.1541 0
250 1 37.3731 11.4233 0
518 1 38.8387 8.8848 2.07269
519 1 36.6403 10.1541 2.07269
520 1 38.8387 11.4233 2.07269
461 1 27.8466 12.6926 2.07269
221 1 30.7778 12.6926 0
192 1 28.5794 13.9618 0
194 1 28.5794 16.5003 0
462 1 30.045 13.9618 2.07269
463 1 27.8466 15.2311 2.07269
464 1 30.045 16.5003 2.07269
223 1 30.7778 15.2311 0
491 1 32.2434 12.6926 2.07269
222 1 32.9763 13.9618 0
224 1 32.9763 16.5003 0
492 1 34.4419 13.9618 2.07269
493 1 32.2434 15.2311 2.07269
494 1 34.4419 16.5003 2.07269
762 1 31.5684 13.8949 4.32038
251 1 35.1747 12.6926 0
521 1 36.6403 12.6926 2.07269
252 1 37.3731 13.9618 0
253 1 35.1747 15.2311 0
254 1 37.3731 16.5003 0
522 1 38.8387 13.9618 2.07269
523 1 36.6403 15.2311 2.07269
524 1 38.8387 16.5003 2.07269
196 1 28.5794 19.0389 0
465 1 27.8466 17.7696 2.07269
466 1 30.045 19.0389 2.07269
467 1 27.8466 20.3081 2.07269
225 1 30.7778 17.7696 0
227 1 30.7778 20.3081 0
226 1 32.9763 19.0389 0
495 1 32.2434 17.7696 2.07269
496 1 34.4419 19.0389 2.07269
497 1 32.2434 20.3081 2.07269
255 1 35.1747 17.7696 0
256 1 37.3731 19.0389 0
257 1 35.1747 20.3081 0
525 1 36.6403 17.7696 2.07269
526 1 38.8387 19.0389 2.07269
527 1 36.6403 20.3081 2.07269
198 1 28.5794 21.5774 0
200 1 28.5794 24.1159 0
468 1 30.045 21.5774 2.07269
469 1 27.8466 22.8466 2.07269
470 1 30.045 24.1159 2.07269
471 1 27.8466 25.3851 2.07269
229 1 30.7778 22.8466 0
231 1 30.7778 25.3851 0
228 1 32.9763 21.5774 0
230 1 32.9763 24.1159 0
498 1 34.4419 21.5774 2.07269
499 1 32.2434 22.8466 2.07269
500 1 34.4419 24.1159 2.07269
501 1 32.2434 25.3851 2.07269
258 1 37.3731 21.5774 0
259 1 35.1747 22.8466 0
260 1 37.3731 24.1159 0
261 1 35.1747 25.3851 0
528 1 38.8387 21.5774 2.07269
529 1 36.6403 22.8466 2.07269
530 1 38.8387 24.1159 2.07269
531 1 36.6403 25.3851 2.07269
202 1 28.5794 26.6544 0
204 1 28.5794 29.1929 0
472 1 30.045 26.6544 2.07269
473 1 27.8466 27.9236 2.07269
474 1 30.045 29.1929 2.07269
233 1 30.7778 27.9236 0
232 1 32.9763 26.6544 0
234 1 32.9763 29.1929 0
502 1 34.4419 26.6544 2.07269
503 1 32.2434 27.9236 2.07269
504 1 34.4419 29.1929 2.07269
262 1 37.3731 26.6544 0
263 1 35.1747 27.9236 0
264 1 37.3731 29.1929 0
532 1 38.8387 26.6544 2.07269
533 1 36.6403 27.9236 2.07269
534 1 38.8387 29.1929 2.07269
206 1 28.5794 31.7314 0
475 1 27.8466 30.4622 2.07269
476 1 30.045 31.7314 2.07269
477 1 27.8466 33.0007 2.07269
235 1 30.7778 30.4622 0
237 1 30.7778 33.0007 0
746 1 27.0141 31.8351 4.31298
236 1 32.9763 31.7314 0
505 1 32.2434 30.4622 2.07269
506 1 34.4419 31.7314 2.07269
507 1 32.2434 33.0007 2.07269
265 1 35.1747 30.4622 0
266 1 37.3731 31.7314 0
267 1 35.1747 33.0007 0
535 1 36.6403 30.4622 2.07269
536 1 38.8387 31.7314 2.07269
537 1 36.6403 33.0007 2.07269
208 1 28.5794 34.2699 0
210 1 28.5794 36.8084 0
478 1 30.045 34.2699 2.07269
479 1 27.8466 35.5392 2.07269
480 1 30.045 36.8084 2.07269
239 1 30.7778 35.5392 0
238 1 32.9763 34.2699 0
240 1 32.9763 36.8084 0
508 1 34.4419 34.2699 2.07269
509 1 32.2434 35.5392 2.07269
510 1 34.4419 36.8084 2.07269
268 1 37.3731 34.2699 0
269 1 35.1747 35.5392 0
270 1 37.3731 36.8084 0
538 1 38.8387 34.2699 2.07269
539 1 36.6403 35.5392 2.07269
540 1 38.8387 36.8084 2.07269
808 1 36.0776 34.3018 4.0069
723 1 29.2362 2.50119 4.09401
722 1 27.1635 1.24172 4.27133
724 1 27.1618 3.82637 4.37032
992 1 28.5025 1.33976 6.32629
994 1 28.5067 3.88722 6.41155
721 1 29.3826 38.0494 4.05167
1023 1 30.6684 2.54388 6.17904
753 1 33.8539 2.47375 4.25187
752 1 31.7597 1.0246 4.18853
1022 1 32.8972 1.36992 6.49137
1024 1 32.9746 3.75471 6.28873
1053 1 34.9811 2.41987 6.54524
784 1 35.9262 3.67458 4.18651
782 1 36.0684 1.31326 4.19227
783 1 38.3529 2.53166 4.2334
1052 1 37.3028 1.32317 6.55128
1054 1 37.5403 3.80966 6.32105
781 1 38.2017 0.0497233 4.15355
727 1 29.4509 7.70952 4.12905
725 1 29.4319 4.9178 4.0466
726 1 27.157 6.19986 4.23063
996 1 28.7377 6.36764 6.19774
1027 1 30.7817 7.7379 6.42875
1025 1 30.7899 4.86699 6.45427
755 1 33.7499 4.99863 4.27741
756 1 31.5883 6.46572 4.13922
757 1 33.6471 7.46603 4.35978
1026 1 33.0214 6.2788 6.48425
1057 1 35.0497 7.53227 6.35004
1055 1 35.2468 4.88679 6.25984
786 1 35.8806 6.24733 4.15014
787 1 38.0878 7.4837 4.22509
785 1 38.0858 5.07021 4.23062
1056 1 37.1878 6.39285 6.51652
1781 1 26.5838 15.2135 12.8619
730 1 27.0249 11.4569 4.32135
729 1 29.4329 10.23 4.24519
728 1 27.2728 8.84282 4.21992
998 1 28.6131 9.02971 6.31827
1000 1 28.6494 11.6234 6.24518
1029 1 30.8398 10.3399 6.44034
1031 1 31.067 12.651 6.5449
759 1 33.7252 10.1174 4.20776
760 1 31.6485 11.3786 4.16196
758 1 31.4713 9.08805 4.18769
1028 1 32.9369 8.85539 6.43543
1030 1 33.0851 11.4496 6.59093
1059 1 34.9582 10.0884 6.40898
1061 1 35.2856 12.7686 6.33156
790 1 35.8496 11.4096 4.34959
789 1 38.0209 10.0824 4.26636
788 1 35.9164 8.86782 4.44306
1058 1 37.2859 8.81325 6.61022
1060 1 37.4432 11.2468 6.49959
819 1 39.4926 10.1349 6.30392
732 1 27.224 14.008 4.18527
733 1 29.4828 15.2891 3.99763
734 1 26.9873 16.3561 4.49001
1002 1 28.7709 14.0411 6.29236
1004 1 28.8944 16.4154 6.29447
1033 1 30.8332 15.3928 6.48431
1842 1 26.5554 20.1544 13.1943
761 1 33.7572 12.6988 4.43981
763 1 33.8559 15.2681 4.15118
764 1 31.626 16.3999 4.34506
1032 1 33.0102 14.0339 6.52125
1034 1 32.9972 16.6294 6.53879
1063 1 35.074 15.2921 6.25819
791 1 38.2608 12.5809 4.15788
792 1 35.8704 14.0381 4.11702
794 1 35.9883 16.6994 4.21813
793 1 37.9479 15.337 4.33568
1062 1 37.2606 14.01 6.11054
1064 1 37.3756 16.7821 6.25168
737 1 29.4295 20.3029 4.22529
735 1 29.1724 17.6362 4.25366
2594 1 30.0052 1.15639 19.1812
736 1 27.1667 19.1638 4.07256
1006 1 28.6887 19.1368 6.56741
1733 1 26.5065 7.88069 12.7716
767 1 33.7254 20.3704 4.26058
1037 1 30.8186 20.4983 6.65486
1035 1 30.8031 18.0129 6.59004
766 1 31.6451 19.0262 4.03768
765 1 33.923 17.6838 4.21141
1036 1 32.9025 19.1029 6.32872
1065 1 35.2331 17.7856 6.36859
1067 1 35.1012 20.2526 6.41666
795 1 38.1458 17.8284 4.2093
796 1 35.8827 19.0545 4.09268
797 1 38.1318 20.3819 4.09153
1066 1 37.4505 19.0898 6.38269
740 1 27.1686 24.0139 4.24541
739 1 29.2937 22.6595 4.17667
738 1 27.1237 21.6031 3.95438
1008 1 28.6054 21.6548 6.42491
1010 1 28.7298 24.2894 6.28731
1864 1 26.4311 22.6394 12.8764
1039 1 31.0212 23.1593 6.42432
768 1 31.6678 21.5624 4.4435
769 1 33.9425 22.8633 4.44852
770 1 31.608 24.0553 4.14244
1038 1 33.0895 21.6231 6.58159
1040 1 32.9655 24.4852 6.31517
771 1 33.7058 25.6341 4.15267
1069 1 35.3278 22.8414 6.77905
800 1 35.9363 24.214 4.17179
798 1 35.8805 21.6595 4.12248
799 1 38.0214 22.9336 4.20551
1068 1 37.3427 21.5746 6.12891
1070 1 37.3622 24.0081 6.52201
801 1 38.0679 25.6604 3.91422
1071 1 35.1976 25.2892 6.42709
741 1 29.4998 25.0575 4.20928
744 1 27.0653 29.0994 4.38475
743 1 29.2911 28.0794 4.39466
742 1 27.0782 26.536 4.30517
1012 1 28.5899 26.7038 6.41582
1014 1 28.8041 29.375 6.54425
2551 1 39.0977 36.7665 19.2836
1041 1 30.8866 25.6085 6.39554
1043 1 30.9571 28.1359 6.65369
773 1 33.7093 28.0389 4.32919
774 1 31.5079 29.3179 4.50405
772 1 31.3839 26.7672 4.2264
1042 1 33.1009 26.8696 6.39239
1044 1 33.2052 29.1361 6.42139
1073 1 35.3083 27.7966 6.39503
802 1 35.9182 26.8472 4.25246
804 1 35.8274 29.3684 4.39176
803 1 38.0369 28.1085 4.16776
1072 1 37.2939 26.5755 6.22352
1074 1 37.6591 29.3218 6.44958
745 1 29.1988 30.4612 4.06258
747 1 29.1543 33.0255 4.23953
1016 1 28.5025 31.8877 6.38979
2629 1 38.8111 34.2585 19.354
1045 1 30.7525 30.715 6.53411
1047 1 30.6175 33.176 6.59209
776 1 31.2314 31.7487 4.4199
777 1 33.7268 33.0726 4.11853
775 1 33.66 30.7302 4.12565
1046 1 33.0294 31.791 6.35249
1075 1 35.3291 30.4995 6.46484
807 1 38.2973 33.0967 4.24359
1077 1 35.2734 33.1539 6.28843
806 1 36.1372 31.6962 4.27335
805 1 38.1002 30.5327 4.2717
1076 1 37.4633 31.8421 6.28043
750 1 27.1368 36.7783 4.2443
748 1 27.1257 34.3915 4.09255
749 1 29.3171 35.6188 4.42782
1018 1 28.4147 34.6088 6.53409
1020 1 28.467 36.9354 6.56348
1949 1 35.8068 34.435 17.2325
1049 1 30.7889 35.5755 6.50613
1021 1 30.7203 37.9215 6.48829
751 1 33.6977 37.7972 4.29701
778 1 31.5835 34.1745 4.2552
780 1 31.446 36.7722 4.36277
779 1 33.549 35.4701 4.06044
1048 1 32.9612 34.211 6.3739
1050 1 33.0067 36.9124 6.58409
1051 1 35.1801 37.9488 6.33298
810 1 35.9551 36.8123 4.2181
1079 1 34.9631 35.5379 6.16801
809 1 38.1074 35.5423 4.2114
1078 1 37.3754 34.3842 6.22272
1080 1 37.2785 36.9333 6.29526
1262 1 29.9916 1.42098 8.58539
1263 1 27.7928 2.7584 8.55328
1533 1 29.3874 2.59678 10.7197
1532 1 27.0662 1.23078 10.664
1534 1 27.0637 3.90557 10.6389
1264 1 30.0463 3.81768 8.70237
1261 1 27.9029 0.222383 8.39066
1293 1 32.1352 2.52083 8.62561
1292 1 34.2744 1.17642 8.46207
1562 1 31.3046 1.11483 10.7048
1563 1 33.7386 2.40155 10.7041
1294 1 34.4876 3.63579 8.73323
1564 1 31.6786 3.76896 10.77
1322 1 38.9229 1.27274 8.5318
1324 1 38.7596 3.73896 8.44561
1323 1 36.5564 2.45781 8.67534
1592 1 35.9102 1.20526 10.7222
1593 1 38.2712 2.43843 10.4954
1594 1 35.8969 3.72078 10.8873
1265 1 27.8122 5.27782 8.80942
1266 1 30.007 6.17854 8.59737
1267 1 27.7932 7.88175 8.54452
1536 1 27.0638 6.40826 10.72
1537 1 29.5715 7.756 10.6923
1535 1 29.2492 5.08709 10.7609
1295 1 32.2309 4.89573 8.44935
1296 1 34.3675 6.17431 8.67366
1297 1 32.1936 7.51713 8.45888
1565 1 33.7942 5.28068 10.648
1566 1 31.4247 6.23568 10.6145
1567 1 33.8522 7.63058 10.7495
1325 1 36.6571 4.88472 8.52459
1327 1 36.2828 7.53466 8.75569
1326 1 38.7473 6.28557 8.63977
1595 1 38.1528 4.88858 10.651
1596 1 35.9836 6.20589 10.7794
1597 1 37.8991 7.65914 10.8186
1268 1 30.1961 8.91451 8.35345
1270 1 30.0485 11.5515 8.49634
1269 1 27.978 10.3706 8.70174
1538 1 27.0882 8.89019 10.5729
1540 1 27.1831 11.5443 10.7562
1539 1 29.5083 10.242 10.6959
1541 1 29.3212 12.8216 10.5789
1298 1 34.2712 8.68662 8.63448
1300 1 34.4113 11.501 8.66759
1299 1 32.2571 10.1739 8.5852
1569 1 33.7422 10.2157 10.7059
1570 1 31.5567 11.5074 10.642
1719 1 31.7256 8.97573 10.3532
1598 1 35.8396 8.86696 10.9548
1328 1 38.6497 8.82865 8.57722
1329 1 36.5725 10.0865 8.61791
1330 1 38.7818 11.5807 8.48131
1599 1 38.0714 10.1732 10.7825
1600 1 35.9723 11.4941 10.653
1601 1 37.9349 12.7463 10.7675
1331 1 36.5971 12.6904 8.42241
1271 1 27.9179 12.7998 8.44977
1274 1 30.2016 16.8054 8.62246
1273 1 28.2066 15.1868 8.51077
1272 1 30.2286 14.0141 8.57735
1542 1 27.0978 14.0311 10.6532
1543 1 29.1926 15.2432 10.8933
1544 1 27.0837 16.5465 10.5361
1301 1 32.2909 12.7877 8.61014
1571 1 33.7369 12.5601 10.7818
1303 1 32.4162 15.2602 8.84281
1302 1 34.4621 14.0468 8.35168
1572 1 31.5699 13.9228 10.8729
1576 1 33.7551 15.1054 11.0054
1574 1 31.2366 16.3763 11.0104
1304 1 34.4519 16.5614 8.61067
1334 1 38.6516 16.4345 8.60037
1333 1 36.5513 15.2279 8.66791
1332 1 38.6862 13.9368 8.48967
1602 1 35.8873 14.0191 10.7634
1603 1 37.8948 15.2438 10.8623
1604 1 35.7556 16.5751 10.8468
1275 1 27.9105 17.9674 8.46085
1276 1 30.3711 19.3134 8.71182
1277 1 27.9752 20.3325 8.64123
1545 1 29.224 17.8853 10.9563
1546 1 27.2565 19.0575 10.7153
1547 1 29.3956 20.435 10.656
1306 1 34.3971 18.9386 8.457
1305 1 32.3331 17.736 8.82416
1307 1 32.4602 20.4988 8.64911
1578 1 33.6473 20.2581 10.9554
1606 1 33.6846 17.9414 10.9712
1724 1 31.3518 19.1264 10.7923
1336 1 38.7896 19.0189 8.78213
1337 1 36.7797 20.3082 8.47161
1335 1 36.5238 17.6777 8.60494
1605 1 37.9918 17.6691 10.8371
1607 1 37.9775 20.1979 10.8975
1892 1 35.8185 18.94 10.6585
1279 1 28.0085 22.9635 8.51155
1548 1 27.2225 21.675 10.6036
1278 1 29.9965 21.7752 8.57984
1280 1 30.1219 24.3271 8.4365
1550 1 27.0545 24.0467 10.7886
1951 1 29.3936 22.9083 10.6848
1551 1 29.3419 25.4492 10.9803
1281 1 27.9167 25.4657 8.56844
1308 1 34.6517 21.5787 8.65174
1579 1 31.5498 21.7835 10.7874
1310 1 34.3941 24.0705 8.7351
1309 1 32.3127 23.0264 8.65049
1580 1 31.5596 24.1203 10.8246
1858 1 33.4725 23.0072 10.7808
1581 1 33.6459 25.5349 10.8201
1340 1 38.9418 24.1233 8.37105
1339 1 36.7876 22.8625 8.57634
1608 1 35.8596 21.666 10.7766
1338 1 38.8858 21.4296 8.65133
1610 1 35.7049 24.2313 10.7249
1758 1 38.0645 23.0501 10.4773
1284 1 30.2389 29.2182 8.69991
1282 1 29.9069 26.5821 8.66821
1283 1 27.6523 27.8705 8.73626
1552 1 27.0659 26.4417 10.9712
1553 1 29.3178 27.9473 10.719
1697 1 27.2557 29.2125 10.9488
1311 1 32.1432 25.4044 8.69329
1314 1 34.5512 29.2341 8.38666
1312 1 34.5127 26.6241 8.5342
1313 1 32.332 27.8924 8.64388
1582 1 31.4942 26.6567 10.8828
1584 1 31.5722 29.2149 10.6265
1583 1 33.7578 27.9752 10.6349
1341 1 36.739 25.3625 8.66469
1611 1 38.1075 25.6099 10.6291
1342 1 38.8441 26.9174 8.54245
1612 1 35.7426 26.7247 10.7087
1343 1 36.6807 28.1208 8.70166
1613 1 38.1939 27.8857 10.9141
1614 1 36.0811 29.3268 10.9391
1344 1 38.8631 29.1997 8.65368
1287 1 28.1358 33.0021 8.4711
1286 1 30.1186 31.7472 8.665
1285 1 27.7664 30.4322 8.71022
1555 1 29.4438 30.4593 10.9841
1556 1 27.2283 31.7376 10.5955
1557 1 29.4227 33.0991 10.8994
1317 1 32.2588 32.9898 8.46059
1316 1 34.5979 31.8351 8.6433
1315 1 32.4366 30.3695 8.62858
1585 1 33.7731 30.3119 10.8127
1586 1 31.555 31.5544 10.7073
1587 1 33.7776 32.8524 10.6153
1345 1 36.9312 30.5405 8.64699
1346 1 38.7981 31.649 8.49133
1347 1 36.8714 32.9865 8.62781
1615 1 38.42 30.4952 10.8226
1616 1 36.3227 31.6697 10.6684
1617 1 38.3547 33.0722 10.6419
1531 1 29.3479 37.8703 10.4514
1288 1 30.0844 34.2251 8.74573
1289 1 27.8665 35.9087 8.73181
1290 1 30.0336 36.8798 8.54569
1558 1 27.2632 34.2516 10.6955
1559 1 29.3365 35.5877 10.8239
1677 1 27.1058 36.8402 10.7771
1291 1 32.233 38.1282 8.52223
1561 1 33.6347 38.0378 10.6805
1319 1 32.413 35.3524 8.46259
1588 1 31.5116 34.1434 10.7269
1318 1 34.6852 34.1734 8.5655
1590 1 31.8081 36.5309 10.5553
1589 1 33.8651 35.4754 10.8503
1320 1 34.4314 36.7019 8.73748
1591 1 38.1301 37.9301 10.7417
1321 1 36.711 37.838 8.51566
1349 1 36.9552 35.4722 8.50427
1618 1 36.1528 34.407 10.6155
1348 1 39.0179 34.2948 8.65811
1620 1 35.8678 36.85 10.7538
1619 1 38.272 35.6096 10.6027
1350 1 38.9052 36.916 8.49359
2039 1 27.7996 2.67332 14.8929
1683 1 28.5585 1.27354 12.7927
2003 1 30.079 1.11509 14.9138
2077 1 29.9855 3.85539 15.1566
1674 1 28.4533 3.81166 12.7512
1623 1 31.1077 2.49292 12.7487
2033 1 27.8246 0.0484338 14.9395
2014 1 36.6736 35.8939 19.5163
1671 1 33.1417 1.19398 12.7578
2075 1 32.1727 2.70194 14.8855
1652 1 33.1753 3.7259 12.783
2015 1 34.4256 1.23837 15.0401
2095 1 34.4449 3.87113 15.1507
1656 1 35.1707 2.47817 12.729
1641 1 37.5103 1.3682 12.6594
1633 1 37.4032 3.78345 12.8102
2464 1 38.9427 1.33509 14.7501
2088 1 38.8848 3.8621 15.1851
2523 1 36.7713 2.60424 15.0793
2070 1 27.953 5.41714 15.0613
1739 1 30.0744 6.45188 15.0783
1741 1 28.5429 6.38244 12.8679
2102 1 27.7964 7.73358 14.8009
1825 1 39.5588 12.6824 12.9707
1689 1 30.8278 7.63954 12.9058
1626 1 30.7756 4.84038 12.7592
2046 1 32.147 5.16609 15.2249
1624 1 32.9641 6.32576 12.9054
1628 1 32.1932 7.58961 15.306
2073 1 34.4916 6.34384 15.0825
2078 1 35.072 5.05836 12.8726
1621 1 35.1218 7.45528 12.885
2157 1 36.6532 7.60882 15.0968
1701 1 37.3927 6.34867 12.8974
2264 1 38.813 6.26333 15.0765
2408 1 36.6358 5.14421 14.9585
2397 1 38.1086 35.5731 17.457
2294 1 39.4657 7.53717 12.9805
1737 1 28.7166 8.90848 12.6935
2081 1 30.0738 8.90968 14.946
1765 1 27.9965 10.2609 15.3596
2089 1 28.5748 11.2755 13.2476
2106 1 30.2855 11.4769 15.2692
2026 1 28.0318 12.7941 15.0871
1645 1 39.4671 2.60976 12.7343
2362 1 35.9993 36.9865 17.4867
1568 1 30.84 10.1846 12.8267
1786 1 30.8211 12.5672 12.9312
1869 1 33.1027 8.88609 12.9875
2113 1 34.3741 8.84712 15.0905
1809 1 32.9774 11.3271 12.9355
2128 1 32.3676 10.1129 14.9381
2162 1 34.4683 11.481 14.9248
2109 1 32.2818 12.6607 14.9859
1814 1 35.3752 10.0709 13.1
2119 1 37.336 8.81067 13.0975
2138 1 37.4188 11.4861 13.0601
1838 1 36.7685 10.2047 15.1998
1806 1 38.935 8.78189 15.112
2286 1 38.8821 11.3627 15.0893
2313 1 36.8466 12.6839 14.9079
2614 1 34.4228 34.2416 19.5027
1859 1 28.7144 13.8302 12.8354
1789 1 28.5978 16.6195 12.859
2116 1 30.3153 14.111 15.3354
2012 1 28.1601 15.3063 15.0426
2306 1 30.3324 16.604 15.4043
1849 1 30.7777 15.2922 13.2003
1796 1 32.9675 13.9148 12.8037
1573 1 32.8052 16.4888 12.8381
2059 1 32.6889 15.1409 15.0008
2062 1 34.6376 16.5256 14.928
1848 1 34.6266 13.8382 15.0655
1846 1 35.171 12.5807 12.8932
2056 1 35.2178 15.0945 13.1536
1797 1 36.6939 15.2354 15.1489
2100 1 37.3937 14.067 12.8828
2121 1 38.9292 16.5837 15.3294
1704 1 37.3422 16.5571 13.1063
2392 1 39.0206 13.9397 15.3021
1975 1 28.159 17.779 15.1669
1977 1 27.8578 20.3537 15.3908
1947 1 28.6465 18.9679 13.0583
2104 1 30.1434 19.0679 15.223
2539 1 32.2038 35.5737 19.2012
1957 1 30.8112 17.9363 13.2614
1851 1 30.6634 20.3094 12.6856
2117 1 32.936 19.0056 12.9203
1575 1 32.4462 20.4919 14.8718
1886 1 34.5863 18.9499 15.0166
2052 1 32.535 17.6847 15.2713
1681 1 35.1446 20.3822 12.9479
2045 1 35.2693 17.6905 12.8858
2022 1 38.8494 19.1013 14.8785
1934 1 37.1332 19.1202 12.8476
1945 1 36.7225 20.3816 14.9612
2258 1 36.8173 17.9615 15.2128
2418 1 31.5611 34.2621 16.9399
1720 1 28.3818 21.72 12.7734
1910 1 30.022 21.711 14.9196
2112 1 30.1111 24.1258 14.9971
1735 1 28.5247 24.1133 12.8404
2044 1 27.7531 22.7711 15.0596
2069 1 27.792 25.2573 14.9795
1549 1 30.6975 22.9048 12.8784
1577 1 34.556 21.6037 15.021
2011 1 32.864 21.7643 12.7144
1998 1 32.1957 22.9239 14.9804
2107 1 32.9471 24.256 12.9479
1942 1 34.6096 23.995 14.9355
1857 1 35.1041 22.7682 12.8097
1609 1 35.2833 25.443 12.9211
2074 1 32.2803 25.4143 14.9585
1986 1 38.9193 21.6334 15.0856
1850 1 37.3988 21.7329 12.6785
2017 1 36.6993 22.7872 14.9283
1840 1 38.858 24.2013 14.7589
1875 1 37.3387 24.0233 12.6571
2601 1 34.4851 36.8169 19.166
1554 1 27.8437 27.9456 15.2306
2055 1 30.0452 26.6303 15.0255
1862 1 28.7031 26.8687 13.0212
1997 1 30.0041 28.9935 15.2684
1798 1 28.5484 29.2982 12.978
1713 1 30.9074 25.3355 12.7892
1827 1 30.7939 28.1652 12.8573
2038 1 32.0757 27.9447 14.9173
1963 1 34.3426 26.6088 14.8945
1940 1 33.0723 26.719 12.7839
1919 1 33.2699 29.2107 12.7523
1928 1 34.3338 29.1581 14.9631
1972 1 36.6144 25.2418 14.8124
1843 1 35.1969 27.8064 12.7769
1888 1 36.9477 27.9794 14.9939
1374 1 37.4758 26.4992 13.0371
1837 1 38.721 26.5012 15.0867
1870 1 38.8825 29.3972 15.1231
1844 1 37.3995 29.2698 12.9385
1999 1 27.9775 33.0591 14.8751
1944 1 30.1029 31.6105 15.324
1950 1 27.9639 30.4978 14.9444
1722 1 28.7079 31.9304 13.0976
1845 1 30.7857 30.6252 13.0388
1833 1 30.9548 32.9051 12.864
1948 1 32.2919 32.8165 15.1225
1810 1 33.0701 31.5733 13.0458
2028 1 32.2216 30.5891 14.9096
2331 1 34.442 31.7317 15.1583
1829 1 35.2515 33.041 12.8487
1867 1 35.2859 30.5557 12.8866
1905 1 36.763 33.2183 15.1142
1863 1 38.5974 31.7826 15.0366
1752 1 37.2952 31.9669 12.9061
2244 1 36.3557 30.235 15.1729
1761 1 39.4121 30.4124 13.0353
1643 1 30.7887 37.834 12.755
1962 1 30.1338 34.3582 14.9806
1907 1 27.5572 35.6203 15.0897
1979 1 29.9324 36.6962 14.9172
1808 1 28.6021 34.3871 12.7524
1675 1 28.4593 36.7749 12.8413
1680 1 35.0943 37.984 12.8051
1764 1 32.2259 -0.0266702 14.8444
1983 1 30.8169 35.5202 12.8128
1992 1 34.2588 36.7799 14.9505
1941 1 34.3763 34.0269 15.2987
1820 1 32.9239 34.0594 12.7542
2018 1 32.2156 35.5681 14.9949
1687 1 33.1137 36.6223 12.8134
1750 1 35.0466 35.373 12.9847
2432 1 36.4448 38.0452 14.8941
2091 1 38.839 36.9571 15.1966
1980 1 36.5471 35.5855 15.2191
1989 1 38.9744 34.4951 15.1156
1782 1 37.4695 34.3455 12.8127
1684 1 37.5204 36.9938 12.9109
1695 1 26.4991 32.9634 12.8648
2337 1 29.3777 0.0651355 17.0525
2630 1 30.1755 3.91878 19.217
2563 1 27.8687 2.37237 19.0618
2330 1 29.366 2.56614 17.1876
2199 1 27.2326 1.20693 17.0725
2319 1 27.2186 3.83368 17.0447
2565 1 27.6571 0.0411277 19.0017
2647 1 33.8076 0.164304 17.4355
2648 1 32.1145 0.0333196 19.0275
2598 1 32.0144 2.47141 19.1967
2372 1 31.4208 1.34119 16.8893
2515 1 33.6369 2.47953 16.9977
2181 1 31.5366 3.82156 17.2979
2530 1 34.3886 3.49766 19.1405
2058 1 37.9212 0.121059 17.2851
2591 1 35.8546 1.43288 17.3116
2506 1 38.0576 2.56875 17.0875
2619 1 36.0272 3.86966 17.4052
2632 1 27.8545 7.61577 19.054
2608 1 27.828 4.9213 19.2391
2178 1 27.0982 6.29255 16.9344
2179 1 29.525 5.14388 17.1515
2240 1 29.3481 7.70295 16.9824
2552 1 30.1143 6.37885 19.3452
2588 1 32.2786 4.91996 19.5596
2381 1 33.8237 5.03406 17.3425
2234 1 31.7926 6.34959 17.4453
2367 1 33.861 7.84672 17.2928
2374 1 35.988 6.34994 17.4016
2400 1 38.121 4.97387 17.2176
2463 1 38.2031 7.51709 17.5086
2576 1 29.9786 8.71702 19.1122
2229 1 27.2702 9.04764 17.4997
2180 1 29.3879 10.3886 17.4978
2248 1 27.3351 11.5538 17.1036
2560 1 27.9873 10.1302 19.5993
2440 1 33.9334 10.1697 16.9771
2293 1 31.4445 9.13901 17.129
2343 1 31.8203 11.3969 17.2299
2457 1 33.6982 12.9145 17.1188
2421 1 36.0321 9.0788 17.2369
2585 1 38.1124 10.2887 17.1912
2189 1 35.9611 11.5014 16.9651
2487 1 38.0371 12.683 17.2767
2607 1 27.9757 12.5447 19.301
2261 1 29.4825 12.7917 17.489
2600 1 27.7008 15.1898 19.2192
2359 1 29.2182 15.3287 17.3447
2236 1 27.0045 14.0775 17.0088
2242 1 27.0114 16.6013 17.1353
2460 1 29.9256 16.6123 19.3842
2125 1 33.7963 15.1589 17.258
2396 1 31.5167 14.1552 17.4542
2182 1 31.6445 16.4615 17.5683
2534 1 35.9961 13.8899 17.2305
1889 1 38.1012 15.2593 17.6891
2163 1 35.874 16.3594 17.272
2621 1 27.638 17.7807 19.5584
2450 1 27.6724 20.4374 19.5256
2141 1 29.137 20.2307 17.3258
2175 1 27.0332 18.9085 17.2772
2155 1 29.4188 17.7629 17.5315
2592 1 30.1133 19.3152 19.5525
2652 1 34.2889 19.0611 19.3257
2618 1 32.4467 17.7916 19.3649
2452 1 33.8154 17.6238 17.3032
2278 1 31.6343 18.9413 17.3592
2130 1 33.8888 20.076 17.1508
2616 1 32.2191 20.4229 19.1633
2507 1 35.9845 18.8915 17.3625
2455 1 38.0157 17.7115 17.7038
2235 1 38.0319 19.9748 16.9415
2578 1 29.9133 21.596 19.2593
2473 1 27.699 22.8623 19.2309
2165 1 26.7746 21.5556 17.4152
2505 1 30.0731 24.0371 19.3019
2142 1 27.068 24.0726 17.3289
2132 1 29.4922 22.8321 17.1291
2495 1 27.775 25.32 19.4088
2635 1 32.0502 23.0375 19.2766
2164 1 31.4187 21.7497 16.8518
2140 1 31.6738 24.1495 17.3904
2145 1 33.851 22.7744 17.0889
2547 1 34.4243 21.6329 19.0308
2584 1 34.2873 23.9803 19.0868
2245 1 36.0638 21.4872 17.1273
2156 1 35.8159 24.0074 17.2804
2208 1 37.9825 22.9277 17.1336
2634 1 36.3895 25.4382 19.4345
2491 1 27.8482 27.7783 19.566
2192 1 29.5035 25.3322 17.2976
2137 1 29.2793 27.9171 17.4506
2448 1 27.2613 26.5755 17.1993
2477 1 30.0587 26.722 19.3537
2185 1 27.1037 29.0457 17.2541
2545 1 30.126 29.2127 19.463
2176 1 33.7977 25.1604 16.8544
2623 1 32.1169 25.4401 19.4024
2625 1 32.0367 27.8623 19.4059
2152 1 31.5334 26.7417 17.0012
1911 1 33.8007 27.7053 17.0187
2287 1 34.1945 26.6801 19.1073
2272 1 31.5657 29.3296 17.4203
2490 1 34.2534 29.247 19.1799
2283 1 37.9202 25.3239 17.3312
2603 1 35.9408 26.6137 16.9412
2590 1 36.8347 27.6684 19.2936
2611 1 38.7997 26.2492 19.2711
2604 1 38.6577 29.2628 19.2915
2489 1 35.8614 29.1276 17.3815
2378 1 38.0511 27.787 17.1754
2262 1 30.2258 31.7661 19.3176
2135 1 29.3527 32.913 17.2097
2525 1 27.848 32.8273 19.32
2485 1 27.7084 30.2487 19.1655
2204 1 29.2865 30.4132 17.1954
2296 1 27.1134 31.9374 17.2703
2520 1 31.5416 31.742 17.3284
2569 1 32.2446 33.0119 19.2924
2605 1 34.4657 31.8817 19.4295
2564 1 33.5148 30.5315 17.1661
1921 1 33.7084 32.9167 17.2482
2581 1 32.26 30.5172 19.6546
2521 1 36.4293 30.4779 19.2842
1943 1 35.68 31.8518 17.2462
2420 1 37.9928 30.3967 17.1131
2483 1 37.8978 33.0636 17.2106
2570 1 36.5829 32.9269 19.2862
2568 1 38.7496 31.7322 19.0724
2347 1 27.1232 34.3891 17.1461
2390 1 26.9887 36.8051 17.0188
2346 1 29.1723 35.6738 17.1202
2519 1 27.6209 35.7553 19.4426
2562 1 29.9996 36.9017 19.1598
2606 1 30.0347 34.4421 19.0791
2435 1 31.6152 36.8563 17.0089
2572 1 33.8716 35.7996 17.2327
1503 1 26.3744 2.85188 12.6818
817 1 39.4514 7.64442 6.19517
823 1 39.4287 15.3878 6.46184
827 1 39.4635 20.2464 6.27245
831 1 39.4205 25.3649 6.31803
1754 1 39.533 32.9378 12.7699
2251 1 39.5046 5.11763 12.8571
1734 1 39.4899 10.1277 12.7779
821 1 39.569 12.9071 6.54453
833 1 39.4034 27.8064 6.40521
825 1 39.6155 17.7327 6.38524
1653 1 39.4595 15.3101 13.2293
1824 1 39.3538 17.8732 12.9157
1678 1 39.5298 22.9153 12.8073
1790 1 26.396 25.5345 13.1392
2071 1 26.4199 10.2748 12.7834
1792 1 26.4325 17.7455 12.6161
997 1 26.3833 7.78372 6.45121
1712 1 26.4209 12.7545 12.6154
999 1 26.583 10.3261 6.3932
1003 1 26.5951 15.2308 6.71365
1009 1 26.4904 23.1214 6.30419
1015 1 26.4676 30.3096 6.6416
1011 1 26.3856 25.5592 6.54846
1005 1 26.7315 17.6576 6.31972
1007 1 26.5498 20.3348 6.35461
1841 1 26.4393 30.3994 12.9723
1001 1 26.4295 12.7499 6.2787
1013 1 26.4041 28.0604 6.58565
1017 1 26.485 33.2455 6.29165
2656 1 18.532012177827692 2.2783094929030905 38
