# LAMMPS data file written by OVITO Basic 3.7.11
3000 atoms
1 atom types
0.0 39.57150679 xlo xhi
0.0 38.07770017 ylo yhi
0.0 40.4361248 zlo zhi

Masses

1 63.550  # Cu

Atoms  

1 1 0 0 0
2 1 2.19842 1.26926 0
3 1 0 2.53851 0
4 1 2.19842 3.80777 0
271 1 1.46561 2.31199e-16 2.07269
272 1 3.66403 1.26926 2.07269
273 1 1.46561 2.53851 2.07269
274 1 3.66403 3.80777 2.07269
31 1 4.39683 0 0
33 1 4.39683 2.53851 0
32 1 6.59525 1.26926 0
34 1 6.59525 3.80777 0
301 1 5.86245 2.31199e-16 2.07269
302 1 8.06086 1.26926 2.07269
303 1 5.86245 2.53851 2.07269
304 1 8.06086 3.80777 2.07269
61 1 8.79367 0 0
62 1 10.9921 1.26926 0
63 1 8.79367 2.53851 0
64 1 10.9921 3.80777 0
331 1 10.2593 2.31199e-16 2.07269
332 1 12.4577 1.26926 2.07269
333 1 10.2593 2.53851 2.07269
334 1 12.4577 3.80777 2.07269
91 1 13.1905 0 0
93 1 13.1905 2.53851 0
5 1 0 5.07703 0
6 1 2.19842 6.34628 0
7 1 0 7.61554 0
275 1 1.46561 5.07703 2.07269
276 1 3.66403 6.34628 2.07269
277 1 1.46561 7.61554 2.07269
35 1 4.39683 5.07703 0
37 1 4.39683 7.61554 0
36 1 6.59525 6.34628 0
305 1 5.86245 5.07703 2.07269
306 1 8.06086 6.34628 2.07269
307 1 5.86245 7.61554 2.07269
65 1 8.79367 5.07703 0
66 1 10.9921 6.34628 0
67 1 8.79367 7.61554 0
335 1 10.2593 5.07703 2.07269
336 1 12.4577 6.34628 2.07269
337 1 10.2593 7.61554 2.07269
95 1 13.1905 5.07703 0
97 1 13.1905 7.61554 0
8 1 2.19842 8.8848 0
9 1 0 10.1541 0
10 1 2.19842 11.4233 0
278 1 3.66403 8.8848 2.07269
279 1 1.46561 10.1541 2.07269
280 1 3.66403 11.4233 2.07269
39 1 4.39683 10.1541 0
38 1 6.59525 8.8848 0
40 1 6.59525 11.4233 0
308 1 8.06086 8.8848 2.07269
309 1 5.86245 10.1541 2.07269
310 1 8.06086 11.4233 2.07269
68 1 10.9921 8.8848 0
69 1 8.79367 10.1541 0
70 1 10.9921 11.4233 0
338 1 12.4577 8.8848 2.07269
339 1 10.2593 10.1541 2.07269
340 1 12.4577 11.4233 2.07269
99 1 13.1905 10.1541 0
11 1 0 12.6926 0
281 1 1.46561 12.6926 2.07269
41 1 4.39683 12.6926 0
12 1 2.19842 13.9618 0
13 1 0 15.2311 0
14 1 2.19842 16.5003 0
282 1 3.66403 13.9618 2.07269
283 1 1.46561 15.2311 2.07269
284 1 3.66403 16.5003 2.07269
43 1 4.39683 15.2311 0
311 1 5.86245 12.6926 2.07269
42 1 6.59525 13.9618 0
44 1 6.59525 16.5003 0
312 1 8.06086 13.9618 2.07269
313 1 5.86245 15.2311 2.07269
314 1 8.06086 16.5003 2.07269
71 1 8.79367 12.6926 0
341 1 10.2593 12.6926 2.07269
72 1 10.9921 13.9618 0
73 1 8.79367 15.2311 0
74 1 10.9921 16.5003 0
342 1 12.4577 13.9618 2.07269
343 1 10.2593 15.2311 2.07269
344 1 12.4577 16.5003 2.07269
101 1 13.1905 12.6926 0
103 1 13.1905 15.2311 0
15 1 0 17.7696 0
16 1 2.19842 19.0389 0
17 1 0 20.3081 0
285 1 1.46561 17.7696 2.07269
286 1 3.66403 19.0389 2.07269
287 1 1.46561 20.3081 2.07269
45 1 4.39683 17.7696 0
47 1 4.39683 20.3081 0
555 1 2.96001 17.6507 4.12594
46 1 6.59525 19.0389 0
315 1 5.86245 17.7696 2.07269
316 1 8.06086 19.0389 2.07269
317 1 5.86245 20.3081 2.07269
75 1 8.79367 17.7696 0
76 1 10.9921 19.0389 0
77 1 8.79367 20.3081 0
345 1 10.2593 17.7696 2.07269
346 1 12.4577 19.0389 2.07269
347 1 10.2593 20.3081 2.07269
105 1 13.1905 17.7696 0
107 1 13.1905 20.3081 0
615 1 11.5379 17.557 4.26949
18 1 2.19842 21.5774 0
19 1 0 22.8466 0
20 1 2.19842 24.1159 0
21 1 0 25.3851 0
288 1 3.66403 21.5774 2.07269
289 1 1.46561 22.8466 2.07269
290 1 3.66403 24.1159 2.07269
291 1 1.46561 25.3851 2.07269
49 1 4.39683 22.8466 0
51 1 4.39683 25.3851 0
48 1 6.59525 21.5774 0
50 1 6.59525 24.1159 0
318 1 8.06086 21.5774 2.07269
319 1 5.86245 22.8466 2.07269
320 1 8.06086 24.1159 2.07269
321 1 5.86245 25.3851 2.07269
589 1 7.41706 22.6906 4.12899
78 1 10.9921 21.5774 0
79 1 8.79367 22.8466 0
80 1 10.9921 24.1159 0
81 1 8.79367 25.3851 0
348 1 12.4577 21.5774 2.07269
349 1 10.2593 22.8466 2.07269
350 1 12.4577 24.1159 2.07269
351 1 10.2593 25.3851 2.07269
109 1 13.1905 22.8466 0
111 1 13.1905 25.3851 0
22 1 2.19842 26.6544 0
23 1 0 27.9236 0
24 1 2.19842 29.1929 0
292 1 3.66403 26.6544 2.07269
293 1 1.46561 27.9236 2.07269
294 1 3.66403 29.1929 2.07269
53 1 4.39683 27.9236 0
52 1 6.59525 26.6544 0
54 1 6.59525 29.1929 0
322 1 8.06086 26.6544 2.07269
323 1 5.86245 27.9236 2.07269
324 1 8.06086 29.1929 2.07269
592 1 5.05768 26.6256 4.22731
82 1 10.9921 26.6544 0
83 1 8.79367 27.9236 0
84 1 10.9921 29.1929 0
352 1 12.4577 26.6544 2.07269
353 1 10.2593 27.9236 2.07269
354 1 12.4577 29.1929 2.07269
113 1 13.1905 27.9236 0
25 1 0 30.4622 0
26 1 2.19842 31.7314 0
27 1 0 33.0007 0
295 1 1.46561 30.4622 2.07269
296 1 3.66403 31.7314 2.07269
297 1 1.46561 33.0007 2.07269
55 1 4.39683 30.4622 0
57 1 4.39683 33.0007 0
565 1 2.81031 30.446 4.17006
56 1 6.59525 31.7314 0
325 1 5.86245 30.4622 2.07269
326 1 8.06086 31.7314 2.07269
327 1 5.86245 33.0007 2.07269
85 1 8.79367 30.4622 0
86 1 10.9921 31.7314 0
87 1 8.79367 33.0007 0
355 1 10.2593 30.4622 2.07269
356 1 12.4577 31.7314 2.07269
357 1 10.2593 33.0007 2.07269
115 1 13.1905 30.4622 0
117 1 13.1905 33.0007 0
28 1 2.19842 34.2699 0
29 1 0 35.5392 0
30 1 2.19842 36.8084 0
298 1 3.66403 34.2699 2.07269
299 1 1.46561 35.5392 2.07269
300 1 3.66403 36.8084 2.07269
59 1 4.39683 35.5392 0
58 1 6.59525 34.2699 0
60 1 6.59525 36.8084 0
328 1 8.06086 34.2699 2.07269
329 1 5.86245 35.5392 2.07269
330 1 8.06086 36.8084 2.07269
88 1 10.9921 34.2699 0
89 1 8.79367 35.5392 0
90 1 10.9921 36.8084 0
358 1 12.4577 34.2699 2.07269
359 1 10.2593 35.5392 2.07269
360 1 12.4577 36.8084 2.07269
119 1 13.1905 35.5392 0
543 1 2.86623 2.52668 4.17385
542 1 0.808114 1.48783 4.27301
544 1 0.747592 3.84146 4.30163
812 1 2.18221 1.2976 6.26594
814 1 2.10367 3.72031 6.45467
821 1 0.0616974 12.7116 6.37805
541 1 3.06144 38.2077 4.3716
841 1 4.32259 -0.213773 6.48447
843 1 4.40271 2.62541 6.21496
572 1 5.10829 1.22898 4.36036
574 1 5.21845 3.76389 4.14996
573 1 7.34148 2.63411 4.2727
842 1 6.64721 1.34949 6.2856
844 1 6.65964 3.73862 6.38287
571 1 7.22249 0.0557998 4.19476
873 1 8.94814 2.63628 6.53605
603 1 11.5176 2.67066 4.21452
604 1 9.48733 3.8575 4.43865
602 1 9.51714 1.31222 4.1966
872 1 11.0275 1.26484 6.29221
874 1 10.9681 3.83583 6.36058
601 1 11.4962 38.0714 4.25381
545 1 3.01567 5.00424 4.08036
546 1 0.711833 6.48328 4.0617
547 1 2.90733 7.69491 4.42264
816 1 2.35311 6.48575 6.43163
2999 1 2.80503 4.86635 21.3387
2977 1 12.4718 36.7935 23.655
845 1 4.35421 5.0911 6.39136
847 1 4.411 7.5332 6.46343
576 1 5.18359 6.39006 4.32233
577 1 7.42444 7.65819 4.0883
575 1 7.27342 5.12328 4.15522
846 1 6.56889 6.24237 6.51978
875 1 8.79654 5.12389 6.29971
877 1 8.9164 7.56116 6.46598
606 1 9.50046 6.34151 4.35962
607 1 11.6482 7.69865 4.29232
605 1 11.639 5.19543 4.218
876 1 11.0929 6.32689 6.38242
551 1 2.89555 12.7258 4.02818
548 1 0.692735 8.94479 4.40324
549 1 2.85938 10.1061 4.41735
550 1 0.765005 11.5211 4.12824
818 1 2.18156 8.9226 6.35707
820 1 2.25664 11.3898 6.32192
851 1 4.43366 12.562 6.19286
2906 1 11.6 35.5681 22.0029
849 1 4.31126 9.95718 6.37206
580 1 4.84448 11.3075 4.1447
578 1 5.07 8.79166 4.04263
579 1 7.30942 9.92594 4.08847
848 1 6.77652 8.67218 6.39693
850 1 6.48817 11.3954 6.1358
581 1 7.28855 12.8699 4.21259
879 1 8.65801 10.1697 6.16716
609 1 11.775 10.1626 4.04198
610 1 9.49573 11.4388 4.24446
608 1 9.58407 8.96034 4.31037
878 1 11.1858 8.94707 6.44414
880 1 10.9386 11.4339 6.34648
611 1 11.7325 12.7687 4.24656
881 1 8.8157 12.6458 6.43975
553 1 2.93255 15.2048 4.29268
554 1 0.866184 16.5359 4.30418
552 1 0.670458 14.1492 4.38637
822 1 2.21925 13.6806 6.22293
824 1 2.36848 16.5135 6.25761
1699 1 0.0176301 25.598 12.9182
853 1 4.39738 15.1255 6.30874
582 1 5.15201 13.9207 4.26533
584 1 5.32192 16.5266 4.15807
583 1 7.2882 15.2772 4.39918
852 1 6.64328 13.9268 6.43398
854 1 6.74612 16.5304 6.46111
883 1 8.57514 15.2694 6.40734
613 1 11.5769 15.025 4.41719
614 1 9.43043 16.586 4.35807
612 1 9.37619 14.0084 4.49963
882 1 10.8265 14.1422 6.40132
884 1 10.9095 16.3999 6.37224
1761 1 0.18006 30.3235 12.9878
557 1 2.9114 20.2609 4.20112
556 1 0.608658 18.9273 4.15361
826 1 2.41602 18.8857 6.16716
855 1 4.43922 17.6529 6.35016
857 1 4.4207 20.4646 6.4588
586 1 5.07839 19.076 4.18791
587 1 7.28615 20.2271 4.2111
585 1 7.48691 17.8256 4.12764
856 1 6.46134 19.043 6.39527
885 1 8.9389 17.8161 6.60128
616 1 9.66978 19.0827 4.39339
887 1 8.85097 20.2902 6.27611
617 1 11.8164 20.2301 4.17571
886 1 11.0038 19.1313 6.56391
2912 1 9.6378 36.7262 21.3144
2871 1 9.38945 34.3559 21.5597
558 1 0.560077 21.3484 4.16712
559 1 2.79519 22.7696 4.22878
560 1 0.610527 24.0374 4.40038
828 1 2.33768 21.5345 6.45332
830 1 2.16645 24.1436 6.33472
859 1 4.39828 22.8651 6.69248
2992 1 12.3663 34.3178 24.0207
590 1 5.18211 24.0093 4.17527
588 1 5.07657 21.5434 4.42055
858 1 6.51783 21.6163 6.39238
860 1 6.55725 24.0172 6.14263
591 1 7.36692 25.3378 4.05311
889 1 9.00085 22.562 6.10137
618 1 9.60313 21.4315 4.27438
620 1 9.63371 24.0323 4.19898
619 1 11.6617 22.8238 4.36965
888 1 11.1884 21.4306 6.50599
890 1 10.9896 24.0628 6.38717
891 1 8.8553 25.1249 6.28141
861 1 4.34889 25.2708 6.51357
564 1 0.722906 29.1863 4.30799
561 1 2.98319 25.1821 4.29724
563 1 2.80155 27.5457 3.97963
562 1 0.67172 26.5265 4.21614
832 1 2.36364 26.5638 6.53503
834 1 2.05925 29.2812 6.60261
833 1 0.0418067 27.9869 6.60882
863 1 4.17071 27.9745 6.24818
594 1 5.13929 29.211 4.12382
593 1 7.23508 27.8053 4.18873
862 1 6.73755 26.444 6.37421
864 1 6.7301 28.9953 6.21294
621 1 11.7767 25.2906 4.38322
893 1 8.75433 27.7045 6.45061
623 1 11.5328 27.9377 4.22704
624 1 9.26715 29.1898 4.08098
622 1 9.44967 26.5581 4.27816
892 1 10.9227 26.694 6.46795
894 1 10.8349 29.0165 6.23064
1860 1 13.2114 32.9313 13.0355
2446 1 5.13515 34.085 21.3269
566 1 0.643602 31.5834 4.28692
567 1 3.03272 32.8757 4.16374
836 1 2.135 31.9022 6.55266
917 1 13.0656 20.2315 6.48619
865 1 4.52812 30.3996 6.50603
596 1 5.19467 31.5567 4.18441
867 1 4.38479 32.9081 6.27955
595 1 7.33925 30.5349 4.3298
597 1 7.47033 32.9636 4.17405
866 1 6.71101 32.0133 6.52557
895 1 8.77767 30.4752 6.22609
897 1 8.91847 33.0765 6.22564
627 1 11.6974 32.9408 4.24553
625 1 11.7126 30.4566 4.15948
626 1 9.56336 31.6784 4.31015
896 1 11.263 31.8323 6.42886
2989 1 0.48399 36.6478 21.7431
2950 1 2.75217 35.1535 21.389
2929 1 0.483996 34.059 21.5041
569 1 2.56988 35.5407 4.10568
570 1 0.765354 37.0324 4.40596
568 1 0.656691 34.1703 4.06426
838 1 2.23091 34.3793 6.27732
840 1 2.06224 36.7803 6.512
869 1 4.23797 35.5225 6.37208
2806 1 11.5794 33.0795 21.7133
871 1 8.86283 38.0083 6.25854
599 1 7.28323 35.3953 4.26329
600 1 5.14065 36.7907 4.25421
598 1 5.05584 34.1578 4.18657
868 1 6.54039 34.271 6.17079
870 1 6.61942 36.6637 6.42319
899 1 8.84638 35.5874 6.55402
629 1 11.6923 35.3829 4.43704
628 1 9.5974 34.2194 4.18532
630 1 9.29176 36.7336 4.23377
898 1 11.148 34.1145 6.45357
900 1 10.987 36.7339 6.44747
2995 1 12.3171 31.9588 23.7089
1083 1 1.46647 2.4034 8.70401
1084 1 3.60813 3.86298 8.40297
1082 1 3.61145 1.31402 8.6894
1352 1 0.758625 0.906943 10.778
1353 1 2.76081 2.36155 10.8259
1354 1 0.761719 3.87516 10.5566
1081 1 1.49155 38.0774 8.53726
1351 1 2.91894 37.8511 10.7087
1113 1 5.76122 2.5544 8.46614
1112 1 8.03401 1.38109 8.50587
1382 1 5.24318 1.44682 10.7749
1383 1 7.27916 2.66179 10.6073
1384 1 5.06828 3.70332 10.6754
1114 1 8.13076 3.81604 8.61496
1143 1 10.1927 2.45963 8.52719
1142 1 12.3443 1.1698 8.62518
1412 1 9.32538 1.27225 10.7848
1413 1 11.6617 2.56054 10.7585
1414 1 9.59528 3.80324 10.7154
1144 1 12.4113 3.7835 8.33422
1141 1 10.3173 38.1918 8.407
1085 1 1.51456 5.07004 8.39962
1087 1 1.61821 7.56513 8.56459
1086 1 3.62964 6.31882 8.63157
1356 1 0.707227 6.20377 10.8735
1355 1 2.74557 4.92296 10.7278
1667 1 2.91087 7.58617 10.8241
1115 1 5.69129 5.19211 8.51427
1116 1 7.95418 6.22931 8.68266
1117 1 5.87245 7.58506 8.42505
1385 1 7.14699 5.2542 10.6001
1694 1 4.99542 6.21046 10.9367
1389 1 7.47431 7.67484 10.6996
1147 1 10.3008 7.47153 8.57608
1145 1 10.2412 4.94489 8.53905
1146 1 12.2761 6.1572 8.46328
1416 1 9.53263 6.23474 10.7726
1800 1 11.6045 4.93167 10.6348
1832 1 11.8143 7.6042 10.6513
1088 1 3.69568 8.89711 8.66634
1089 1 1.23613 10.2543 8.47726
1358 1 0.714739 8.68229 10.7135
1090 1 3.60436 11.4262 8.68191
1359 1 0.903637 11.4706 10.7009
1357 1 3.04183 10.2956 10.8039
1360 1 2.81578 12.6909 10.9127
1118 1 8.15204 8.82961 8.56402
1119 1 5.75278 10.1546 8.37831
1120 1 8.01456 11.6504 8.3039
1390 1 5.22085 11.2354 10.5332
2148 1 7.52046 10.4146 10.6009
1386 1 5.08862 8.85892 10.6798
1121 1 5.86613 12.6109 8.527
1418 1 9.6735 8.83706 10.5427
1148 1 12.5243 8.74503 8.59226
1149 1 10.2931 10.1359 8.71907
1717 1 9.71583 11.6129 10.6375
1150 1 12.4451 11.3255 8.59269
1419 1 11.8031 10.1849 10.5556
1091 1 1.50679 12.8872 8.4854
1093 1 1.22912 15.2649 8.54234
1094 1 3.67995 16.3996 8.53806
1092 1 3.59971 13.8805 8.32129
1362 1 0.721937 14.0702 10.7215
1363 1 2.84625 15.2207 10.5903
1364 1 0.713698 16.5056 10.8393
1391 1 7.42761 12.8208 10.4426
1124 1 8.00764 16.5481 8.70735
1122 1 8.07592 14.2055 8.61738
1123 1 5.74941 15.2114 8.3373
1392 1 5.09956 14.0041 10.6308
1393 1 7.25018 15.5197 10.806
1394 1 4.95685 16.4566 11
1151 1 10.3037 12.7106 8.46023
1421 1 11.9308 12.6633 10.6336
1152 1 12.3213 13.9881 8.42686
1153 1 10.1537 15.4013 8.49905
1422 1 9.59086 14.0841 10.6295
1423 1 11.6943 15.2716 10.8161
1154 1 12.5314 16.5967 8.59889
1424 1 9.39193 16.6119 10.8209
1096 1 3.77579 18.8405 8.43647
1095 1 1.40047 17.6908 8.62503
1097 1 1.61647 20.1942 8.49202
1365 1 2.99612 17.7115 10.6952
1366 1 0.788853 19.1187 10.6884
1367 1 2.99729 20.3275 10.7533
1125 1 5.97862 17.7781 8.62533
1126 1 7.90323 18.9419 8.71426
1127 1 5.93742 20.4265 8.83319
1395 1 7.39876 17.8301 10.6901
1396 1 5.21149 19.2084 10.6447
1397 1 7.3548 20.3126 10.8677
1155 1 10.2657 17.7547 8.714
1156 1 12.4297 18.8909 8.88031
1157 1 10.2794 20.2218 8.63261
1425 1 11.7604 17.7446 10.8229
1426 1 9.70052 19.0354 10.9584
1427 1 11.7748 20.2998 10.8841
1368 1 0.844527 21.6312 10.9153
1099 1 1.33697 22.7484 8.64389
1098 1 3.68755 21.5384 8.59025
1100 1 3.40451 24.1312 8.67568
1369 1 2.86859 22.9141 10.67
1370 1 0.751763 24.1388 10.6778
1101 1 1.46831 25.3941 8.60186
1371 1 2.95447 25.4015 10.6357
1128 1 8.00992 21.4899 8.50085
1398 1 5.1499 21.6888 10.7545
1129 1 5.85792 22.6434 8.4914
1130 1 7.84074 23.8175 8.19103
1399 1 7.1604 22.8253 10.5766
1400 1 5.12824 24.195 10.9331
1428 1 9.31226 21.4831 11.1735
1159 1 10.2134 22.6312 8.73929
1158 1 12.3036 21.5199 8.72811
1160 1 12.2046 24.1918 8.90171
1429 1 11.8838 22.7352 10.8392
1430 1 9.52797 23.9769 10.8593
1161 1 10.012 25.3363 8.61624
1431 1 11.6482 25.4019 10.9199
1103 1 1.59667 27.6553 8.75001
1102 1 3.68962 26.4068 8.66505
1372 1 0.776387 26.5501 10.7398
1373 1 3.06184 28.0113 10.8353
1104 1 3.84959 29.1049 8.3596
1775 1 0.735743 29.0569 10.9088
1401 1 7.35695 25.3454 10.8518
1131 1 5.94099 25.2857 8.53019
1133 1 5.75545 27.7892 8.72953
1132 1 8.16064 26.8237 8.85397
1402 1 5.20877 26.7064 10.8552
1404 1 5.19107 29.0983 10.7296
1403 1 7.56304 27.7862 11.0832
1134 1 8.15864 29.1597 8.50816
1164 1 12.3439 29.0514 8.45661
1162 1 12.283 26.5637 8.72363
1163 1 10.188 27.7428 8.40274
1432 1 9.63258 26.4653 10.9891
1433 1 11.7617 27.8947 10.6315
1818 1 9.78319 28.9468 10.6116
1106 1 3.71587 31.776 8.60399
1105 1 1.46746 30.3988 8.71376
1107 1 1.3609 32.9639 8.5283
1375 1 2.94033 30.399 10.7915
1377 1 2.81254 32.8894 10.7353
1376 1 0.661272 31.7041 10.6913
1136 1 8.14585 31.5491 8.56128
1135 1 5.84996 30.6505 8.53228
1787 1 5.2674 31.5301 10.7587
1137 1 5.95216 33.2591 8.53608
1405 1 7.45893 30.233 10.9389
1438 1 7.36685 32.6944 10.6504
1165 1 10.2723 30.3136 8.44114
1166 1 12.5732 31.6988 8.61891
1167 1 10.3865 32.666 8.66713
1894 1 11.8657 33.0278 10.6945
1436 1 9.58532 31.5399 10.4556
1435 1 11.8092 30.5602 10.553
1108 1 3.84285 34.2597 8.55401
1378 1 0.678048 34.2256 10.918
1109 1 1.56246 35.5994 8.58112
1110 1 3.52064 36.8185 8.66145
1379 1 2.94555 35.4364 10.6624
1380 1 0.77076 36.6693 10.8842
1381 1 7.39067 -0.150349 10.7999
1111 1 5.88204 38.1216 8.62471
1408 1 4.85548 34.1233 10.7996
1138 1 8.17736 34.2397 8.60546
1139 1 5.987 35.6155 8.45723
1140 1 8.05548 37.0209 8.6762
1409 1 7.13105 35.4692 10.4627
1410 1 5.02398 36.8055 10.7249
1411 1 11.5776 38.0929 10.6633
1835 1 9.71933 34.3601 10.6964
1169 1 10.1294 35.6084 8.57574
1168 1 12.4648 34.2688 8.551
1170 1 12.5175 36.7358 8.49645
1439 1 11.757 35.6583 10.8433
1440 1 9.48161 36.7117 10.6944
2049 1 1.48777 2.40277 15.1618
1670 1 2.14623 1.0568 12.7902
2114 1 3.80774 1.22694 15.2571
1682 1 2.05126 3.89311 12.957
2307 1 3.67771 3.95973 15.2718
1668 1 4.51042 2.69148 12.8246
905 1 13.2888 5.13039 6.37236
2136 1 5.85559 2.7685 14.9594
1731 1 6.65059 1.30472 12.8574
2151 1 8.07417 1.09315 15.1555
2177 1 8.0677 3.64346 15.0479
1676 1 6.61892 3.95691 12.6285
1768 1 8.69181 0.0572862 12.9634
1760 1 8.79988 2.58861 12.8579
2158 1 10.3768 2.5966 15.2143
1913 1 11.0151 1.42774 13.0341
1415 1 12.4377 1.36517 14.9908
1861 1 11.006 3.78781 12.9146
2120 1 12.4624 3.86349 15.1335
2160 1 10.2587 0.0636112 15.1081
927 1 13.2816 33.0836 6.25268
1964 1 1.94724 6.41125 12.8346
2329 1 1.27294 5.27034 15.4511
2154 1 1.66332 7.67258 15.0688
2143 1 3.62107 6.25191 14.8955
2115 1 4.19054 4.9548 12.7556
2723 1 11.5546 30.4458 21.9264
1916 1 13.2996 20.181 13.0912
1721 1 4.48063 7.51809 12.9555
1961 1 6.43322 6.25257 12.9206
2504 1 5.76364 5.19178 15.0664
1388 1 5.71174 7.59382 15.012
2579 1 8.11853 6.1741 14.9149
1387 1 8.70218 7.63472 12.9461
2186 1 8.78052 4.9299 12.5934
2210 1 10.2162 5.24707 15.0889
1904 1 10.8286 6.46974 12.6716
2161 1 12.511 6.36418 15.1901
1773 1 10.3448 7.66311 14.8658
2139 1 2.0417 8.94174 12.9119
1662 1 2.17344 11.3286 13.119
2544 1 3.56358 11.555 15.0641
2612 1 3.62112 8.94669 15.0382
2133 1 1.40361 10.1517 15.1833
1361 1 4.47424 12.587 12.788
1672 1 4.38327 10.1929 12.9283
2231 1 1.5096 12.548 15.4297
1791 1 6.50773 9.02234 12.7609
1871 1 7.81968 8.73682 14.7859
1772 1 8.20776 11.316 15.0804
1831 1 6.54111 11.3732 12.931
2529 1 5.68338 10.2273 14.9649
2043 1 6.092 12.5837 15.0936
2253 1 8.70048 10.147 12.8555
2150 1 12.3465 8.83611 15.0223
1830 1 11.131 8.86238 12.7467
2063 1 12.5826 11.5118 15.0698
1900 1 10.9067 11.3236 12.6918
1854 1 10.3536 10.2839 14.9907
1420 1 8.79073 12.6576 12.6341
2991 1 10.0156 30.2389 24.0373
1646 1 2.19147 13.8476 13.1077
2459 1 1.3996 15.1551 15.2752
1985 1 3.70186 16.4503 15.5067
2238 1 3.67511 13.8847 15.3338
1726 1 2.23659 16.4398 13.1175
1747 1 4.41612 15.0998 12.9128
2123 1 8.22258 13.804 14.9428
1801 1 6.70738 13.8777 12.9454
1648 1 6.53746 16.3717 13.1085
2098 1 6.03095 15.1414 15.054
2099 1 8.08483 16.4352 15.1579
1728 1 8.97761 15.1676 12.9655
2101 1 10.4043 12.5572 14.8298
1759 1 10.9697 13.7487 12.5365
2040 1 12.3937 13.8495 15.3096
2103 1 10.2463 15.213 15.04
1729 1 10.7687 16.7376 12.8408
1774 1 12.4457 16.3878 15.0907
1753 1 0.0633714 20.4248 13.0886
2051 1 1.29987 17.6244 15.3854
1988 1 1.50881 20.2896 15.257
1657 1 2.23582 18.8813 12.7434
1969 1 3.7225 19.0068 15.3413
1709 1 4.47032 20.3848 12.8367
1715 1 4.33033 17.7909 13.0578
2036 1 7.97069 18.9948 15.095
1640 1 6.42916 18.9185 13.0364
2087 1 5.79944 20.4757 15.0689
2366 1 5.8672 17.6302 15.1878
1649 1 8.47296 20.2227 12.9016
1688 1 8.56861 17.6877 12.8489
2064 1 10.2831 17.6155 15.2094
1898 1 12.5967 19.1187 15.0326
2021 1 10.413 20.2137 15.0718
1696 1 11.0219 19.1183 12.975
839 1 0.0146404 35.483 6.3911
2856 1 9.3544 31.7934 22.1319
1642 1 2.30759 21.5091 12.917
1956 1 3.6116 21.3871 15.1155
1751 1 2.03308 24.1983 13.0748
1930 1 1.59945 22.9384 15.1584
2291 1 3.70858 24.2527 14.9924
1630 1 4.36666 22.8854 13.0593
1954 1 8.10102 21.4477 15.0808
1639 1 6.63003 21.5635 12.8594
2009 1 8.07068 24.0904 15.1139
1679 1 6.50381 23.9659 12.9446
1936 1 6.0222 22.8603 14.9338
1740 1 8.62666 22.7419 13.0364
1803 1 4.30828 25.4901 12.9224
1802 1 8.77481 25.3012 13.0256
1650 1 11.1409 21.5466 13.2022
1658 1 12.4476 21.6712 15.368
1659 1 12.5728 23.9709 15.1403
2019 1 10.2819 22.7568 15.3158
1627 1 10.8959 23.8762 12.8779
1771 1 1.52589 25.3819 15.311
1880 1 3.84316 27.0286 15.3825
2241 1 2.0949 26.6406 12.9895
2395 1 1.56856 27.9098 15.0552
1777 1 2.27991 29.0203 13.1367
1839 1 3.72498 29.2681 15.2692
2892 1 7.26213 30.268 21.8851
1931 1 5.78016 25.542 15.0023
1794 1 4.54083 27.9244 13.1154
1932 1 6.23644 27.888 15.2221
1866 1 6.63059 26.6544 12.9355
1937 1 8.04719 26.4902 15.3491
2027 1 8.25336 29.0799 15.3204
1812 1 6.8074 29.0976 13.1239
2195 1 10.1711 25.1687 15.2302
1865 1 9.10477 27.8742 13.0242
2149 1 12.5396 26.4652 15.235
2023 1 10.448 27.6902 15.3096
1637 1 11.0748 26.5014 13.0619
1819 1 11.2309 29.0656 12.7745
2147 1 12.7089 29.1309 15.3169
1855 1 1.6433 30.3019 15.0719
1878 1 1.62575 32.9762 15.2824
1736 1 2.23407 31.6476 12.7471
1876 1 3.72549 31.7314 15.0559
1825 1 0.0606341 12.8749 13.1138
1987 1 13.0105 35.497 12.7791
1406 1 4.38902 33.0244 12.8302
1762 1 4.48493 30.3156 12.9956
2048 1 6.09722 32.9634 15.093
1893 1 6.07799 30.5968 14.9913
2094 1 8.24069 31.6969 15.1591
1996 1 6.7493 31.6881 12.8923
1434 1 9.05114 30.2669 12.9904
1918 1 8.89176 32.7532 12.8506
1437 1 11.1834 31.5644 12.7903
2079 1 10.4227 30.2908 15.4005
2111 1 12.3394 31.567 15.2313
2118 1 10.2261 32.7463 15.2914
2082 1 1.4644 38.0354 14.9693
1708 1 4.45765 38.4266 12.9242
1757 1 2.17747 34.1122 13.1035
1924 1 3.80082 34.4579 15.2458
2024 1 1.5348 35.4148 15.0545
1779 1 2.33095 36.5678 12.8361
2000 1 3.63729 37.0297 14.934
1711 1 4.40788 35.3262 12.9491
2006 1 5.72409 0.090927 15.056
1965 1 6.13683 35.4846 15.2168
2035 1 8.13141 34.1683 14.8853
1783 1 6.71246 34.3253 12.7958
1780 1 6.51343 36.7495 12.946
1981 1 8.24937 36.6653 15.0256
2876 1 4.97354 31.6313 21.3609
1795 1 8.86717 35.4446 12.9682
1853 1 12.5599 34.1859 15.2923
1935 1 10.9454 34.1776 12.6695
1828 1 11.0147 36.7091 13.0368
2105 1 12.3294 36.7589 15.2744
2061 1 10.5178 35.2834 15.285
2943 1 7.19965 32.9512 21.5516
2462 1 0.643307 1.23041 17.3662
2419 1 2.69559 2.4367 17.2625
1622 1 0.574343 3.7901 17.3654
2662 1 3.63715 3.48591 19.4143
2639 1 1.38141 2.25655 19.6597
2631 1 3.52154 0.915712 19.3023
2664 1 1.44684 -0.238834 19.5964
2423 1 2.72053 -0.0799253 17.2172
2349 1 5.12981 1.09311 17.3387
2365 1 7.41446 2.28448 17.2856
2599 1 7.86935 3.75655 19.4428
2626 1 8.08315 1.23325 19.4649
2549 1 5.82407 2.46065 19.4428
2589 1 4.99264 3.70706 17.0638
2279 1 7.29638 38.0423 17.1142
2558 1 5.97762 -0.064517 19.4617
2318 1 12.3356 3.81621 19.5838
2574 1 10.312 2.37314 19.3853
2317 1 9.52822 1.245 17.2328
2411 1 11.72 2.49158 17.4469
2663 1 12.4611 1.182 19.4263
2369 1 9.51938 3.79715 17.3128
2500 1 10.2692 -0.10857 19.245
2757 1 2.851 7.67595 17.1186
2595 1 0.758341 6.3239 17.6831
2650 1 2.98472 4.93561 17.296
2830 1 3.522 6.24048 19.3674
2756 1 1.39644 7.47358 19.6278
2755 1 1.37157 4.87421 19.485
2535 1 5.02464 6.18632 17.2721
1727 1 7.08281 7.59341 17.0858
2469 1 7.28676 4.85662 17.2618
2725 1 7.88818 6.30119 19.2826
2468 1 5.72551 7.57752 19.232
2680 1 5.62901 4.95783 19.4536
2642 1 10.1322 4.9742 19.3527
2686 1 12.2379 6.30904 19.6747
2637 1 9.34674 6.2526 17.1387
2401 1 10.0759 7.43444 19.2495
2353 1 11.5843 5.02049 17.3318
2191 1 11.5664 7.64407 17.2471
2751 1 3.38273 8.85651 19.2653
2679 1 0.738807 8.91109 17.2155
2638 1 2.76844 10.3324 17.327
2427 1 0.794482 11.7404 17.6713
1732 1 1.27745 10.0226 19.3189
2728 1 3.43122 11.3701 19.5097
2963 1 1.60843 12.9072 19.5865
2498 1 2.9785 12.948 17.5675
2714 1 7.77998 8.82768 19.2487
2593 1 7.98017 11.3666 19.4748
1816 1 5.02259 8.88072 17.2508
2688 1 7.13166 10.1118 17.1209
2214 1 5.0667 11.6565 17.2658
2733 1 5.59669 10.2262 19.2764
2670 1 5.8071 12.841 19.529
2410 1 7.27232 12.6554 17.0509
2553 1 9.32714 8.71304 17.1736
2745 1 10.1302 9.90941 19.6205
2715 1 12.4334 8.55042 19.3688
2422 1 12.3648 11.21 19.4416
2124 1 11.4624 10.0783 17.17
2447 1 9.17649 11.5186 17.3622
2386 1 11.5137 12.6653 17.2441
2537 1 10.3345 12.4799 19.3125
2727 1 0.581127 14.0812 17.3178
2144 1 0.812577 16.5371 17.4313
2658 1 3.83679 14.0294 19.7268
2633 1 3.0655 15.3268 17.6921
2575 1 1.40055 15.2715 19.3086
2815 1 3.64466 16.4182 19.6071
2795 1 8.17264 13.7572 19.2629
2438 1 5.04058 14.1531 17.5074
2355 1 7.19278 15.1827 17.3189
2497 1 8.21362 16.2798 19.4414
2484 1 5.26737 16.5926 17.3206
2666 1 5.90345 15.3214 19.6187
2322 1 10.1498 14.8981 19.4345
2567 1 12.4876 14.0229 19.1743
2431 1 9.44941 13.9014 17.1326
2323 1 11.6161 15.2089 17.0886
2382 1 9.50947 16.3946 17.2684
2514 1 12.405 16.4191 19.3188
2609 1 1.53302 17.6082 19.6358
2610 1 1.47071 20.1029 19.5742
2582 1 3.68499 19.1497 19.4512
2454 1 0.666147 19.0104 17.5131
2388 1 2.99676 20.1685 17.1856
2426 1 2.79579 17.8073 17.3882
2841 1 6.1153 17.7589 19.7453
2480 1 8.31842 18.991 19.7679
1976 1 5.30454 18.8934 17.4744
2273 1 7.23131 20.1936 17.3105
2363 1 7.50913 17.7781 17.4978
2538 1 5.84456 20.3352 19.7212
2466 1 10.2041 20.3684 19.7202
2481 1 10.3403 17.8499 19.2977
2444 1 12.6001 18.8293 19.3606
2260 1 11.8935 17.6787 17.2683
2327 1 11.6329 20.2484 17.2973
2211 1 9.43232 19.0488 17.2484
2290 1 0.750644 21.7407 17.1684
2532 1 3.78105 21.6004 19.5713
2556 1 3.66684 23.9676 19.2302
2550 1 1.5227 22.6205 19.3637
1872 1 0.799142 24.1406 17.3108
2275 1 2.97161 22.6873 17.2208
1908 1 3.19487 25.3818 17.2213
2502 1 7.95196 23.996 19.5236
2546 1 5.8532 22.7992 19.39
2295 1 5.07548 21.3279 17.333
2301 1 7.23822 22.795 17.2167
2266 1 5.128 23.8536 17.161
2478 1 7.96475 21.6335 19.2935
2270 1 7.12731 25.3468 17.3015
2467 1 12.5334 21.6046 19.5982
2437 1 10.1903 22.7276 19.5319
2412 1 12.2966 23.9757 19.9113
2308 1 9.6102 21.5788 17.4216
2496 1 9.58383 24.1567 17.4134
2299 1 11.6077 22.9261 17.6225
2620 1 1.52857 25.3989 19.3803
2580 1 3.69289 26.5141 19.5755
2586 1 1.43958 27.8626 19.4735
2339 1 2.92598 27.8609 17.5134
2268 1 0.730016 26.7809 17.0631
2472 1 0.793647 29.1111 17.1821
2516 1 3.71076 29.0689 19.3277
2571 1 5.79036 25.3679 19.4989
2456 1 8.03682 29.0087 19.791
2499 1 8.06746 26.449 19.439
2013 1 5.83989 27.8429 19.5434
2269 1 5.09444 26.7813 17.4705
2246 1 7.41458 27.9589 17.5239
2288 1 5.13979 29.1683 17.2364
2232 1 11.6677 25.451 17.2818
2517 1 10.2542 25.3351 19.5417
2885 1 10.1521 27.7809 19.4979
2255 1 9.5684 26.5024 17.2445
2403 1 11.7142 27.8427 17.3973
2202 1 9.62009 29.0372 17.3746
2486 1 12.4177 26.5141 19.6739
2510 1 12.2683 29.2285 19.7321
2628 1 1.54882 32.9503 19.5812
2597 1 1.45004 30.2688 19.4274
2389 1 3.01855 33.1163 17.1894
2297 1 0.769161 31.622 17.2267
2379 1 2.98187 30.4981 17.5294
2518 1 5.74838 32.7493 19.2624
2492 1 5.92975 30.2614 19.4877
2503 1 8.07238 31.7814 19.4108
2276 1 5.09473 31.5671 17.2601
2300 1 7.54821 32.8002 17.2442
2274 1 7.35266 30.4034 17.572
2345 1 10.2766 33.0527 19.3765
2391 1 10.1675 30.4688 19.9434
2393 1 12.2959 31.7286 19.5351
2203 1 11.866 32.9475 17.465
2188 1 11.7417 30.2644 17.5439
2205 1 9.69222 31.5569 17.5649
2554 1 1.48614 35.5108 19.311
2527 1 3.84601 36.7486 19.8909
2416 1 0.667253 36.6842 17.2385
2509 1 3.74408 34.2038 19.3303
2458 1 3.11233 35.4643 17.2653
2417 1 0.9274 34.303 17.3156
2873 1 5.78589 35.4458 19.6035
2475 1 7.93495 34.3687 19.6203
2488 1 8.21348 36.7742 19.4492
2282 1 5.2997 33.8999 17.2182
2243 1 7.31112 35.4632 17.4282
2325 1 5.10534 36.6874 17.1432
2254 1 12.4231 36.7509 19.3644
2376 1 12.2815 34.3364 19.8037
2250 1 9.70594 34.3086 17.4729
2312 1 9.65591 36.7393 17.2368
2220 1 11.806 35.5623 17.3346
2441 1 10.1111 35.4757 19.497
2952 1 0.428 1.12644 21.6422
2879 1 0.402841 3.56099 21.7592
2936 1 7.28006 2.37902 21.5349
2883 1 11.5472 0.0681936 21.6599
2894 1 9.37851 1.15111 21.3922
2845 1 11.5355 2.4788 21.7302
2832 1 9.33872 3.77428 21.6113
2922 1 2.97967 7.35001 21.5685
2910 1 7.1383 4.87099 21.5975
2780 1 5.09143 6.11911 21.5888
2965 1 7.15766 7.48788 21.3823
2816 1 9.42192 6.28027 21.5576
2788 1 11.3239 7.64673 21.5008
2889 1 11.6715 5.10228 21.6949
2997 1 0.681572 11.3058 21.3684
2979 1 0.372835 8.83191 21.4608
2958 1 2.68792 10.1154 21.3977
2939 1 2.79293 12.5093 21.8772
2941 1 4.90137 8.80491 21.1707
2797 1 4.92653 11.4367 21.3798
2959 1 7.07951 10.1844 21.3243
2617 1 7.22167 12.6804 21.7356
2836 1 9.17714 8.5268 21.4768
2777 1 11.5373 9.9974 21.6895
2794 1 9.55079 11.34 21.5638
2654 1 0.785961 13.858 21.5289
2602 1 2.92475 14.9217 22.1328
2820 1 0.795501 16.3754 21.9054
2907 1 5.04308 13.9805 21.6903
2868 1 7.35549 15.1982 21.5421
2493 1 4.87909 16.4899 21.7881
2800 1 11.7172 12.3947 21.3826
2798 1 9.52261 13.832 21.6315
2818 1 11.7936 14.9882 21.3517
2817 1 9.69917 16.5864 21.5262
2826 1 0.587007 18.7308 21.5273
2779 1 2.94157 20.2497 21.5945
2934 1 2.93381 17.8822 21.6172
2683 1 7.27428 20.1921 21.7554
2874 1 5.06631 18.9667 21.7255
2869 1 7.39874 17.7036 21.898
2781 1 11.8234 17.5288 21.5898
2858 1 9.71413 18.9502 21.5701
2763 1 11.8476 20.2567 21.6928
2849 1 0.898587 21.5556 21.6174
2765 1 3.05228 22.8759 21.578
2801 1 0.782883 24.1406 21.3297
2811 1 3.01301 25.2098 21.5624
2921 1 7.1764 22.9532 21.7729
2847 1 5.00188 21.4949 21.7674
2853 1 5.2934 24.1758 21.6647
2895 1 7.33924 25.6162 21.7925
2875 1 9.30994 21.4555 21.7972
2776 1 9.4912 24.0579 21.411
2893 1 11.4978 22.5311 21.7539
2809 1 11.5836 25.143 21.8684
2948 1 2.87165 27.5206 21.6684
2771 1 0.765246 26.536 21.3183
2814 1 0.561313 29.0091 21.491
2804 1 7.22034 27.979 21.967
2865 1 5.18286 29.0022 21.3862
2946 1 5.02488 26.5001 21.671
2967 1 12.3584 29.3575 23.9073
2927 1 11.5429 27.8598 21.7714
2971 1 12.2908 26.5514 23.9797
2805 1 9.48909 26.5662 21.6508
2981 1 10.4433 27.939 24.0128
2200 1 9.28277 29.0549 22.0855
2980 1 0.651757 31.5248 21.4058
2555 1 2.92078 32.7979 21.877
2937 1 3.00197 30.0346 21.5272
901 1 13.2866 37.9825 6.55422
921 1 13.2533 25.3213 6.45968
1813 1 13.3677 2.68463 12.9456
925 1 13.1326 30.4134 6.39927
911 1 13.0399 13.0391 6.40168
1906 1 13.099 5.0935 12.8134
2080 1 13.2359 7.66101 12.8619
1946 1 13.0395 12.6919 12.9108
1821 1 13.1969 30.3908 13.433
815 1 0.0324644 5.02913 6.32617
1678 1 0.100877 22.8146 12.9702
831 1 0.0700512 25.3304 6.54147
92 1 15.3889 1.26926 0
94 1 15.3889 3.80777 0
361 1 14.6561 2.31199e-16 2.07269
362 1 16.8545 1.26926 2.07269
363 1 14.6561 2.53851 2.07269
364 1 16.8545 3.80777 2.07269
121 1 17.5873 0 0
123 1 17.5873 2.53851 0
122 1 19.7858 1.26926 0
124 1 19.7858 3.80777 0
391 1 19.0529 2.31199e-16 2.07269
392 1 21.2514 1.26926 2.07269
393 1 19.0529 2.53851 2.07269
394 1 21.2514 3.80777 2.07269
662 1 18.3674 1.23801 4.29855
663 1 20.6665 2.49125 4.28747
151 1 21.9842 0 0
152 1 24.1826 1.26926 0
153 1 21.9842 2.53851 0
154 1 24.1826 3.80777 0
421 1 23.4498 2.31199e-16 2.07269
422 1 25.6482 1.26926 2.07269
423 1 23.4498 2.53851 2.07269
424 1 25.6482 3.80777 2.07269
181 1 26.381 0 0
183 1 26.381 2.53851 0
96 1 15.3889 6.34628 0
365 1 14.6561 5.07703 2.07269
366 1 16.8545 6.34628 2.07269
367 1 14.6561 7.61554 2.07269
125 1 17.5873 5.07703 0
127 1 17.5873 7.61554 0
126 1 19.7858 6.34628 0
395 1 19.0529 5.07703 2.07269
396 1 21.2514 6.34628 2.07269
397 1 19.0529 7.61554 2.07269
155 1 21.9842 5.07703 0
156 1 24.1826 6.34628 0
157 1 21.9842 7.61554 0
425 1 23.4498 5.07703 2.07269
426 1 25.6482 6.34628 2.07269
427 1 23.4498 7.61554 2.07269
185 1 26.381 5.07703 0
187 1 26.381 7.61554 0
98 1 15.3889 8.8848 0
100 1 15.3889 11.4233 0
368 1 16.8545 8.8848 2.07269
369 1 14.6561 10.1541 2.07269
370 1 16.8545 11.4233 2.07269
129 1 17.5873 10.1541 0
128 1 19.7858 8.8848 0
130 1 19.7858 11.4233 0
398 1 21.2514 8.8848 2.07269
399 1 19.0529 10.1541 2.07269
400 1 21.2514 11.4233 2.07269
158 1 24.1826 8.8848 0
159 1 21.9842 10.1541 0
160 1 24.1826 11.4233 0
428 1 25.6482 8.8848 2.07269
429 1 23.4498 10.1541 2.07269
430 1 25.6482 11.4233 2.07269
189 1 26.381 10.1541 0
371 1 14.6561 12.6926 2.07269
131 1 17.5873 12.6926 0
102 1 15.3889 13.9618 0
104 1 15.3889 16.5003 0
372 1 16.8545 13.9618 2.07269
373 1 14.6561 15.2311 2.07269
374 1 16.8545 16.5003 2.07269
133 1 17.5873 15.2311 0
401 1 19.0529 12.6926 2.07269
132 1 19.7858 13.9618 0
134 1 19.7858 16.5003 0
402 1 21.2514 13.9618 2.07269
403 1 19.0529 15.2311 2.07269
404 1 21.2514 16.5003 2.07269
161 1 21.9842 12.6926 0
431 1 23.4498 12.6926 2.07269
162 1 24.1826 13.9618 0
163 1 21.9842 15.2311 0
164 1 24.1826 16.5003 0
432 1 25.6482 13.9618 2.07269
433 1 23.4498 15.2311 2.07269
434 1 25.6482 16.5003 2.07269
191 1 26.381 12.6926 0
193 1 26.381 15.2311 0
701 1 24.879 12.7694 4.08973
106 1 15.3889 19.0389 0
375 1 14.6561 17.7696 2.07269
376 1 16.8545 19.0389 2.07269
377 1 14.6561 20.3081 2.07269
135 1 17.5873 17.7696 0
137 1 17.5873 20.3081 0
136 1 19.7858 19.0389 0
405 1 19.0529 17.7696 2.07269
406 1 21.2514 19.0389 2.07269
407 1 19.0529 20.3081 2.07269
165 1 21.9842 17.7696 0
166 1 24.1826 19.0389 0
167 1 21.9842 20.3081 0
435 1 23.4498 17.7696 2.07269
436 1 25.6482 19.0389 2.07269
437 1 23.4498 20.3081 2.07269
195 1 26.381 17.7696 0
197 1 26.381 20.3081 0
108 1 15.3889 21.5774 0
110 1 15.3889 24.1159 0
378 1 16.8545 21.5774 2.07269
379 1 14.6561 22.8466 2.07269
380 1 16.8545 24.1159 2.07269
381 1 14.6561 25.3851 2.07269
139 1 17.5873 22.8466 0
141 1 17.5873 25.3851 0
138 1 19.7858 21.5774 0
140 1 19.7858 24.1159 0
408 1 21.2514 21.5774 2.07269
409 1 19.0529 22.8466 2.07269
410 1 21.2514 24.1159 2.07269
411 1 19.0529 25.3851 2.07269
680 1 18.4293 24.149 4.1948
168 1 24.1826 21.5774 0
169 1 21.9842 22.8466 0
170 1 24.1826 24.1159 0
171 1 21.9842 25.3851 0
438 1 25.6482 21.5774 2.07269
439 1 23.4498 22.8466 2.07269
440 1 25.6482 24.1159 2.07269
441 1 23.4498 25.3851 2.07269
199 1 26.381 22.8466 0
201 1 26.381 25.3851 0
709 1 25.0825 22.9936 4.27642
112 1 15.3889 26.6544 0
114 1 15.3889 29.1929 0
382 1 16.8545 26.6544 2.07269
383 1 14.6561 27.9236 2.07269
384 1 16.8545 29.1929 2.07269
143 1 17.5873 27.9236 0
142 1 19.7858 26.6544 0
144 1 19.7858 29.1929 0
412 1 21.2514 26.6544 2.07269
413 1 19.0529 27.9236 2.07269
414 1 21.2514 29.1929 2.07269
172 1 24.1826 26.6544 0
173 1 21.9842 27.9236 0
174 1 24.1826 29.1929 0
442 1 25.6482 26.6544 2.07269
443 1 23.4498 27.9236 2.07269
444 1 25.6482 29.1929 2.07269
203 1 26.381 27.9236 0
116 1 15.3889 31.7314 0
385 1 14.6561 30.4622 2.07269
386 1 16.8545 31.7314 2.07269
387 1 14.6561 33.0007 2.07269
145 1 17.5873 30.4622 0
147 1 17.5873 33.0007 0
146 1 19.7858 31.7314 0
415 1 19.0529 30.4622 2.07269
416 1 21.2514 31.7314 2.07269
417 1 19.0529 33.0007 2.07269
175 1 21.9842 30.4622 0
176 1 24.1826 31.7314 0
177 1 21.9842 33.0007 0
445 1 23.4498 30.4622 2.07269
446 1 25.6482 31.7314 2.07269
447 1 23.4498 33.0007 2.07269
205 1 26.381 30.4622 0
207 1 26.381 33.0007 0
717 1 24.9219 33.1422 4.30902
118 1 15.3889 34.2699 0
120 1 15.3889 36.8084 0
388 1 16.8545 34.2699 2.07269
389 1 14.6561 35.5392 2.07269
390 1 16.8545 36.8084 2.07269
149 1 17.5873 35.5392 0
148 1 19.7858 34.2699 0
150 1 19.7858 36.8084 0
418 1 21.2514 34.2699 2.07269
419 1 19.0529 35.5392 2.07269
420 1 21.2514 36.8084 2.07269
178 1 24.1826 34.2699 0
179 1 21.9842 35.5392 0
180 1 24.1826 36.8084 0
448 1 25.6482 34.2699 2.07269
449 1 23.4498 35.5392 2.07269
450 1 25.6482 36.8084 2.07269
209 1 26.381 35.5392 0
634 1 14.0407 3.71946 4.50924
633 1 16.1345 2.42233 4.28814
632 1 13.9557 1.21522 4.33558
902 1 15.445 1.26654 6.3306
904 1 15.5231 3.71064 6.54141
631 1 16.0495 0.0308993 4.14901
903 1 12.9721 2.37174 6.48166
664 1 18.3746 3.60296 4.39085
933 1 17.5401 2.57992 6.32706
932 1 19.7567 1.39821 6.25392
934 1 19.6973 3.82212 6.41298
931 1 17.6354 0.0677464 6.41385
691 1 24.9357 0.0204689 4.08411
963 1 21.9017 2.60107 6.46247
694 1 22.7126 3.91863 4.40879
692 1 22.9311 1.3664 4.30156
693 1 25.1031 2.5408 4.2102
962 1 24.3129 1.42631 6.38847
964 1 24.202 3.99121 6.45901
635 1 16.2033 4.81481 4.35618
637 1 16.0702 7.17457 4.25502
636 1 13.8644 6.30879 4.07851
906 1 15.4148 6.32264 6.48888
2819 1 25.0211 0.016767 21.8227
919 1 13.2257 22.9872 6.70034
667 1 20.5315 7.46161 4.30224
665 1 20.551 5.00119 4.0834
935 1 17.4255 5.04824 6.45781
937 1 17.5011 7.52864 6.4683
666 1 18.2795 6.20388 4.29574
936 1 19.665 6.38397 6.26238
965 1 21.8542 5.06155 6.54703
967 1 21.8517 7.63996 6.55828
696 1 22.7595 6.48756 4.26369
695 1 24.9059 4.98811 4.19698
697 1 25.1046 7.41655 4.30804
966 1 23.9325 6.42375 6.38306
1716 1 13.1339 15.1837 13.0189
639 1 15.9541 10.0019 4.22656
640 1 13.89 11.4794 4.22841
638 1 13.8004 8.80487 4.17884
908 1 15.2065 8.7809 6.32178
910 1 15.3768 11.3816 6.30197
641 1 15.9954 12.7372 4.24366
941 1 17.4509 12.5944 6.45136
939 1 17.5262 9.99339 6.37502
1705 1 13.1084 22.9678 12.8796
668 1 18.3312 8.92978 4.2177
670 1 18.0537 11.4074 4.13636
669 1 20.4472 10.0367 4.26923
938 1 19.7437 8.93046 6.28067
940 1 19.6002 11.3193 6.23236
969 1 22.0071 10.193 6.4073
671 1 20.591 12.7706 4.30403
698 1 22.6955 8.76495 4.11533
700 1 22.6174 11.7126 4.30867
699 1 24.5951 10.012 4.19725
968 1 24.1698 8.92354 6.23896
970 1 24.1391 11.6648 6.49333
915 1 13.0617 17.8806 6.16171
643 1 15.8851 15.2113 4.1497
644 1 13.8881 16.52 4.18392
642 1 13.9262 14.0567 4.06869
912 1 15.1933 14.221 6.62022
914 1 15.2442 16.6242 6.18132
943 1 17.551 15.1662 6.27149
1730 1 13.2052 25.3878 12.9176
2759 1 25.0229 35.5254 21.6813
971 1 22.0668 13.0458 6.57089
673 1 20.364 15.5001 4.18636
674 1 18.2364 16.728 4.3575
672 1 18.3666 13.8922 4.03093
942 1 19.7955 13.9613 6.33039
944 1 19.7492 16.6811 6.31375
703 1 24.9562 15.4073 4.34582
973 1 21.8426 15.509 6.81045
702 1 22.8673 14.1443 4.21124
704 1 22.638 16.5469 4.34142
972 1 24.4118 14.1293 6.4322
974 1 23.9798 16.4327 6.56614
645 1 16.1595 17.6684 4.13787
646 1 13.9607 19.1427 4.20559
647 1 16.1595 20.3916 4.35945
916 1 15.2239 19.2207 6.51679
947 1 17.5611 20.4506 6.733
945 1 17.2526 17.7891 6.60588
675 1 20.3722 17.8993 4.12333
677 1 20.589 20.3525 4.31257
676 1 18.2845 19.2003 4.27434
946 1 19.6534 19.1134 6.71104
975 1 21.8984 18.0281 6.34348
977 1 21.9816 20.4581 6.46387
706 1 22.7577 18.9773 4.11437
705 1 25.072 17.726 4.40392
707 1 24.6329 20.2722 4.41828
976 1 24.429 19.1139 6.54365
649 1 16.1282 22.8626 4.32147
650 1 13.9361 24.0734 4.25748
648 1 13.8392 21.5523 4.23529
918 1 15.185 21.5724 6.29745
920 1 15.4824 23.8185 6.7637
2750 1 22.6351 34.4108 21.6294
949 1 17.7497 22.8606 6.33084
678 1 18.2842 21.7014 4.31332
679 1 20.4357 22.8899 4.22817
948 1 19.9491 21.6181 6.42848
950 1 19.7452 24.3138 6.36428
979 1 22.0121 22.7882 6.51193
710 1 22.7795 24.2057 4.2414
708 1 22.6524 21.5991 4.22645
978 1 24.2831 21.6458 6.60855
980 1 24.2269 24.1281 6.5793
981 1 22.0234 25.2718 6.67364
711 1 24.9096 25.3619 4.22827
1456 1 13.2283 17.5804 12.8549
651 1 15.9052 25.3911 4.31434
654 1 13.9788 29.0949 4.19943
652 1 13.8463 26.672 4.2109
653 1 16.174 27.8312 4.40033
922 1 15.1895 26.6724 6.4879
924 1 15.2442 29.3361 6.49713
1891 1 13.121 10.2541 12.8697
951 1 17.3643 25.5034 6.44847
681 1 20.486 25.6049 4.26638
682 1 18.2897 26.6456 4.25803
953 1 17.7642 28.0415 6.20862
684 1 18.4312 29.1909 4.04821
683 1 20.5142 28.0798 4.23626
952 1 19.8733 26.7074 6.34085
954 1 19.9106 29.186 6.45503
983 1 21.998 27.8655 6.42927
714 1 22.9057 29.1947 4.37979
712 1 22.8584 26.6268 4.40337
713 1 25.1203 27.9694 4.23078
982 1 24.1018 26.6822 6.56319
984 1 24.1607 29.2777 6.49108
656 1 13.9659 31.5551 4.02614
657 1 15.9212 33.1132 4.30622
655 1 16.064 30.5289 4.49054
926 1 15.4256 31.8728 6.48993
957 1 17.6101 32.8953 6.54126
687 1 20.5491 33.1145 4.38086
955 1 17.4942 30.3424 6.64431
686 1 18.4281 31.6619 4.26297
685 1 20.5561 30.5257 4.1215
956 1 19.9909 31.8675 6.54033
987 1 22.0101 33.0277 6.52521
985 1 22.1592 30.3832 6.25972
716 1 22.7627 31.841 4.12369
715 1 24.7079 30.5529 4.10252
986 1 24.1968 31.7892 6.42863
2786 1 22.7459 37.1818 21.9691
660 1 13.6961 36.7015 4.1621
659 1 15.9293 35.513 4.50537
658 1 13.8863 34.0844 4.22834
928 1 15.5579 34.3086 6.54196
930 1 15.5172 36.9469 6.5393
959 1 17.6514 35.5038 6.29257
923 1 13.0581 27.8291 6.47703
689 1 20.7083 35.6368 4.28329
661 1 20.5943 38.0642 4.11953
688 1 18.3167 33.9952 4.24535
690 1 18.2586 36.8704 4.26523
958 1 19.7496 34.4432 6.3972
960 1 19.8446 36.929 6.46795
961 1 22.1482 0.0145668 6.2561
989 1 21.8872 35.5935 6.4491
718 1 22.6847 34.2679 4.32648
719 1 24.9255 35.55 4.1595
720 1 22.7706 36.7192 4.1587
988 1 24.0255 34.418 6.38846
990 1 24.1176 36.8527 6.21259
1172 1 16.8199 1.23836 8.55136
1173 1 14.4788 2.31316 8.58973
1442 1 13.694 1.28854 10.9897
1443 1 15.9656 2.53226 10.5836
1444 1 13.9452 3.72996 10.8227
1174 1 16.7552 3.75086 8.70925
1171 1 14.6601 37.9061 8.8707
1441 1 16.2007 0.115531 10.8593
1202 1 21.0262 1.26887 8.32824
1203 1 19.0613 2.47854 8.42275
1472 1 18.2956 1.26197 10.6005
1473 1 20.4221 2.32257 10.7141
1474 1 18.1677 3.8259 10.7708
1204 1 21.1097 3.66578 8.50734
1233 1 23.4213 2.6756 8.60335
1232 1 25.6229 1.47997 8.6503
1723 1 24.849 2.61615 10.6908
1793 1 22.5684 1.27602 10.593
1504 1 22.5298 3.75659 10.7971
1234 1 25.6682 3.86712 8.45637
1501 1 24.8431 38.1345 10.6796
1231 1 23.3908 38.1878 8.41885
1175 1 14.6815 4.96763 8.47445
1176 1 16.8737 6.21293 8.34479
1177 1 14.4519 7.50549 8.57023
1446 1 13.7306 6.40272 10.7215
1476 1 16.0357 5.15623 10.5615
1417 1 16.2528 7.50547 10.7341
1205 1 18.9092 4.86663 8.59919
1207 1 19.0028 7.71314 8.53015
1206 1 21.0603 6.11593 8.50147
1477 1 20.5625 7.49755 10.6822
1826 1 20.4884 4.91488 10.6833
1475 1 18.5211 6.38338 10.7258
1237 1 23.3271 7.68276 8.57442
1235 1 23.3306 4.97118 8.69229
1236 1 25.5076 6.40991 8.74446
1505 1 24.6636 5.11686 10.9212
1506 1 22.5416 6.2937 10.7194
1507 1 24.837 7.59825 10.8752
1179 1 14.7157 10.0946 8.45149
1180 1 17.0164 11.3708 8.56695
1178 1 16.8113 8.77794 8.58659
1448 1 14.1579 8.79541 10.7891
1450 1 13.9519 11.4964 10.5147
1449 1 16.1948 10.2409 10.7449
1181 1 14.5665 12.5896 8.64164
1208 1 21.1582 8.83993 8.63759
1210 1 21.0716 11.4555 8.56599
1209 1 19.0418 10.2607 8.36391
1478 1 18.2964 9.0667 10.7523
1479 1 20.5652 10.0512 10.7375
1480 1 18.3896 11.4321 10.6297
1481 1 20.4274 12.8154 10.7898
1756 1 22.6515 8.89092 10.7806
1238 1 25.8425 8.9186 8.53951
1240 1 25.7417 11.3985 8.81217
1239 1 23.4003 10.0757 8.55435
1509 1 24.8488 10.0723 10.7483
1510 1 22.7453 11.5085 10.6467
1511 1 25.1655 12.6449 10.796
1451 1 16.2317 12.7468 10.7387
1184 1 16.7123 16.4078 8.67456
1183 1 14.683 15.2766 8.73593
1182 1 16.6625 13.996 8.69786
1452 1 13.7868 13.9996 10.8574
1453 1 15.9799 15.2897 10.8254
1454 1 13.8473 16.5115 10.6681
1211 1 18.9643 12.867 8.34354
1213 1 19.0357 15.1376 8.49011
1212 1 21.2759 14.0812 8.63374
1482 1 18.2347 13.788 10.8135
1483 1 20.0787 15.2978 10.7505
1484 1 18.1797 16.453 10.6806
1214 1 20.9756 16.7163 8.80577
1241 1 23.5085 12.5818 8.84711
1243 1 23.2708 15.3359 8.59663
1242 1 25.8722 14.0773 8.6611
1244 1 25.6003 16.5886 8.62856
1512 1 22.5018 14.0642 10.8419
1514 1 22.5984 16.4411 10.8067
1513 1 24.9462 15.0609 10.7966
1185 1 14.6112 17.7371 8.35165
1187 1 14.8413 20.1943 8.62544
1186 1 16.8719 19.3196 8.52712
1455 1 16.2331 17.8197 10.5629
1457 1 16.137 20.5076 10.7696
1700 1 14.1546 19.087 10.9505
1217 1 19.0055 20.4662 8.77365
1216 1 21.1258 19.1021 8.79852
1215 1 18.8926 17.8561 8.49904
1485 1 20.3606 17.885 10.9004
1486 1 18.3349 19.0876 10.8494
1487 1 20.4212 20.4148 10.7294
1245 1 23.3175 17.8602 8.4952
1246 1 25.6697 18.9981 8.73191
1247 1 23.3912 20.4013 8.77352
1515 1 24.8582 17.8179 10.7702
1516 1 22.7574 18.9272 10.7276
1517 1 24.9239 20.2443 10.841
1458 1 13.8818 21.6048 11.2398
1188 1 16.9111 21.7361 8.86522
1190 1 16.7202 24.2225 8.76065
1189 1 14.7089 22.8074 9.03789
1459 1 16.2413 23.1448 10.9405
1460 1 13.9781 24.2367 11.0373
1191 1 14.4231 25.3086 8.67404
1461 1 15.9657 25.5082 10.9704
1488 1 18.4418 21.8119 10.9113
1218 1 21.2969 21.6641 8.61482
1219 1 19.0323 22.9745 8.47899
1220 1 21.1956 24.0973 8.61486
1489 1 20.5369 22.7882 10.6454
1490 1 18.3988 24.2727 10.7625
1491 1 20.4721 25.4727 10.9568
1518 1 22.8631 21.8928 10.6993
1250 1 25.6958 23.9901 8.66902
1248 1 25.6135 21.6543 8.82897
1249 1 23.3534 23.0544 8.71241
1519 1 25.0462 23.0529 11.028
1520 1 22.4735 24.2432 10.6376
1251 1 23.4443 25.5149 8.72164
1193 1 14.3904 27.8648 8.63533
1192 1 16.5714 26.6263 8.73089
1462 1 13.8529 26.6599 10.6657
1463 1 16.1093 28.0007 10.7852
1194 1 16.6912 29.0567 8.50295
1464 1 14.0031 29.2677 10.6682
1221 1 19.1335 25.4194 8.57842
1222 1 21.2004 26.8154 8.73271
1223 1 18.8714 27.9647 8.67435
1492 1 18.1935 26.6113 10.8697
1493 1 20.5662 28.0975 10.7803
1494 1 18.2234 28.8282 10.8504
1224 1 21.2079 29.3353 8.57219
1521 1 24.9131 25.4035 11.0116
1252 1 25.4441 26.9597 8.78772
1253 1 23.2445 27.9746 8.84411
1522 1 22.899 26.8082 10.8664
1523 1 24.9358 28.0267 10.9227
1524 1 22.842 29.3095 10.8762
1254 1 25.3892 29.1726 8.80835
1196 1 16.7668 31.7122 8.51879
1465 1 16.0453 30.3918 10.6648
1195 1 14.5048 30.4285 8.60277
1197 1 14.632 33.0716 8.67849
1466 1 13.9461 31.8279 10.8135
1467 1 16.045 33.0525 10.7782
1226 1 21.3953 31.8403 8.69977
1225 1 19.0586 30.4756 8.92253
1497 1 20.4137 33.008 10.7274
1227 1 19.1418 32.9224 8.76587
1495 1 20.5216 30.5726 11.0276
1496 1 18.2087 31.6681 10.8238
1256 1 25.6012 31.9099 8.72092
1255 1 23.501 30.5781 8.67111
1257 1 23.3314 33.1358 8.51878
1526 1 22.7213 31.8547 10.7729
1527 1 24.8409 33.0495 10.8608
1525 1 24.9374 30.715 10.7204
1468 1 13.9643 34.2596 10.7106
1200 1 16.9102 36.6933 8.48582
1198 1 16.8807 34.1655 8.64485
1199 1 14.6883 35.5395 8.64461
1470 1 13.8768 36.8502 10.8326
1469 1 16.0332 35.3629 10.7098
1201 1 18.8914 -0.127649 8.54974
1471 1 20.5027 38.0685 10.6407
1228 1 21.3897 34.4245 8.52809
1230 1 21.2326 37.0308 8.66883
1498 1 18.2298 34.2758 10.6063
1229 1 19.1229 35.5378 8.71949
1499 1 20.466 35.5661 10.7909
1500 1 18.353 36.7842 10.7971
1260 1 25.6278 36.8728 8.43487
1258 1 25.487 34.1888 8.61014
1528 1 22.7067 34.4326 10.7902
1259 1 23.3756 35.6921 8.61395
1529 1 24.8548 35.6422 10.5459
1530 1 22.6722 36.879 10.7619
2042 1 16.8952 1.32518 15.016
1755 1 15.4952 1.30144 12.9161
2086 1 14.5109 2.54388 15.2627
1445 1 15.4149 3.87843 12.9811
2034 1 16.7911 4.00383 15.2542
2225 1 14.5441 0.157016 14.9297
1899 1 17.7049 2.5721 13.0439
1868 1 20.0249 1.27667 12.9379
1847 1 20.0137 3.87544 13.0146
2002 1 21.2652 1.36835 15.4527
2221 1 19.2255 2.47881 15.2083
1882 1 21.4026 3.90181 15.096
2005 1 19.0076 0.200639 15.0425
1502 1 22.2191 2.39737 12.8798
1822 1 24.3506 1.19092 12.9187
1933 1 23.5089 2.47055 15.1183
1912 1 25.5087 1.06897 15.0729
1917 1 25.7894 3.69082 15.0498
1769 1 24.3869 3.63025 13.004
2285 1 23.2995 0.0770139 15.0251
2129 1 14.5603 7.57135 15.0934
1447 1 15.2566 6.43434 12.7763
2092 1 16.9656 6.31832 14.9629
2122 1 14.5901 5.03516 15.1965
2964 1 18.8574 38.2529 23.8128
2993 1 21.5463 34.7743 23.613
2047 1 17.6383 7.58242 12.8769
1706 1 17.6879 5.09967 13.0007
1960 1 19.0058 4.95619 15.3035
1836 1 20.001 6.31462 12.8666
1799 1 21.103 6.14024 14.9311
1922 1 19.127 7.47954 14.892
2057 1 22.2654 4.82483 13.0163
1873 1 21.9718 7.38954 12.8812
2050 1 23.401 7.32309 15.0497
2090 1 23.6746 4.87202 15.2864
1823 1 24.2942 6.39017 12.9744
2066 1 25.899 6.25373 15.0281
2944 1 21.1315 37.0309 23.7972
1017 1 26.1699 33.119 6.43637
1920 1 15.408 9.03643 12.9352
2084 1 16.8146 8.7656 14.9908
1879 1 15.5018 11.5359 13.0104
1974 1 16.7549 11.3223 15.0463
2097 1 14.5715 10.0167 15.0883
2280 1 14.6037 12.7556 15.264
1834 1 17.6637 12.7447 12.9693
1503 1 26.5776 2.57941 12.9937
1749 1 17.6144 10.1979 12.903
1856 1 19.801 8.84411 12.9763
2085 1 21.287 8.75872 15.1283
1698 1 19.9415 11.4387 12.81
1742 1 21.3215 11.2037 15.1904
2060 1 19.219 10.2106 15.1367
2001 1 19.0508 12.6092 15.0528
1788 1 21.9726 12.5196 12.718
1883 1 22.1096 10.0348 12.9408
2037 1 25.6693 8.68013 15.3178
1508 1 24.1817 8.80507 13.0556
1993 1 24.2276 11.3304 13.0576
2207 1 25.6569 11.3031 15.0973
2030 1 23.6018 10.1079 15.3336
2016 1 23.6634 12.543 15.1724
2740 1 18.0196 36.7609 21.306
2004 1 14.8738 15.2082 14.9631
1702 1 15.3593 14.0607 12.687
2032 1 16.9523 13.8833 15.0541
1693 1 15.4083 16.6912 12.8042
1995 1 16.8537 16.4906 15.0338
2886 1 18.3187 34.1401 21.5248
1703 1 17.6068 15.2934 12.8649
1743 1 19.8862 14.0553 12.8371
1915 1 19.1964 15.1827 14.9275
1686 1 19.6138 16.5892 12.7965
1978 1 21.2012 13.9702 15.0032
1925 1 21.3086 16.6197 15.0848
1685 1 21.9413 15.2956 13.1254
1971 1 23.4494 15.1913 15.4415
1748 1 24.1882 13.8178 12.9363
1690 1 24.4375 16.415 12.8818
1991 1 25.6278 13.8971 15.28
1959 1 25.6646 16.4591 15.0001
2951 1 18.9848 35.6527 23.8166
2010 1 14.5736 17.6639 14.9785
2007 1 16.9195 19.0189 15.1387
1811 1 15.4209 19.2036 12.877
1895 1 14.573 20.337 15.2489
1638 1 17.5009 20.2835 13.0668
1661 1 17.404 17.9348 12.9029
1909 1 19.0279 20.3569 15.0781
1651 1 19.6799 18.8809 13.0524
1887 1 21.2657 19.1349 14.8162
2316 1 19.0375 17.5764 14.9481
1655 1 21.9089 20.272 12.7185
1666 1 22.1688 17.8711 12.9117
1914 1 23.3327 17.7794 15.1414
1927 1 23.4181 20.4617 14.9212
1902 1 24.197 18.9405 13.0336
1955 1 25.4962 19.0177 15.0902
991 1 26.2115 38.1914 6.21032
1984 1 16.941 21.5462 15.5087
1967 1 15.5754 21.7045 12.865
1647 1 15.5009 24.2143 13.1431
1926 1 16.9724 24.0459 15.3865
1973 1 14.8445 22.7923 15.2555
2822 1 20.3518 35.7679 21.7256
1634 1 17.7445 22.8728 13.0986
1631 1 19.8313 21.3805 12.9982
1881 1 21.3481 21.7827 14.9363
1664 1 19.1547 22.8966 15.2528
1636 1 19.9394 24.0421 13.2494
1990 1 21.3093 24.1408 15.3358
1885 1 19.1059 25.4866 15.3105
1644 1 22.0681 22.8043 12.7474
1632 1 17.6336 25.2345 13.0499
2054 1 25.6235 21.5665 15.0643
1625 1 24.2884 21.7299 13.0345
2053 1 25.9248 24.0025 15.1865
2008 1 23.5676 22.8772 15.2609
1982 1 24.3815 24.0812 13.0525
2835 1 13.7866 34.2631 21.8562
2093 1 14.6078 25.4735 15.3312
2076 1 14.8138 27.9537 15.3628
2110 1 16.8784 26.5437 15.4192
1665 1 15.3155 26.7149 13.1357
1738 1 15.2506 29.1157 13.0398
2126 1 16.8542 29.0994 15.2965
2041 1 13.0972 27.7339 12.8528
2957 1 14.701 35.511 23.9237
1660 1 17.303 27.7587 13.0965
1629 1 19.7783 26.6664 13.0313
2025 1 21.2541 26.7068 15.4065
1966 1 18.8711 27.8699 15.098
2068 1 21.171 29.217 15.1405
1968 1 19.458 29.2155 13.1148
1663 1 21.9226 28.0019 12.7291
1635 1 23.4692 25.3995 15.3825
1673 1 22.0333 25.1544 13.2304
1654 1 23.3801 27.9563 15.2041
1767 1 24.1744 26.7963 13.1204
2031 1 25.6315 26.6044 15.1375
1784 1 24.0941 29.3704 13.231
2067 1 25.6894 29.2509 15.1012
2969 1 16.8928 34.2737 23.616
2314 1 15.9319 35.6669 21.4339
2096 1 16.9406 31.7906 14.9255
1994 1 14.6453 32.8455 15.0566
1707 1 15.4069 31.7608 12.9088
1745 1 14.8516 30.34 15.3326
1776 1 17.4872 30.411 13.0595
1712 1 26.3248 12.6512 13.0776
2914 1 23.5117 30.6301 23.5566
1785 1 17.4511 32.9306 13.0164
2029 1 19.1427 30.5423 15.3871
1897 1 19.6579 31.9029 13.0146
1929 1 21.1627 31.8334 15.4371
1958 1 18.9557 32.9711 15.2449
1714 1 21.8565 33.3324 12.9241
1763 1 21.7029 30.8518 13.3272
2259 1 23.3532 33.0484 15.0117
2020 1 25.6688 31.8239 14.9134
1890 1 23.3919 30.5662 15.2665
1725 1 24.0586 31.7299 12.7968
2961 1 16.8509 36.7129 23.62
2442 1 13.8194 36.8252 21.5341
2083 1 17.0233 34.2436 14.9864
2108 1 14.7734 35.6333 15.3326
1691 1 16.8499 36.7771 15.1669
1852 1 15.355 34.2011 12.8601
1805 1 15.3017 36.6306 12.7083
1770 1 17.57 35.3149 12.885
1815 1 17.5613 -0.137895 12.9604
1903 1 21.2377 34.3479 15.1239
1718 1 19.7083 34.3897 13.1992
1970 1 21.0095 36.9965 15.2975
1939 1 18.9933 35.592 15.3311
1778 1 19.7788 36.8738 12.8355
1766 1 21.974 35.6703 12.9706
1817 1 21.9734 -0.0353945 12.9415
1692 1 24.2446 34.4137 13.0064
1901 1 25.5949 34.3547 15.0874
1953 1 23.2857 35.6566 15.0271
1744 1 24.1315 36.7895 12.7819
1874 1 25.6858 36.6872 14.8412
2289 1 16.0536 2.54677 17.2962
2321 1 13.8269 1.40859 17.2089
2267 1 13.9347 3.92722 17.221
2407 1 16.7966 1.29434 19.636
2870 1 14.4894 2.62847 19.2663
2479 1 16.9046 4.0113 19.5553
2524 1 14.5408 0.0174047 19.2078
2223 1 16.0742 38.2661 17.0826
1952 1 18.3273 1.39743 17.5228
2265 1 20.3044 2.84467 17.3955
2281 1 18.0974 3.85581 17.4825
2482 1 21.4203 1.17403 19.859
2926 1 19.0669 2.51258 19.4911
2406 1 21.2096 3.796 19.657
1896 1 20.5121 -0.0723698 17.6017
2263 1 22.8838 1.36437 17.4724
2216 1 25.141 2.46685 17.132
2217 1 22.7065 3.6552 17.4007
2844 1 25.5806 1.39099 19.6709
2923 1 23.4657 2.70679 19.6934
2375 1 25.725 3.86889 19.2503
2333 1 13.8372 6.58607 17.5071
2311 1 16.0393 5.17965 17.2999
2399 1 16.1711 7.57723 17.2242
2717 1 14.8648 7.75123 19.4659
2476 1 16.6996 6.35003 19.6272
2909 1 14.452 5.14802 19.4111
2304 1 18.4055 6.38242 17.4754
2233 1 20.3225 5.2283 17.3559
2218 1 20.4963 7.55046 16.9093
2583 1 21.1741 6.25413 19.5047
2573 1 19.388 10.1308 19.6117
2212 1 22.7593 6.29116 17.4235
2168 1 25.0383 5.08163 17.2784
2201 1 24.8786 7.47425 17.4816
2540 1 23.5588 5.03552 19.5844
2566 1 25.9189 6.23729 19.4413
2615 1 23.6747 7.4351 19.5018
2673 1 14.1425 8.86016 17.4151
2344 1 16.2687 10.0123 17.3545
2065 1 13.8871 11.333 17.2752
2471 1 14.7237 10.0502 19.3201
2668 1 16.7794 11.267 19.3833
2700 1 17.227 8.70267 19.2758
2315 1 18.3538 8.6794 17.002
2342 1 20.8185 10.1794 17.5558
2302 1 18.4181 11.1821 17.3902
2653 1 18.9413 12.524 19.1989
2636 1 21.6375 8.93143 19.4537
2387 1 20.5031 12.654 17.0084
2557 1 22.7694 8.8991 17.247
2072 1 24.9753 9.94265 17.301
2298 1 22.7926 11.3532 17.2844
2596 1 25.8571 11.1879 19.4218
2169 1 25.7378 8.67748 19.551
2543 1 23.6419 12.2143 19.4465
2303 1 24.9812 12.4778 17.2358
2409 1 16.2264 12.5266 17.213
2522 1 14.7051 12.6138 19.2393
2561 1 16.7503 14.0193 19.2965
2385 1 16.076 15.0526 17.2105
2513 1 13.8202 13.7417 17.1164
2334 1 13.8781 16.2535 17.2538
2494 1 16.7677 16.4215 19.3125
2405 1 14.6054 15.1386 19.2323
2360 1 20.5562 14.9059 17.127
2357 1 18.3868 13.9533 17.2649
2371 1 18.4395 16.518 17.1799
2465 1 19.0183 15.1946 19.3168
2512 1 21.3181 13.6466 19.2496
2443 1 21.1173 16.2034 19.579
2548 1 23.3866 15.1688 19.4212
2230 1 22.8629 13.7982 17.3907
2198 1 24.941 15.1081 17.5653
2190 1 22.6869 16.4858 17.2836
2536 1 25.7759 16.5066 19.4946
2526 1 25.4495 13.807 19.4105
2559 1 14.6847 17.6652 19.3818
2511 1 16.0378 17.5359 17.0612
2433 1 16.8161 18.9561 19.5307
2173 1 16.191 20.0532 17.2969
2336 1 14.2172 18.8969 17.407
2453 1 14.6052 20.1597 19.4351
2414 1 21.0441 19.0779 19.361
2350 1 18.8542 20.0977 19.87
1884 1 18.4168 19.2006 17.4774
2354 1 20.5739 17.4934 17.1654
2219 1 20.7898 20.3974 17.0901
2436 1 19.0671 17.7271 19.4328
2541 1 25.6664 19.1097 19.1552
2292 1 24.9333 17.5867 17.3095
2153 1 24.8424 20.1677 17.1231
2127 1 22.5978 18.9765 17.3842
2424 1 23.3798 20.2383 19.2825
2474 1 23.1895 17.685 19.3581
2284 1 13.794 21.3297 17.6001
2398 1 16.8233 21.546 19.6553
2429 1 16.853 24.1772 19.6949
2237 1 13.8332 23.948 17.3467
2226 1 16.092 22.6269 17.5561
2451 1 14.7758 22.7054 19.7656
2651 1 21.1921 21.5131 19.5597
2239 1 18.5312 21.558 17.397
2332 1 21.3443 23.9786 19.4832
2428 1 19.0061 22.7151 19.317
2184 1 18.4216 23.9365 17.3832
2194 1 20.6264 22.9345 17.4977
2413 1 25.6802 21.5449 19.2894
2257 1 22.7836 21.5737 17.1525
2430 1 23.426 22.8023 19.5673
2470 1 25.611 23.9336 19.335
2131 1 22.7221 24.0828 17.4794
2159 1 24.7791 22.7521 17.3028
2361 1 23.4249 25.2767 19.6675
2348 1 14.6409 25.2152 19.5705
2167 1 16.0177 25.304 17.5227
2404 1 14.5582 27.812 19.4825
2352 1 16.7051 26.6148 19.701
2174 1 16.0557 27.9847 17.5519
2222 1 13.8432 26.5949 17.3439
2170 1 13.8705 29.1192 17.3444
2305 1 16.8005 29.1408 19.6328
2228 1 20.4591 25.4134 17.4994
2383 1 19.1172 25.3887 19.5739
2649 1 18.9764 27.786 19.4703
2324 1 21.1791 26.6258 19.6001
2193 1 20.2751 27.952 17.4239
2183 1 18.2513 26.4877 17.4097
2187 1 18.185 29.1328 17.5364
2338 1 21.0614 29.1985 19.5729
2146 1 24.8418 25.4558 17.5366
2356 1 23.2218 28.1165 19.6005
2384 1 25.414 26.4725 19.4501
2249 1 24.8556 27.8761 17.2264
2134 1 22.6943 26.6406 17.4325
2197 1 22.4585 29.3467 17.1496
2445 1 25.6431 29.276 19.3669
2326 1 16.7297 31.9997 19.6872
2335 1 14.5476 30.5832 19.8327
2206 1 15.9394 33.0458 17.2107
2196 1 13.9461 31.5269 17.6017
2213 1 16.07 30.4978 17.3391
2340 1 14.4348 33.0374 19.5359
2328 1 19.0561 32.8845 19.5854
2358 1 21.1819 31.6694 19.5873
2256 1 20.5571 33.039 17.4259
2209 1 20.2534 30.4401 17.5742
2166 1 18.0962 31.7586 17.2911
2310 1 18.9405 30.3574 19.6618
2341 1 23.5514 33.1306 19.6695
2415 1 25.7106 31.8521 19.4706
2215 1 24.7046 32.9518 17.2029
2252 1 22.5659 31.7536 17.4351
2271 1 24.5841 30.3443 17.4937
2377 1 23.4395 30.7194 19.5459
2746 1 16.9156 34.5272 19.6837
2370 1 16.7235 36.995 19.2584
2227 1 13.8883 34.2765 17.2794
2434 1 14.553 35.5787 19.4288
1923 1 13.7278 37.0091 17.2375
2172 1 16.0632 35.6562 17.2592
2394 1 19.0857 38.2408 19.5518
2247 1 18.4271 34.139 17.3859
2368 1 21.3156 36.8513 19.7221
2364 1 19.0771 35.603 19.4179
2373 1 21.4179 34.4236 19.4797
2277 1 18.2865 37.0233 17.4187
2309 1 20.4445 35.5398 17.3072
2439 1 23.3857 -0.0639781 19.6133
2171 1 24.8357 -0.0643151 17.5059
2533 1 25.5366 36.6338 19.495
2402 1 25.6034 34.3197 19.6052
2320 1 22.5881 36.9916 17.0961
1877 1 22.715 34.317 17.0576
2224 1 24.7704 35.4693 17.4099
2425 1 23.409 35.5609 19.5648
2829 1 15.7997 0.0674613 21.548
2976 1 14.5183 38.0836 23.6925
2501 1 16.0098 2.30895 21.9115
2867 1 13.5866 1.26245 21.8937
2917 1 13.8635 3.80207 21.3805
2986 1 16.6913 1.07484 23.8512
2827 1 20.3745 0.423003 22.0025
2461 1 20.4173 2.64219 21.7471
2860 1 18.4808 1.35086 21.6652
2953 1 17.9207 3.76988 21.8583
2940 1 22.767 1.46464 21.9146
2955 1 24.9302 2.41568 22.093
2838 1 22.8404 3.84922 21.9569
2508 1 15.8823 4.93771 21.4795
2831 1 13.8455 6.4419 21.6244
2902 1 16.1286 7.62347 21.8131
2531 1 20.4952 7.53043 21.3019
2949 1 20.5023 5.12276 21.8829
2863 1 18.494 6.39478 21.7752
2528 1 22.7364 6.40298 21.3855
2973 1 25.0317 7.52781 21.376
2380 1 25.1309 5.13299 21.8758
2783 1 13.8368 8.78457 21.4275
2850 1 16.0241 9.96519 21.3654
2768 1 13.8966 11.1439 21.6396
2792 1 16.0625 12.5033 21.6141
2807 1 18.2995 8.75359 21.6201
2840 1 20.6367 9.70892 21.6619
2778 1 18.1264 11.2072 21.506
2998 1 22.8005 8.80366 21.6079
2891 1 22.8739 11.219 21.8038
2732 1 24.9465 10.106 21.4567
2968 1 25.1127 12.7642 21.6794
2769 1 13.8584 13.7627 21.5572
2742 1 16.2581 14.852 21.5632
2729 1 13.8981 16.2856 21.6185
2825 1 20.4195 12.3076 21.1022
2767 1 18.1692 13.7561 21.4881
2789 1 20.4401 14.7777 21.5864
2734 1 18.4474 16.131 21.6115
2802 1 22.7378 13.5374 21.2379
2790 1 25.0086 15.1683 21.3623
2730 1 22.7732 16.2359 21.397
2690 1 13.9202 18.8659 21.7325
2743 1 15.9504 20.1753 21.5614
2758 1 16.0524 17.6948 21.4969
2747 1 20.6697 17.7009 21.5394
2627 1 20.3075 20.1494 21.7697
2701 1 18.346 18.6967 21.7201
2785 1 22.5555 19.148 21.3953
2761 1 24.7764 20.2865 21.2095
2695 1 24.8853 17.9829 21.4632
2846 1 13.7957 23.8789 21.8394
2712 1 13.8922 21.582 21.6935
2713 1 16.0689 22.7665 22.0586
2908 1 17.0369 24.2514 23.9271
2682 1 15.9841 25.5149 21.6526
2915 1 21.3847 24.2359 24.2943
2990 1 21.1403 21.5921 23.6859
2985 1 19.2501 23.0456 23.6408
2449 1 18.3119 21.3806 21.8445
2660 1 20.4674 22.9178 21.541
2640 1 18.1184 23.9937 21.5631
2624 1 20.4938 25.3426 21.5226
2905 1 25.6985 24.0555 23.6435
2655 1 22.45 21.5159 21.774
2933 1 23.2597 22.9821 23.6943
2622 1 22.6106 24.0245 21.5767
2675 1 24.7758 22.8272 21.7435
2881 1 23.465 25.5444 23.7395
2643 1 24.9476 25.2983 21.6832
2962 1 14.6242 25.4894 23.8368
2903 1 14.3908 27.928 23.7728
2935 1 17.0605 26.7449 23.9813
2726 1 15.9165 27.9391 21.73
2787 1 13.6436 26.3914 21.8398
2854 1 13.761 29.1718 21.7604
2932 1 16.8871 29.2648 23.8542
2899 1 21.3722 29.2566 24.032
2966 1 19.1706 25.4443 23.5355
2707 1 21.2341 26.6073 23.5018
2897 1 18.9918 28.0103 23.6358
2351 1 18.1077 26.8053 21.5864
2676 1 20.4857 27.7306 21.6149
2687 1 18.1773 29.1971 21.6849
2882 1 25.632 26.7306 23.5717
2900 1 25.55 29.1577 23.4736
2887 1 24.7905 28.0901 21.4934
2645 1 22.7793 26.7166 21.6535
2880 1 23.3745 27.9044 23.775
2694 1 22.5744 29.3328 21.6495
2913 1 16.8548 31.9112 23.7522
2938 1 14.6331 30.5873 23.8642
2824 1 15.989 33.059 21.6577
2852 1 13.7876 31.9343 21.6799
2775 1 16.1353 30.5338 21.6484
2978 1 14.7397 33.1535 23.988
2741 1 18.3396 31.8116 21.6987
2904 1 21.0832 31.8678 23.7548
2793 1 20.5295 33.1825 21.6755
2942 1 19.0551 33.1483 23.8456
2911 1 19.0374 30.55 23.7556
2704 1 20.4184 30.582 21.8673
2719 1 22.4791 31.745 21.6492
2749 1 25.0657 33.2467 21.9821
2716 1 24.9095 30.8345 21.5294
2930 1 23.5018 33.0285 23.7619
2920 1 25.8085 31.9414 23.9975
1001 1 26.3308 12.5597 6.52209
1019 1 26.3794 35.6596 6.19323
1790 1 26.3643 25.4119 13.1281
1003 1 26.438 15.3241 6.48058
1011 1 26.3324 25.3441 6.57383
1009 1 26.3255 22.8961 6.59405
1695 1 26.1616 32.9729 12.7767
1560 1 26.3106 0.161308 12.6732
1842 1 26.245 20.1842 13.1608
999 1 26.3547 10.2162 6.37094
1746 1 26.5718 35.4293 12.7533
929 1 13.183 35.5241 6.33345
909 1 13.0631 10.3526 6.37222
913 1 13.1639 15.5223 6.57931
1407 1 13.1573 38.2408 12.9843
907 1 13.1219 7.4483 6.13446
182 1 28.5794 1.26926 0
184 1 28.5794 3.80777 0
451 1 27.8466 2.31199e-16 2.07269
452 1 30.045 1.26926 2.07269
453 1 27.8466 2.53851 2.07269
454 1 30.045 3.80777 2.07269
211 1 30.7778 0 0
213 1 30.7778 2.53851 0
212 1 32.9763 1.26926 0
214 1 32.9763 3.80777 0
481 1 32.2434 2.31199e-16 2.07269
482 1 34.4419 1.26926 2.07269
483 1 32.2434 2.53851 2.07269
484 1 34.4419 3.80777 2.07269
753 1 33.5409 2.54468 4.26675
241 1 35.1747 0 0
242 1 37.3731 1.26926 0
243 1 35.1747 2.53851 0
244 1 37.3731 3.80777 0
511 1 36.6403 2.31199e-16 2.07269
512 1 38.8387 1.26926 2.07269
513 1 36.6403 2.53851 2.07269
514 1 38.8387 3.80777 2.07269
186 1 28.5794 6.34628 0
455 1 27.8466 5.07703 2.07269
456 1 30.045 6.34628 2.07269
457 1 27.8466 7.61554 2.07269
215 1 30.7778 5.07703 0
217 1 30.7778 7.61554 0
216 1 32.9763 6.34628 0
485 1 32.2434 5.07703 2.07269
486 1 34.4419 6.34628 2.07269
487 1 32.2434 7.61554 2.07269
245 1 35.1747 5.07703 0
246 1 37.3731 6.34628 0
247 1 35.1747 7.61554 0
515 1 36.6403 5.07703 2.07269
516 1 38.8387 6.34628 2.07269
517 1 36.6403 7.61554 2.07269
188 1 28.5794 8.8848 0
190 1 28.5794 11.4233 0
458 1 30.045 8.8848 2.07269
459 1 27.8466 10.1541 2.07269
460 1 30.045 11.4233 2.07269
219 1 30.7778 10.1541 0
218 1 32.9763 8.8848 0
220 1 32.9763 11.4233 0
488 1 34.4419 8.8848 2.07269
489 1 32.2434 10.1541 2.07269
490 1 34.4419 11.4233 2.07269
248 1 37.3731 8.8848 0
249 1 35.1747 10.1541 0
250 1 37.3731 11.4233 0
518 1 38.8387 8.8848 2.07269
519 1 36.6403 10.1541 2.07269
520 1 38.8387 11.4233 2.07269
461 1 27.8466 12.6926 2.07269
221 1 30.7778 12.6926 0
192 1 28.5794 13.9618 0
194 1 28.5794 16.5003 0
462 1 30.045 13.9618 2.07269
463 1 27.8466 15.2311 2.07269
464 1 30.045 16.5003 2.07269
223 1 30.7778 15.2311 0
491 1 32.2434 12.6926 2.07269
222 1 32.9763 13.9618 0
224 1 32.9763 16.5003 0
492 1 34.4419 13.9618 2.07269
493 1 32.2434 15.2311 2.07269
494 1 34.4419 16.5003 2.07269
251 1 35.1747 12.6926 0
521 1 36.6403 12.6926 2.07269
252 1 37.3731 13.9618 0
253 1 35.1747 15.2311 0
254 1 37.3731 16.5003 0
522 1 38.8387 13.9618 2.07269
523 1 36.6403 15.2311 2.07269
524 1 38.8387 16.5003 2.07269
196 1 28.5794 19.0389 0
465 1 27.8466 17.7696 2.07269
466 1 30.045 19.0389 2.07269
467 1 27.8466 20.3081 2.07269
225 1 30.7778 17.7696 0
227 1 30.7778 20.3081 0
226 1 32.9763 19.0389 0
495 1 32.2434 17.7696 2.07269
496 1 34.4419 19.0389 2.07269
497 1 32.2434 20.3081 2.07269
255 1 35.1747 17.7696 0
256 1 37.3731 19.0389 0
257 1 35.1747 20.3081 0
525 1 36.6403 17.7696 2.07269
526 1 38.8387 19.0389 2.07269
527 1 36.6403 20.3081 2.07269
198 1 28.5794 21.5774 0
200 1 28.5794 24.1159 0
468 1 30.045 21.5774 2.07269
469 1 27.8466 22.8466 2.07269
470 1 30.045 24.1159 2.07269
471 1 27.8466 25.3851 2.07269
229 1 30.7778 22.8466 0
231 1 30.7778 25.3851 0
228 1 32.9763 21.5774 0
230 1 32.9763 24.1159 0
498 1 34.4419 21.5774 2.07269
499 1 32.2434 22.8466 2.07269
500 1 34.4419 24.1159 2.07269
501 1 32.2434 25.3851 2.07269
258 1 37.3731 21.5774 0
259 1 35.1747 22.8466 0
260 1 37.3731 24.1159 0
261 1 35.1747 25.3851 0
528 1 38.8387 21.5774 2.07269
529 1 36.6403 22.8466 2.07269
530 1 38.8387 24.1159 2.07269
531 1 36.6403 25.3851 2.07269
202 1 28.5794 26.6544 0
204 1 28.5794 29.1929 0
472 1 30.045 26.6544 2.07269
473 1 27.8466 27.9236 2.07269
474 1 30.045 29.1929 2.07269
233 1 30.7778 27.9236 0
232 1 32.9763 26.6544 0
234 1 32.9763 29.1929 0
502 1 34.4419 26.6544 2.07269
503 1 32.2434 27.9236 2.07269
504 1 34.4419 29.1929 2.07269
262 1 37.3731 26.6544 0
263 1 35.1747 27.9236 0
264 1 37.3731 29.1929 0
532 1 38.8387 26.6544 2.07269
533 1 36.6403 27.9236 2.07269
534 1 38.8387 29.1929 2.07269
206 1 28.5794 31.7314 0
475 1 27.8466 30.4622 2.07269
476 1 30.045 31.7314 2.07269
477 1 27.8466 33.0007 2.07269
235 1 30.7778 30.4622 0
237 1 30.7778 33.0007 0
236 1 32.9763 31.7314 0
505 1 32.2434 30.4622 2.07269
506 1 34.4419 31.7314 2.07269
507 1 32.2434 33.0007 2.07269
265 1 35.1747 30.4622 0
266 1 37.3731 31.7314 0
267 1 35.1747 33.0007 0
535 1 36.6403 30.4622 2.07269
536 1 38.8387 31.7314 2.07269
537 1 36.6403 33.0007 2.07269
208 1 28.5794 34.2699 0
210 1 28.5794 36.8084 0
478 1 30.045 34.2699 2.07269
479 1 27.8466 35.5392 2.07269
480 1 30.045 36.8084 2.07269
239 1 30.7778 35.5392 0
238 1 32.9763 34.2699 0
240 1 32.9763 36.8084 0
508 1 34.4419 34.2699 2.07269
509 1 32.2434 35.5392 2.07269
510 1 34.4419 36.8084 2.07269
751 1 33.7924 38.0804 4.17272
268 1 37.3731 34.2699 0
269 1 35.1747 35.5392 0
270 1 37.3731 36.8084 0
538 1 38.8387 34.2699 2.07269
539 1 36.6403 35.5392 2.07269
540 1 38.8387 36.8084 2.07269
723 1 29.3986 2.62068 4.33426
724 1 27.1064 3.97785 4.2392
722 1 27.1149 1.50635 4.15968
992 1 28.4763 1.29317 6.50041
994 1 28.5206 3.97193 6.87647
993 1 26.3953 2.67989 6.37015
721 1 29.2525 38.2226 4.37643
1023 1 30.8006 2.32932 6.54947
1021 1 30.6266 38.0428 6.43338
754 1 31.4988 3.82299 4.35243
752 1 31.5033 1.27521 4.14183
1022 1 32.9211 1.42147 6.41315
1024 1 32.961 3.85035 6.53268
1053 1 35.14 2.54561 6.39034
782 1 35.8185 1.4978 4.33882
783 1 38.1139 2.63612 4.27627
784 1 35.8163 3.87587 4.3652
1052 1 37.3315 1.30828 6.38481
1054 1 37.3072 3.74976 6.42256
781 1 37.9153 38.1188 4.32563
1051 1 35.1828 38.2355 6.22675
1007 1 26.309 20.4104 6.26322
727 1 29.2406 7.72781 4.12595
726 1 27.2022 6.34678 4.41698
725 1 29.4043 5.05419 4.32396
996 1 28.6751 6.28391 6.62388
1027 1 30.7425 7.7506 6.54882
1025 1 30.7621 5.27263 6.64902
755 1 33.8507 5.02471 4.2346
756 1 31.4737 6.28036 4.53155
757 1 33.613 7.51942 4.22455
1026 1 32.9675 6.23936 6.50667
1057 1 35.3471 7.732 6.3728
1055 1 35.1487 5.1357 6.5301
785 1 38.1102 5.24595 4.06455
787 1 38.1433 7.67628 4.17076
786 1 36.0106 6.43939 4.53036
1056 1 37.4987 6.32619 6.19985
730 1 27.1941 11.4557 4.27995
729 1 29.2679 10.3261 4.46129
728 1 27.2547 9.03293 4.0833
998 1 28.536 9.05312 6.56055
1000 1 28.5477 11.3604 6.44621
731 1 29.3227 12.7964 4.13874
2837 1 35.7286 36.8011 21.2444
1029 1 30.806 10.3381 6.3599
760 1 31.5257 11.3771 4.2677
759 1 33.7372 10.1287 4.31409
758 1 31.4208 8.89913 4.23986
1028 1 32.9755 8.77146 6.30716
1030 1 33.1222 11.4273 6.24071
1061 1 35.2786 12.827 6.34544
1059 1 35.0495 10.1406 6.39193
788 1 35.8497 8.80884 4.31265
790 1 35.8215 11.3648 4.23582
789 1 37.9409 10.2284 4.31837
1058 1 37.4275 9.07094 6.3567
1060 1 37.3571 11.5776 6.37909
1031 1 30.7361 12.7314 6.28588
733 1 29.1533 15.3469 4.47226
734 1 27.0768 16.4262 4.10502
732 1 26.9078 13.9711 4.1706
1002 1 28.5029 14.0459 6.65661
1004 1 28.6434 16.4603 6.57736
2864 1 35.8182 34.3673 21.4512
761 1 33.775 12.7773 3.98972
763 1 33.6114 15.0184 4.19839
1033 1 30.7956 15.2966 6.20115
762 1 31.2864 14.1661 4.13477
764 1 31.5155 16.4323 4.27917
1032 1 32.9716 13.8269 6.30658
1034 1 32.8883 16.6262 6.4298
1063 1 35.1218 15.1713 6.12166
791 1 38.2978 12.775 4.28045
793 1 38.0848 15.2072 4.29302
792 1 36.0638 13.7964 4.12652
794 1 35.9003 16.2867 4.07859
1062 1 37.3652 14.0914 6.50907
1064 1 37.2037 16.5288 6.39151
2975 1 37.9036 35.3581 21.7586
737 1 29.2914 20.2732 4.30263
735 1 29.2455 17.8674 4.32358
736 1 27.1277 19.2227 4.18837
1006 1 28.5608 19.1929 6.40796
1841 1 26.308 30.3859 12.876
2924 1 37.9415 -0.227385 21.5654
1037 1 30.7212 20.4875 6.34649
1035 1 30.741 17.8927 6.50274
767 1 33.6964 20.1358 4.24156
765 1 33.4965 17.5616 4.20804
766 1 31.4029 19.0047 4.45216
1036 1 32.8305 18.9305 6.64851
1065 1 35.0273 17.8138 6.40916
1067 1 35.0417 20.2996 6.52319
797 1 38.0132 20.0581 4.26568
796 1 35.9223 18.7325 4.22153
795 1 38.0759 17.5267 4.29292
1066 1 37.2449 18.9289 6.72386
2851 1 31.6219 34.1363 21.3705
740 1 27.0855 24.101 4.62309
738 1 26.9248 21.6547 4.02052
739 1 29.2246 22.6809 4.37222
1008 1 28.4384 21.5781 6.27599
1010 1 28.5167 24.0932 6.7004
2866 1 33.6731 35.671 21.6181
741 1 29.2692 25.5475 4.35837
1039 1 30.6622 22.9604 6.56339
769 1 33.6423 22.5846 4.08575
770 1 31.3384 24.1917 4.22673
768 1 31.444 21.521 4.28349
1038 1 32.8694 21.7219 6.55225
1040 1 32.7761 24.1621 6.40133
771 1 33.4458 25.2007 4.28945
1041 1 30.5313 25.3309 6.61396
1069 1 34.9316 22.8025 6.46274
800 1 35.9213 23.7136 4.26255
799 1 38.0542 22.7485 4.33442
798 1 35.9548 21.2678 4.30459
1068 1 37.5264 21.5352 6.41662
1070 1 37.4148 23.9851 6.44771
801 1 38.1152 25.241 4.45345
744 1 27.1467 29.0655 4.39497
743 1 29.3384 27.9581 4.12019
742 1 27.1688 26.6911 4.32262
1012 1 28.5072 26.6052 6.40811
1014 1 28.4881 29.0067 6.29923
1043 1 30.812 27.8627 6.59316
811 1 39.401 38.0547 6.57271
1071 1 35.1818 25.3901 6.28038
773 1 33.6574 27.6875 4.14575
774 1 31.6167 29.1315 4.25416
772 1 31.473 26.6381 4.50562
1042 1 32.8898 26.6041 6.34058
1044 1 33.0139 28.959 6.35739
803 1 38.0802 27.9726 4.41968
1073 1 35.217 27.8125 6.41963
802 1 35.8138 26.4899 4.38049
804 1 35.8821 28.9301 4.09962
1072 1 37.5848 26.6266 6.59718
1074 1 37.3766 29.1462 6.38956
2877 1 31.4682 36.865 21.3402
746 1 26.958 31.5577 4.35854
747 1 29.3965 32.84 4.13717
745 1 29.3661 30.5153 4.12336
1016 1 28.4288 31.7923 6.17976
1047 1 30.7882 32.9116 6.32422
1045 1 30.6301 30.5495 6.46792
1005 1 26.5028 17.8286 6.64097
777 1 33.7865 32.9919 4.22589
775 1 33.733 30.2062 4.14009
776 1 31.6335 31.7376 4.36449
1046 1 32.9778 31.3672 6.12221
1077 1 35.1476 32.9324 6.41214
1075 1 35.1245 30.3347 6.21108
805 1 37.9902 30.7104 4.28105
806 1 35.835 31.4963 4.31423
807 1 37.9621 33.0876 4.205
1076 1 37.3519 31.7525 6.45921
750 1 27.1721 36.9206 4.23877
748 1 27.2653 34.2944 4.14259
749 1 29.3276 35.6271 4.36334
1018 1 28.4275 34.286 6.30434
1020 1 28.3804 36.7904 6.5063
825 1 39.6756 17.5748 6.52122
813 1 39.4678 2.61007 6.48169
1049 1 30.5205 35.5994 6.39111
779 1 33.603 35.5248 4.146
780 1 31.5222 36.9029 4.32674
778 1 31.5151 34.2933 3.97028
1048 1 33.1362 34.4666 6.19362
1050 1 33.034 36.9765 6.42483
810 1 35.81 36.7153 4.29118
1079 1 35.2599 35.6265 6.42136
809 1 37.8974 35.5898 4.55132
808 1 35.6955 34.1662 4.11523
1078 1 37.4179 34.3188 6.56924
1080 1 37.4327 36.7337 6.52273
1262 1 30.0956 1.07014 8.45182
1263 1 27.8456 2.46835 8.63575
1533 1 29.4879 2.42777 10.8886
1532 1 27.2794 1.18971 10.8264
1264 1 29.9492 3.77843 9.03286
1534 1 27.306 3.67798 10.6721
1261 1 27.8575 38.1492 8.44757
1294 1 34.5217 3.84667 8.74078
1293 1 32.1353 2.68833 8.57842
1292 1 34.3793 1.44391 8.71273
1562 1 31.5198 1.04562 10.8082
1563 1 33.7181 2.46423 10.8857
1564 1 31.4379 3.91298 10.9673
1291 1 32.3042 0.199615 8.39676
1561 1 33.7164 -0.107752 10.6883
1323 1 36.6664 2.46991 8.75141
1322 1 38.6902 1.37128 8.62881
1592 1 35.9313 1.22585 10.6505
1593 1 38.1826 2.43492 10.786
1594 1 35.9229 3.79588 10.9375
1324 1 38.8332 3.86683 8.56871
1321 1 36.5981 -0.0347853 8.69445
1266 1 30.1319 6.4153 8.96313
1265 1 27.8135 5.27078 8.73273
1267 1 27.9476 7.77568 8.62507
1536 1 26.9622 6.18782 10.8501
1537 1 29.2948 7.4516 10.9884
1535 1 29.1166 5.00289 11.0224
1295 1 32.2169 5.23868 8.76286
1296 1 34.4697 6.43273 8.62784
1297 1 32.1785 7.75466 8.43219
1565 1 33.6064 4.94771 10.8266
1566 1 31.4731 6.42459 11.0577
1567 1 33.7481 7.41644 10.7793
1325 1 36.7608 5.30324 8.3847
1327 1 36.6709 7.78213 8.49369
1326 1 38.9705 6.29059 8.86821
1595 1 38.0746 5.0908 10.8455
1596 1 35.8487 6.51872 10.6162
1597 1 37.9498 7.69651 10.6603
1269 1 28.0505 10.2977 8.61899
1268 1 29.9994 8.87635 8.87463
1270 1 30.1953 11.4068 8.49381
1538 1 27.0294 8.97504 10.8044
1540 1 27.2323 11.4807 10.9939
1539 1 29.2943 10.0419 10.7718
1541 1 29.4406 12.6473 10.6045
1300 1 34.5036 11.4259 8.59186
1298 1 34.3872 8.73098 8.53433
1299 1 32.2711 10.2949 8.55832
1569 1 33.7945 10.2309 10.7198
1570 1 31.5568 11.3429 10.8878
1719 1 31.5781 8.97534 10.8388
1301 1 32.1569 12.6642 8.43401
1328 1 38.8743 8.88004 8.63208
1598 1 35.7707 9.04529 10.9191
1329 1 36.7194 10.2704 8.76252
1330 1 38.7853 11.5254 8.72277
1599 1 38.1785 10.3014 10.6081
1600 1 35.9531 11.7071 10.8416
1601 1 38.1204 12.6694 10.8419
1271 1 28.0907 12.6027 8.58586
1274 1 30.0355 16.596 8.65636
1273 1 27.8141 15.3253 8.75297
1272 1 30.0635 14.1585 8.7317
1542 1 27.2906 13.9887 10.991
1543 1 29.1803 15.3406 10.7899
1544 1 27.1082 16.4718 10.7311
1571 1 33.6785 12.7879 10.8406
1303 1 32.1645 15.1014 8.24839
1302 1 34.4828 14.0689 8.43929
1572 1 31.5522 14.0316 10.8967
1576 1 33.7523 15.3306 10.7898
1574 1 31.6219 16.4604 10.7206
1304 1 34.309 16.457 8.72065
1331 1 36.6975 12.7495 8.70191
1334 1 38.782 16.5458 8.53745
1333 1 36.6119 15.2904 8.54925
1332 1 38.9083 13.8924 8.76121
1602 1 35.845 14.1775 10.8309
1603 1 37.9947 15.114 10.9116
1604 1 35.9461 16.674 10.9267
1276 1 30.0988 19.1442 8.63857
1277 1 27.8517 20.3735 8.51457
1275 1 27.9901 17.9292 8.49064
1545 1 29.4929 17.8615 10.83
1546 1 27.1476 18.8952 10.6932
1547 1 29.1505 20.3008 10.8833
1306 1 34.3754 19.0726 8.87629
1305 1 32.2696 17.8255 8.70429
1307 1 32.1735 20.3125 8.64128
1578 1 33.7805 20.4153 10.7025
1606 1 33.7894 17.7907 10.7846
1724 1 31.6291 19.0861 10.8168
1336 1 38.8137 19.0661 8.72833
1337 1 36.5854 20.5333 8.74207
1335 1 36.5101 17.9738 8.65815
1605 1 38.1806 17.7285 10.7675
1607 1 38.2936 20.331 10.8712
1892 1 35.974 19.0618 10.8968
1278 1 29.9652 21.7332 8.79931
1279 1 27.808 22.7374 8.8213
1548 1 26.907 21.3485 10.9377
1280 1 29.8066 24.1348 8.70065
1550 1 27.148 24.1233 10.9083
1951 1 29.1136 22.7146 10.924
1551 1 29.394 25.3424 10.8729
1281 1 27.7319 25.2886 8.89872
1309 1 31.9893 22.8519 8.59095
1310 1 34.4214 24.1198 8.53202
1308 1 34.273 21.7442 8.71733
1579 1 31.5619 21.5861 10.7272
1580 1 31.3701 24.09 10.9197
1858 1 33.6786 22.9985 10.8153
1311 1 32.1539 25.5065 8.56699
1338 1 38.9393 21.5278 8.4085
1339 1 36.5662 22.9155 8.61764
1340 1 38.9739 24.152 8.52828
1608 1 36.1347 21.5754 10.8949
1610 1 35.9361 23.9531 10.7757
1758 1 38.111 22.8257 10.75
1611 1 38.1139 25.2534 10.6597
1341 1 36.7441 25.405 8.62113
1282 1 29.8792 26.401 8.6195
1283 1 27.7154 27.8954 8.51385
1552 1 26.9891 26.5024 10.9971
1553 1 29.2844 27.8654 10.7507
1697 1 27.0582 29.0547 10.6566
1284 1 29.9663 29.3225 8.5306
1581 1 33.7013 25.3769 10.506
1314 1 34.4376 29.1241 8.44408
1312 1 34.4839 26.5352 8.42037
1313 1 32.2097 28.0074 8.56899
1582 1 31.4887 26.6552 10.7385
1583 1 33.8249 27.8879 10.8294
1584 1 31.6243 29.168 10.6506
1342 1 38.8115 26.6786 8.82229
1612 1 36.1263 26.4727 10.8915
1343 1 36.7297 27.9586 8.60099
1613 1 38.1234 27.9274 10.8239
1344 1 38.8348 29.2227 8.60981
1614 1 35.8471 29.2002 10.7402
1285 1 27.8119 30.5055 8.62828
1287 1 27.8334 33.0173 8.55782
1286 1 29.9645 31.7992 8.56838
1555 1 29.4406 30.4281 10.628
1556 1 27.1313 31.9149 10.6087
1557 1 29.3064 32.9288 10.7507
1317 1 32.131 32.991 8.34673
1316 1 34.4742 31.7582 8.43173
1315 1 32.4678 30.4147 8.53079
1585 1 33.7599 30.525 10.666
1586 1 31.6858 31.7582 10.6695
1587 1 33.8298 33.1498 10.5723
1347 1 36.7339 33.1433 8.49129
1346 1 38.7439 31.66 8.70282
1345 1 36.6079 30.4537 8.432
1615 1 38.1709 30.3035 10.8191
1616 1 36.0877 31.8092 10.7816
1617 1 38.1545 33.0523 10.8179
1531 1 29.3249 -0.11193 10.5636
1288 1 29.8964 34.3463 8.44749
1289 1 27.6161 35.3835 8.58513
1290 1 30.0057 36.7267 8.49989
1558 1 26.8535 34.2574 10.6294
1559 1 29.2111 35.3764 10.4106
1677 1 27.0727 36.6957 10.8301
1318 1 34.5887 34.2205 8.53007
1319 1 32.3403 35.4142 8.34892
1588 1 31.5012 34.0767 10.459
1590 1 31.3925 36.6206 10.6261
1589 1 33.6592 35.4668 10.5681
1320 1 34.4306 36.6631 8.58182
1591 1 38.0761 38.069 10.9112
1349 1 36.582 35.4907 8.80347
1348 1 38.9568 34.2839 8.67274
1618 1 36.0353 34.1578 10.7987
1620 1 35.7887 36.6692 10.73
1619 1 38.1639 35.6415 10.7819
1350 1 38.8729 36.896 8.74218
2039 1 27.7938 2.35563 15.1768
1683 1 28.6089 1.16801 13.028
2003 1 30.1263 1.12677 15.1024
2077 1 30.1203 3.93872 15.3218
1674 1 28.7852 3.82238 12.8774
2033 1 27.9283 -0.157495 15.1516
1864 1 26.5147 22.8173 13.3463
997 1 26.5187 7.7188 6.3272
1623 1 30.9667 2.50008 13.2153
1671 1 32.9803 1.14233 12.8907
2075 1 32.2826 2.59253 15.1692
2015 1 34.7108 1.25656 14.8165
2095 1 34.7582 3.80049 15.1568
1652 1 33.0411 3.63895 12.9953
1680 1 35.0843 -0.236914 12.9979
1656 1 35.2512 2.54502 12.9284
1641 1 37.3272 1.37174 12.9181
2464 1 38.8652 1.06283 15.0357
2088 1 38.7413 3.89406 15.4283
2523 1 36.827 2.41023 15.1321
1633 1 37.3504 3.64099 12.8848
2432 1 36.6424 -0.249691 15.0092
2791 1 29.348 -0.176839 21.2437
2070 1 28.0126 4.85655 15.3648
1739 1 30.1688 6.43602 15.1388
1741 1 28.6789 6.34802 13.1768
2102 1 27.8991 7.58958 15.2994
1626 1 30.9245 5.29816 12.9837
1689 1 30.8058 7.79461 13.0691
2046 1 32.3291 5.06837 15.1755
1624 1 32.9069 6.36069 13.011
1628 1 32.3047 7.76334 15.5856
2073 1 34.2523 6.44436 14.8613
1621 1 35.2308 7.61753 12.7518
2078 1 35.0906 5.09114 12.7744
2157 1 36.4655 7.49915 15.0485
1701 1 37.3927 6.47408 12.9019
2264 1 38.9366 6.35297 15.147
2408 1 36.7874 5.11147 15.0269
2081 1 30.0983 8.91622 15.3438
1737 1 28.5927 8.81473 12.9352
1765 1 27.8357 9.87822 15.1317
2089 1 28.5574 11.4078 13.0436
2106 1 30.0453 11.5253 15.2823
2026 1 27.7292 12.7293 15.3487
1568 1 30.6324 10.2616 13.1236
1869 1 32.8705 9.06111 12.7797
2113 1 34.3494 8.86338 14.8622
1809 1 32.9313 11.5574 13.125
2128 1 32.1636 10.1731 15.617
2162 1 34.4209 11.2901 15.4397
1814 1 35.1405 10.2493 12.963
2119 1 37.3145 9.01826 12.8713
2138 1 37.4396 11.4688 13.1331
1838 1 36.6686 10.0451 15.07
1806 1 38.8864 8.78771 14.9466
2286 1 38.8605 11.4728 15.306
817 1 39.5638 7.5994 6.64676
2731 1 33.6061 30.485 21.578
1859 1 28.5573 13.9744 13.0455
1789 1 28.6623 16.547 12.7653
2116 1 29.9491 13.9833 15.1703
2012 1 27.8642 15.3073 15.0851
2306 1 30.0036 16.5264 15.075
1807 1 26.6789 5.0504 12.9557
2834 1 29.4632 35.5103 21.3128
2109 1 32.4118 12.6438 15.2652
1786 1 30.7274 12.725 13.1422
1849 1 30.6572 15.1868 12.9648
1796 1 32.8733 13.9591 12.977
1573 1 32.9857 16.6063 12.9346
2059 1 32.1383 15.1337 15.3606
1848 1 34.4786 13.8105 15.3799
2062 1 34.3319 16.2545 15.2734
2056 1 35.2536 15.3699 13.3279
1846 1 35.1876 12.6686 13.1007
2313 1 36.6812 12.4664 15.3288
1797 1 36.6957 15.0415 15.3629
2100 1 37.3841 13.8741 13.162
2392 1 38.7272 13.8645 15.2943
2121 1 38.7011 16.6245 15.2219
1704 1 37.4354 16.5113 12.966
2760 1 27.3173 34.3628 21.9518
1975 1 27.8398 17.7201 15.0684
1977 1 27.734 20.2193 15.2802
1947 1 28.5324 19.0973 12.9408
2104 1 30.4036 19.1206 15.1135
2773 1 27.0204 36.8824 21.5067
1957 1 30.6159 17.7633 12.9409
1851 1 30.7209 20.3301 12.9102
2117 1 32.7868 18.9865 12.8591
1575 1 32.3252 20.3598 14.9338
1886 1 34.3744 19.0324 15.2027
2052 1 32.3179 17.5214 15.0109
1681 1 35.2322 20.3877 12.9651
2045 1 35.2326 17.6778 13.2358
2022 1 38.7895 19.0581 15.2679
1934 1 37.293 19.0066 13.1296
1945 1 36.4451 20.3327 15.1865
2258 1 36.5737 17.7601 15.3304
2857 1 35.7348 31.5439 21.6602
1720 1 28.5161 21.4094 13.2273
1910 1 30.0151 21.5232 15.2949
2112 1 30.1854 24.1315 15.2023
1735 1 28.6347 24.0589 12.9635
2044 1 28.0133 22.8085 15.1722
1549 1 30.883 22.7629 13.1018
2069 1 27.9289 25.4359 14.9927
1713 1 30.772 25.4279 12.9109
1577 1 34.421 21.4963 15.1045
2011 1 33.1017 21.4464 12.9256
1998 1 32.4098 22.9182 15.1969
2107 1 33.0453 24.1659 12.8827
1942 1 34.5968 24.2448 15.071
1857 1 35.2956 22.8623 12.8935
2074 1 32.3864 25.377 15.1047
1609 1 35.179 25.1688 12.8181
1850 1 37.6014 21.5879 13.0327
1986 1 38.8213 21.3554 15.2835
2017 1 36.6602 22.6292 15.1639
1840 1 39.0036 24.018 15.1911
1875 1 37.3471 24.0529 13.02
1972 1 36.8614 25.1187 15.1081
1554 1 27.9448 27.9233 15.2524
2055 1 30.1127 26.6497 15.1631
1862 1 28.6875 26.8757 12.8695
1798 1 28.7981 29.1637 12.6557
1997 1 30.0332 29.2138 15.0668
1827 1 31.0487 27.9035 12.9272
2038 1 32.3793 27.9161 14.8987
1963 1 34.5656 26.7112 14.9344
1940 1 33.1959 26.473 12.6014
1919 1 33.1523 29.3908 12.8415
1928 1 34.514 29.1249 14.9671
1843 1 35.1528 27.8304 12.9343
1888 1 36.8045 27.8721 14.9821
1374 1 37.2901 26.6284 12.9418
1837 1 38.973 26.6509 15.0171
1844 1 37.4926 28.9841 12.8122
1870 1 38.8717 29.0496 15.2055
2606 1 38.0048 32.8804 21.5075
1999 1 27.9008 33.0311 14.9681
1944 1 30.2336 31.7945 15.0041
1950 1 28.0267 30.6043 15.2549
1722 1 28.4377 31.729 12.7667
1845 1 30.9385 30.6711 12.972
1833 1 30.7919 33.1062 12.9626
1948 1 32.397 33.0247 15.036
1810 1 33.068 31.817 12.8968
2028 1 32.3385 30.4784 15.0875
2331 1 34.6377 31.6394 15.1805
1829 1 35.2454 32.8911 12.9082
1867 1 35.3948 30.5109 12.7637
1905 1 36.7834 32.9308 14.9606
1863 1 39.0534 31.5507 15.0721
1752 1 37.4614 31.6183 12.9771
2244 1 36.786 30.3176 15.1658
1962 1 30.1893 34.3093 14.9933
1907 1 27.927 35.4869 15.1067
1979 1 30.1712 36.7521 14.8201
1808 1 28.6069 34.0323 12.9419
1675 1 28.4958 36.8474 12.9871
1983 1 30.5592 35.4249 12.8557
2859 1 33.678 33.0089 21.4166
1643 1 30.7715 38.0323 12.7941
1764 1 32.2377 0.168473 14.7773
1941 1 34.5834 34.018 14.9518
1820 1 32.9784 34.2845 12.8271
1992 1 34.5436 36.7959 15.0644
2018 1 32.273 35.449 14.7533
1687 1 33.0185 36.5413 12.7794
1750 1 35.2408 35.3943 12.7438
2091 1 38.752 36.5558 15.1457
1980 1 36.5923 35.3612 15.0843
1989 1 38.9092 34.142 15.0857
1782 1 37.4003 34.0957 12.8902
1684 1 37.2321 36.695 12.8718
2843 1 37.991 30.2625 21.4763
2330 1 29.1398 2.76473 17.2753
2199 1 27.0492 1.10021 17.2849
2319 1 27.1391 3.79914 17.2333
2594 1 29.8643 1.32472 19.4976
2563 1 27.7704 2.42795 19.3037
2698 1 29.872 3.77154 19.3684
2565 1 27.7105 -0.308133 19.1586
2337 1 29.2192 -0.0885959 17.0976
2630 1 31.5847 3.67595 17.5395
2372 1 31.5296 1.26219 17.1177
2181 1 33.8337 2.65618 17.2645
2644 1 32.314 2.34373 19.4591
2648 1 34.3198 1.29728 19.2734
2598 1 34.5574 3.74489 19.2676
2657 1 32.0471 0.0158352 19.2214
2515 1 35.9382 1.12705 17.2563
2506 1 38.1058 2.35698 17.1901
2619 1 36.084 3.87381 17.0634
2677 1 36.799 2.5552 19.1835
2613 1 38.7859 1.07019 19.3809
2646 1 38.6727 3.79929 19.3925
2591 1 36.5929 38.0131 19.2638
2178 1 27.129 6.41275 17.2654
2179 1 29.501 5.19671 17.399
2240 1 29.3081 7.65242 17.457
2552 1 30.0678 6.45845 19.4686
2632 1 27.9042 7.64374 19.6707
2588 1 32.3327 4.83833 19.6357
2381 1 33.8695 5.01052 17.2712
2234 1 31.5833 6.30154 17.5587
2367 1 33.9207 7.58722 17.3983
2709 1 34.5111 6.39325 19.6453
2706 1 32.476 7.67352 19.4901
2374 1 35.8188 6.21286 17.215
2400 1 38.12 5.23913 17.3826
2463 1 37.9927 7.6443 17.1148
2812 1 36.5634 7.48776 19.0503
2738 1 36.6222 5.01364 19.4408
2669 1 38.804 6.3182 19.6555
2229 1 27.1937 8.70756 17.496
2180 1 29.402 10.1279 17.5004
2248 1 27.2816 11.3752 17.5373
2674 1 27.8913 9.90491 19.4664
2928 1 29.8935 11.3108 19.7231
2576 1 30.1599 8.70626 19.495
2261 1 29.3819 12.723 17.4097
2440 1 33.9522 10.0342 17.5558
2293 1 31.733 8.80997 17.5527
2343 1 31.5456 11.4338 17.4328
2735 1 32.1759 10.3257 19.5742
2947 1 34.445 8.8328 19.6176
2987 1 34.3286 11.3807 19.8668
2457 1 33.8545 12.6087 17.7318
2421 1 35.9159 8.8613 16.9862
2585 1 38.1717 10.2696 17.3716
2189 1 35.9938 11.4436 17.3691
2803 1 36.4199 10.1405 19.3105
2842 1 38.7027 8.66984 19.3031
2487 1 38.1261 12.9192 17.4063
2884 1 36.4115 12.5056 19.4239
2641 1 38.6135 11.1229 19.4968
2659 1 27.8554 12.4766 19.7685
2359 1 29.1452 15.3052 17.1926
2236 1 27.2354 13.8696 17.4892
2460 1 29.8415 16.5494 19.2188
2600 1 27.7452 15.1435 19.6936
2242 1 27.1895 16.5169 17.3828
2607 1 29.9359 13.7958 19.6721
2560 1 32.1675 12.6309 19.4885
2125 1 33.6932 15.0479 17.4672
2396 1 31.5687 14.116 17.4315
2182 1 31.5414 16.5641 17.2626
2661 1 34.4669 16.4629 19.5515
2839 1 32.1888 15.3503 19.5388
2685 1 34.4497 13.9642 19.8514
2534 1 35.9345 13.9415 17.604
2736 1 38.8875 16.5255 19.7716
1889 1 38.1681 15.2015 17.4104
2163 1 35.8618 16.5498 17.5042
2692 1 38.9397 13.6283 19.7826
2722 1 36.7843 15.1335 19.5487
2621 1 27.7585 17.7254 19.5363
2141 1 29.3579 20.3015 17.4189
2175 1 27.2105 19.0228 17.3331
2155 1 29.2858 17.9451 17.0716
2592 1 30.0298 19.0685 19.533
2450 1 27.8867 20.3877 19.61
2616 1 32.3491 20.4779 19.5717
2452 1 33.7901 17.7402 17.1835
2278 1 31.5779 19.0429 17.4278
2130 1 33.9391 20.3313 17.3369
2744 1 34.6095 19.0208 19.3149
2618 1 32.3697 17.9395 19.4021
2652 1 35.8476 19.0988 17.2662
2665 1 36.708 20.1561 19.3525
2705 1 38.9121 18.9118 19.5145
2455 1 38.0514 17.5426 17.4249
2235 1 38.0298 20.1187 17.3477
2507 1 36.4958 17.5986 19.6086
2165 1 27.105 21.8036 17.3156
2578 1 30.1489 21.5731 19.416
2473 1 27.9089 22.7981 19.6586
2505 1 29.9686 23.9482 19.7848
2142 1 27.1555 24.2045 17.3758
2132 1 29.4136 22.9048 17.6027
2495 1 27.8102 25.3121 19.5012
2547 1 34.4834 21.4598 19.4108
2635 1 32.2973 22.9674 19.5079
2164 1 31.6394 21.6002 17.2944
2140 1 31.6773 24.0459 17.4703
2145 1 33.8484 22.92 17.3795
2584 1 34.5344 23.9559 19.6412
2623 1 32.1533 25.3184 19.4067
2696 1 39.045 21.2945 19.5902
2245 1 35.9972 21.569 17.3341
2672 1 38.9577 24.0431 19.3248
2156 1 36.0322 24.0795 17.7045
2208 1 38.2538 22.8809 17.4098
2634 1 36.7658 22.8 19.4997
2283 1 38.0695 25.3114 17.2177
2671 1 36.7548 25.285 19.5676
2192 1 29.5102 25.3763 17.4702
2491 1 27.6435 27.731 19.3368
2137 1 29.1989 27.8926 17.3606
2448 1 27.1228 26.567 17.1726
2477 1 29.9593 26.6318 19.5934
2185 1 26.8398 29.2111 17.1618
2545 1 29.9947 29.1984 19.2876
2176 1 33.7415 25.3735 17.4014
2625 1 32.2211 27.8857 19.3265
2287 1 34.4334 26.6636 19.3952
2152 1 31.5688 26.7239 17.0692
1911 1 33.7486 27.7742 17.1434
2272 1 31.4388 29.1787 17.2769
2490 1 34.4053 29.2476 19.3815
2603 1 35.9737 26.7857 17.1354
2590 1 36.5982 27.6282 19.4264
2611 1 38.8992 26.6727 19.5002
2489 1 35.9102 29.2663 17.4079
2378 1 37.937 28.0081 17.3014
2604 1 38.86 29.1795 19.3527
2525 1 27.7263 33.074 19.5676
2262 1 29.931 31.7173 19.3639
2296 1 26.9964 31.6972 17.3546
2204 1 29.0903 30.3465 17.2881
2485 1 27.9136 30.2806 19.3307
2135 1 29.2367 32.8402 17.1812
2605 1 34.4829 31.565 19.3908
2569 1 32.1839 33.0719 19.1704
2581 1 32.1487 30.6479 19.3513
2564 1 33.6902 30.4662 17.2408
2520 1 31.3587 31.8222 17.2219
1921 1 33.8191 33.0033 17.5483
2521 1 36.7356 30.2744 19.3753
2570 1 36.5486 32.8779 19.5058
2568 1 38.9598 31.5871 19.4188
1943 1 35.9562 31.7021 17.2414
2483 1 38.098 32.7587 17.3544
2420 1 38.1207 30.4208 17.3107
2347 1 26.9852 34.0737 16.9499
2562 1 30.0695 36.578 19.1798
2774 1 29.8263 34.1905 19.3283
2519 1 27.6693 35.4531 19.3443
2390 1 26.9404 36.4481 17.1091
2346 1 29.14 35.2585 17.2606
2647 1 33.5675 -0.0462535 17.0235
2601 1 34.4123 36.666 19.1827
2539 1 32.0679 35.6786 19.1907
2418 1 31.4606 34.2953 17.2063
2435 1 31.5816 36.9389 16.9042
2572 1 33.6976 35.5564 17.0402
2614 1 34.4402 34.2376 19.3491
2058 1 38.2448 37.9165 17.2636
1949 1 35.8566 34.1102 17.211
2629 1 38.8371 34.1235 19.4519
2014 1 36.6587 35.3908 19.2448
2362 1 35.8905 36.838 17.2311
2551 1 38.9166 36.5779 19.7738
2397 1 37.9982 35.2221 17.2891
2878 1 27.454 1.07507 21.384
2861 1 29.2626 2.47294 21.5335
2898 1 27.2447 3.71905 21.2881
2872 1 33.7084 -0.0620076 21.2175
2925 1 33.7156 2.71484 21.5764
2848 1 31.4576 1.23679 21.4352
2542 1 31.394 3.83136 21.3794
2994 1 37.8776 2.38112 21.5341
2896 1 35.9096 3.7637 21.3343
2888 1 35.598 1.15048 21.5408
2577 1 27.2698 6.34775 21.6404
2608 1 29.4843 4.92972 21.3779
2970 1 29.2542 7.48415 21.7236
2862 1 33.7692 4.97773 21.6583
2919 1 31.6846 6.18236 21.687
2799 1 33.9826 7.7038 21.7428
2988 1 38.0722 7.5207 21.6969
2974 1 36.0028 6.31863 21.8744
2982 1 38.0266 5.19426 21.7901
2587 1 27.2106 8.82925 21.6932
2956 1 29.3101 10.0535 21.5739
2918 1 27.2592 11.1653 21.8448
2916 1 29.2823 12.5908 21.9523
2530 1 33.7387 10.0389 21.852
2945 1 31.6262 8.91126 21.4487
2678 1 31.5138 11.5506 21.673
2813 1 29.5835 15.1864 21.831
2901 1 27.1592 14.048 21.8208
2828 1 27.1279 16.5871 21.7646
2833 1 31.7169 14.1104 21.474
2810 1 31.4044 16.5911 21.2587
2855 1 33.7657 15.4784 21.7475
2890 1 38.0461 15.4251 21.8924
2808 1 35.895 16.177 21.8344
2748 1 29.3186 17.7962 21.6599
2796 1 27.1409 19.074 21.6934
2721 1 29.3689 20.3624 21.6685
2821 1 33.7646 17.8949 21.6027
2754 1 31.5413 19.0579 21.6678
2720 1 33.7532 20.3829 21.6023
2823 1 37.8261 17.8353 21.7286
2766 1 35.8826 18.8575 21.5637
2772 1 38.3794 20.4802 21.7622
2656 1 26.7867 21.4353 21.6109
2996 1 27.5634 22.5076 23.7075
2972 1 30.0009 23.8884 23.6195
2684 1 27.1206 23.926 21.5396
2689 1 29.1691 22.6734 21.8192
2960 1 27.6516 25.2802 23.5075
2681 1 29.3185 25.3982 21.6672
2718 1 31.6332 21.5887 21.8347
2693 1 33.7338 22.8918 21.8345
2691 1 31.4622 24.0212 21.7517
2697 1 33.6487 25.5127 21.7124
2710 1 35.8299 21.5453 21.506
2702 1 35.9055 23.8943 21.6671
2784 1 38.1832 22.8192 21.7763
2984 1 28.0065 27.9991 23.5461
2699 1 29.2368 28.0735 21.4681
2703 1 26.8872 29.3327 21.3824
2954 1 29.9383 26.4706 23.6189
2667 1 27.148 26.7988 21.5451
2711 1 31.5013 26.743 21.7631
2762 1 31.4288 29.0876 21.4578
2764 1 33.631 28.0036 21.5814
2737 1 38.1557 25.2763 21.5333
2739 1 35.9076 26.6385 21.5834
2753 1 37.9778 27.8348 21.4381
2752 1 35.9706 29.1678 21.5364
2931 1 28.0611 30.2465 23.2298
2708 1 29.306 30.3913 21.2049
2724 1 27.2011 31.7736 21.6987
2983 1 28.2197 32.6901 23.8053
2770 1 29.4213 32.9907 21.6264
2782 1 31.359 31.5891 21.4212
1710 1 39.6396 35.2327 13.0087
827 1 39.5692 20.1626 6.34329
1824 1 39.5644 17.9081 12.98
837 1 39.4186 33.034 6.44704
1653 1 39.7202 15.2594 12.9461
819 1 39.4597 10.2899 6.40974
1734 1 39.3874 10.1839 12.8897
835 1 39.4085 30.6662 6.49694
1669 1 39.397 -0.15373 12.9176
1645 1 39.6934 2.4007 12.9526
2251 1 39.4065 4.92964 12.875
1754 1 39.6287 32.9241 13.1163
823 1 39.5582 15.0715 6.64737
829 1 39.625 22.7275 6.40352
2294 1 39.4493 7.55606 12.7715
1804 1 39.6071 28.0245 13.0594
1781 1 26.3138 14.9904 13.2476
1733 1 26.5165 7.46352 12.8669
1938 1 26.3116 27.9344 13.1633
1792 1 26.5791 17.5019 13.0281
1015 1 26.4401 30.5489 6.35536
1013 1 26.1399 27.8859 6.58346
995 1 26.2491 5.31357 6.4982
2071 1 26.2922 10.1237 13.0088
3000 1 29.7961754406638 25.763187508020295 38
