selection
MTP loaded from curr.mtp
	batch_size = 9999
	swap_limit = 0
	weight_scaling = 2
	energy_weight = 1.000000
	force_weight = 0.000000
	init_value = 0.000001
	site_en_weight = 0.000000
	stress_weight = 0.000000
	threshold = 1.001000
Selection: loading state from "curr.mtp"
Selection: loaded the following weights:
	energy_weight = 0.000000
	force_weight = 0.000000
	stress_weight = 0.000000
	site_en_weight = 1.000000

Selection: loading state complete.
Training set loaded from train.cfg
18 configurations selected from training set
Loading and selection of candidates completed
Training set was increased by 1 configurations
write script
