# LAMMPS data file written by OVITO Basic 3.7.11
1620 atoms
1 atom types
0.0 39.57150679 xlo xhi
0.0 38.07770017 ylo yhi
0.0 40.4361248 zlo zhi

Masses

1 63.550  # Cu

Atoms  

1 1 0.0 0.0 0.0
2 1 2.1984170441479023 1.2692566722298528 0
3 1 0.0 2.5385133444597057 0.0
4 1 2.1984170441479023 3.8077700166895587 0
5 1 0.0 5.077026688919411 0.0
6 1 2.1984170441479023 6.346283361149264 0
7 1 0.0 7.6155400333791174 0.0
8 1 2.1984170441479023 8.88479670560897 0
9 1 0.0 10.154053377838823 0.0
10 1 2.1984170441479023 11.423310050068675 0
11 1 0.0 12.692566722298528 0.0
12 1 2.1984170441479023 13.96182339452838 0
13 1 0.0 15.231080066758235 0.0
14 1 2.1984170441479023 16.50033673898809 0
15 1 0.0 17.76959341121794 0.0
16 1 2.1984170441479023 19.038850083447795 0
17 1 0.0 20.308106755677645 0.0
18 1 2.1984170441479023 21.5773634279075 0
19 1 0.0 22.84662010013735 0.0
20 1 2.1984170441479023 24.115876772367205 0
21 1 0.0 25.385133444597056 0.0
22 1 2.1984170441479023 26.65439011682691 0
23 1 0.0 27.92364678905676 0.0
24 1 2.1984170441479023 29.192903461286615 0
25 1 0.0 30.46216013351647 0.0
26 1 2.1984170441479023 31.731416805746324 0
27 1 0.0 33.00067347797617 0.0
28 1 2.1984170441479023 34.26993015020602 0
29 1 0.0 35.53918682243588 0.0
30 1 2.1984170441479023 36.80844349466573 0
31 1 4.396834088295805 0.0 0.0
32 1 6.595251132443707 1.2692566722298528 0
33 1 4.396834088295805 2.5385133444597057 0.0
34 1 6.595251132443707 3.8077700166895587 0
35 1 4.396834088295805 5.077026688919411 0.0
36 1 6.595251132443707 6.346283361149264 0
37 1 4.396834088295805 7.6155400333791174 0.0
38 1 6.595251132443707 8.88479670560897 0
39 1 4.396834088295805 10.154053377838823 0.0
40 1 6.595251132443707 11.423310050068675 0
41 1 4.396834088295805 12.692566722298528 0.0
42 1 6.595251132443707 13.96182339452838 0
43 1 4.396834088295805 15.231080066758235 0.0
44 1 6.595251132443707 16.50033673898809 0
45 1 4.396834088295805 17.76959341121794 0.0
46 1 6.595251132443707 19.038850083447795 0
47 1 4.396834088295805 20.308106755677645 0.0
48 1 6.595251132443707 21.5773634279075 0
49 1 4.396834088295805 22.84662010013735 0.0
50 1 6.595251132443707 24.115876772367205 0
51 1 4.396834088295805 25.385133444597056 0.0
52 1 6.595251132443707 26.65439011682691 0
53 1 4.396834088295805 27.92364678905676 0.0
54 1 6.595251132443707 29.192903461286615 0
55 1 4.396834088295805 30.46216013351647 0.0
56 1 6.595251132443707 31.731416805746324 0
57 1 4.396834088295805 33.00067347797617 0.0
58 1 6.595251132443707 34.26993015020602 0
59 1 4.396834088295805 35.53918682243588 0.0
60 1 6.595251132443707 36.80844349466573 0
61 1 8.79366817659161 0.0 0.0
62 1 10.992085220739511 1.2692566722298528 0
63 1 8.79366817659161 2.5385133444597057 0.0
64 1 10.992085220739511 3.8077700166895587 0
65 1 8.79366817659161 5.077026688919411 0.0
66 1 10.992085220739511 6.346283361149264 0
67 1 8.79366817659161 7.6155400333791174 0.0
68 1 10.992085220739511 8.88479670560897 0
69 1 8.79366817659161 10.154053377838823 0.0
70 1 10.992085220739511 11.423310050068675 0
71 1 8.79366817659161 12.692566722298528 0.0
72 1 10.992085220739511 13.96182339452838 0
73 1 8.79366817659161 15.231080066758235 0.0
74 1 10.992085220739511 16.50033673898809 0
75 1 8.79366817659161 17.76959341121794 0.0
76 1 10.992085220739511 19.038850083447795 0
77 1 8.79366817659161 20.308106755677645 0.0
78 1 10.992085220739511 21.5773634279075 0
79 1 8.79366817659161 22.84662010013735 0.0
80 1 10.992085220739511 24.115876772367205 0
81 1 8.79366817659161 25.385133444597056 0.0
82 1 10.992085220739511 26.65439011682691 0
83 1 8.79366817659161 27.92364678905676 0.0
84 1 10.992085220739511 29.192903461286615 0
85 1 8.79366817659161 30.46216013351647 0.0
86 1 10.992085220739511 31.731416805746324 0
87 1 8.79366817659161 33.00067347797617 0.0
88 1 10.992085220739511 34.26993015020602 0
89 1 8.79366817659161 35.53918682243588 0.0
90 1 10.992085220739511 36.80844349466573 0
91 1 13.190502264887414 0.0 0.0
92 1 15.388919309035316 1.2692566722298528 0
93 1 13.190502264887414 2.5385133444597057 0.0
94 1 15.388919309035316 3.8077700166895587 0
95 1 13.190502264887414 5.077026688919411 0.0
96 1 15.388919309035316 6.346283361149264 0
97 1 13.190502264887414 7.6155400333791174 0.0
98 1 15.388919309035316 8.88479670560897 0
99 1 13.190502264887414 10.154053377838823 0.0
100 1 15.388919309035316 11.423310050068675 0
101 1 13.190502264887414 12.692566722298528 0.0
102 1 15.388919309035316 13.96182339452838 0
103 1 13.190502264887414 15.231080066758235 0.0
104 1 15.388919309035316 16.50033673898809 0
105 1 13.190502264887414 17.76959341121794 0.0
106 1 15.388919309035316 19.038850083447795 0
107 1 13.190502264887414 20.308106755677645 0.0
108 1 15.388919309035316 21.5773634279075 0
109 1 13.190502264887414 22.84662010013735 0.0
110 1 15.388919309035316 24.115876772367205 0
111 1 13.190502264887414 25.385133444597056 0.0
112 1 15.388919309035316 26.65439011682691 0
113 1 13.190502264887414 27.92364678905676 0.0
114 1 15.388919309035316 29.192903461286615 0
115 1 13.190502264887414 30.46216013351647 0.0
116 1 15.388919309035316 31.731416805746324 0
117 1 13.190502264887414 33.00067347797617 0.0
118 1 15.388919309035316 34.26993015020602 0
119 1 13.190502264887414 35.53918682243588 0.0
120 1 15.388919309035316 36.80844349466573 0
121 1 17.58733635318322 0.0 0.0
122 1 19.78575339733112 1.2692566722298528 0
123 1 17.58733635318322 2.5385133444597057 0.0
124 1 19.78575339733112 3.8077700166895587 0
125 1 17.58733635318322 5.077026688919411 0.0
126 1 19.78575339733112 6.346283361149264 0
127 1 17.58733635318322 7.6155400333791174 0.0
128 1 19.78575339733112 8.88479670560897 0
129 1 17.58733635318322 10.154053377838823 0.0
130 1 19.78575339733112 11.423310050068675 0
131 1 17.58733635318322 12.692566722298528 0.0
132 1 19.78575339733112 13.96182339452838 0
133 1 17.58733635318322 15.231080066758235 0.0
134 1 19.78575339733112 16.50033673898809 0
135 1 17.58733635318322 17.76959341121794 0.0
136 1 19.78575339733112 19.038850083447795 0
137 1 17.58733635318322 20.308106755677645 0.0
138 1 19.78575339733112 21.5773634279075 0
139 1 17.58733635318322 22.84662010013735 0.0
140 1 19.78575339733112 24.115876772367205 0
141 1 17.58733635318322 25.385133444597056 0.0
142 1 19.78575339733112 26.65439011682691 0
143 1 17.58733635318322 27.92364678905676 0.0
144 1 19.78575339733112 29.192903461286615 0
145 1 17.58733635318322 30.46216013351647 0.0
146 1 19.78575339733112 31.731416805746324 0
147 1 17.58733635318322 33.00067347797617 0.0
148 1 19.78575339733112 34.26993015020602 0
149 1 17.58733635318322 35.53918682243588 0.0
150 1 19.78575339733112 36.80844349466573 0
151 1 21.984170441479023 0.0 0.0
152 1 24.182587485626925 1.2692566722298528 0
153 1 21.984170441479023 2.5385133444597057 0.0
154 1 24.182587485626925 3.8077700166895587 0
155 1 21.984170441479023 5.077026688919411 0.0
156 1 24.182587485626925 6.346283361149264 0
157 1 21.984170441479023 7.6155400333791174 0.0
158 1 24.182587485626925 8.88479670560897 0
159 1 21.984170441479023 10.154053377838823 0.0
160 1 24.182587485626925 11.423310050068675 0
161 1 21.984170441479023 12.692566722298528 0.0
162 1 24.182587485626925 13.96182339452838 0
163 1 21.984170441479023 15.231080066758235 0.0
164 1 24.182587485626925 16.50033673898809 0
165 1 21.984170441479023 17.76959341121794 0.0
166 1 24.182587485626925 19.038850083447795 0
167 1 21.984170441479023 20.308106755677645 0.0
168 1 24.182587485626925 21.5773634279075 0
169 1 21.984170441479023 22.84662010013735 0.0
170 1 24.182587485626925 24.115876772367205 0
171 1 21.984170441479023 25.385133444597056 0.0
172 1 24.182587485626925 26.65439011682691 0
173 1 21.984170441479023 27.92364678905676 0.0
174 1 24.182587485626925 29.192903461286615 0
175 1 21.984170441479023 30.46216013351647 0.0
176 1 24.182587485626925 31.731416805746324 0
177 1 21.984170441479023 33.00067347797617 0.0
178 1 24.182587485626925 34.26993015020602 0
179 1 21.984170441479023 35.53918682243588 0.0
180 1 24.182587485626925 36.80844349466573 0
181 1 26.381004529774827 0.0 0.0
182 1 28.57942157392273 1.2692566722298528 0
183 1 26.381004529774827 2.5385133444597057 0.0
184 1 28.57942157392273 3.8077700166895587 0
185 1 26.381004529774827 5.077026688919411 0.0
186 1 28.57942157392273 6.346283361149264 0
187 1 26.381004529774827 7.6155400333791174 0.0
188 1 28.57942157392273 8.88479670560897 0
189 1 26.381004529774827 10.154053377838823 0.0
190 1 28.57942157392273 11.423310050068675 0
191 1 26.381004529774827 12.692566722298528 0.0
192 1 28.57942157392273 13.96182339452838 0
193 1 26.381004529774827 15.231080066758235 0.0
194 1 28.57942157392273 16.50033673898809 0
195 1 26.381004529774827 17.76959341121794 0.0
196 1 28.57942157392273 19.038850083447795 0
197 1 26.381004529774827 20.308106755677645 0.0
198 1 28.57942157392273 21.5773634279075 0
199 1 26.381004529774827 22.84662010013735 0.0
200 1 28.57942157392273 24.115876772367205 0
201 1 26.381004529774827 25.385133444597056 0.0
202 1 28.57942157392273 26.65439011682691 0
203 1 26.381004529774827 27.92364678905676 0.0
204 1 28.57942157392273 29.192903461286615 0
205 1 26.381004529774827 30.46216013351647 0.0
206 1 28.57942157392273 31.731416805746324 0
207 1 26.381004529774827 33.00067347797617 0.0
208 1 28.57942157392273 34.26993015020602 0
209 1 26.381004529774827 35.53918682243588 0.0
210 1 28.57942157392273 36.80844349466573 0
211 1 30.777838618070632 0.0 0.0
212 1 32.976255662218534 1.2692566722298528 0
213 1 30.777838618070632 2.5385133444597057 0.0
214 1 32.976255662218534 3.8077700166895587 0
215 1 30.777838618070632 5.077026688919411 0.0
216 1 32.976255662218534 6.346283361149264 0
217 1 30.777838618070632 7.6155400333791174 0.0
218 1 32.976255662218534 8.88479670560897 0
219 1 30.777838618070632 10.154053377838823 0.0
220 1 32.976255662218534 11.423310050068675 0
221 1 30.777838618070632 12.692566722298528 0.0
222 1 32.976255662218534 13.96182339452838 0
223 1 30.777838618070632 15.231080066758235 0.0
224 1 32.976255662218534 16.50033673898809 0
225 1 30.777838618070632 17.76959341121794 0.0
226 1 32.976255662218534 19.038850083447795 0
227 1 30.777838618070632 20.308106755677645 0.0
228 1 32.976255662218534 21.5773634279075 0
229 1 30.777838618070632 22.84662010013735 0.0
230 1 32.976255662218534 24.115876772367205 0
231 1 30.777838618070632 25.385133444597056 0.0
232 1 32.976255662218534 26.65439011682691 0
233 1 30.777838618070632 27.92364678905676 0.0
234 1 32.976255662218534 29.192903461286615 0
235 1 30.777838618070632 30.46216013351647 0.0
236 1 32.976255662218534 31.731416805746324 0
237 1 30.777838618070632 33.00067347797617 0.0
238 1 32.976255662218534 34.26993015020602 0
239 1 30.777838618070632 35.53918682243588 0.0
240 1 32.976255662218534 36.80844349466573 0
241 1 35.17467270636644 0.0 0.0
242 1 37.37308975051434 1.2692566722298528 0
243 1 35.17467270636644 2.5385133444597057 0.0
244 1 37.37308975051434 3.8077700166895587 0
245 1 35.17467270636644 5.077026688919411 0.0
246 1 37.37308975051434 6.346283361149264 0
247 1 35.17467270636644 7.6155400333791174 0.0
248 1 37.37308975051434 8.88479670560897 0
249 1 35.17467270636644 10.154053377838823 0.0
250 1 37.37308975051434 11.423310050068675 0
251 1 35.17467270636644 12.692566722298528 0.0
252 1 37.37308975051434 13.96182339452838 0
253 1 35.17467270636644 15.231080066758235 0.0
254 1 37.37308975051434 16.50033673898809 0
255 1 35.17467270636644 17.76959341121794 0.0
256 1 37.37308975051434 19.038850083447795 0
257 1 35.17467270636644 20.308106755677645 0.0
258 1 37.37308975051434 21.5773634279075 0
259 1 35.17467270636644 22.84662010013735 0.0
260 1 37.37308975051434 24.115876772367205 0
261 1 35.17467270636644 25.385133444597056 0.0
262 1 37.37308975051434 26.65439011682691 0
263 1 35.17467270636644 27.92364678905676 0.0
264 1 37.37308975051434 29.192903461286615 0
265 1 35.17467270636644 30.46216013351647 0.0
266 1 37.37308975051434 31.731416805746324 0
267 1 35.17467270636644 33.00067347797617 0.0
268 1 37.37308975051434 34.26993015020602 0
269 1 35.17467270636644 35.53918682243588 0.0
270 1 37.37308975051434 36.80844349466573 0
271 1 1.4656113627652683 2.311985780645964e-16 2.0726874663907564
272 1 3.6640284069131703 1.269256672229853 2.0726874663907564
273 1 1.4656113627652683 2.538513344459706 2.0726874663907564
274 1 3.6640284069131703 3.8077700166895587 2.0726874663907564
275 1 1.4656113627652683 5.077026688919411 2.0726874663907564
276 1 3.6640284069131703 6.346283361149265 2.0726874663907564
277 1 1.4656113627652683 7.6155400333791174 2.0726874663907564
278 1 3.6640284069131703 8.88479670560897 2.0726874663907564
279 1 1.4656113627652683 10.154053377838823 2.0726874663907564
280 1 3.6640284069131703 11.423310050068675 2.0726874663907564
281 1 1.4656113627652683 12.692566722298528 2.0726874663907564
282 1 3.6640284069131703 13.96182339452838 2.0726874663907564
283 1 1.4656113627652683 15.231080066758235 2.0726874663907564
284 1 3.6640284069131703 16.50033673898809 2.0726874663907564
285 1 1.4656113627652683 17.76959341121794 2.0726874663907564
286 1 3.6640284069131703 19.038850083447795 2.0726874663907564
287 1 1.4656113627652683 20.308106755677645 2.0726874663907564
288 1 3.6640284069131703 21.5773634279075 2.0726874663907564
289 1 1.4656113627652683 22.84662010013735 2.0726874663907564
290 1 3.6640284069131703 24.115876772367205 2.0726874663907564
291 1 1.4656113627652683 25.385133444597056 2.0726874663907564
292 1 3.6640284069131703 26.65439011682691 2.0726874663907564
293 1 1.4656113627652683 27.92364678905676 2.0726874663907564
294 1 3.6640284069131703 29.192903461286615 2.0726874663907564
295 1 1.4656113627652683 30.46216013351647 2.0726874663907564
296 1 3.6640284069131703 31.731416805746324 2.0726874663907564
297 1 1.4656113627652683 33.00067347797617 2.0726874663907564
298 1 3.6640284069131703 34.26993015020602 2.0726874663907564
299 1 1.4656113627652683 35.53918682243588 2.0726874663907564
300 1 3.6640284069131703 36.80844349466573 2.0726874663907564
301 1 5.862445451061073 2.311985780645964e-16 2.0726874663907564
302 1 8.060862495208974 1.269256672229853 2.0726874663907564
303 1 5.862445451061073 2.538513344459706 2.0726874663907564
304 1 8.060862495208974 3.8077700166895587 2.0726874663907564
305 1 5.862445451061073 5.077026688919411 2.0726874663907564
306 1 8.060862495208974 6.346283361149265 2.0726874663907564
307 1 5.862445451061073 7.6155400333791174 2.0726874663907564
308 1 8.060862495208974 8.88479670560897 2.0726874663907564
309 1 5.862445451061073 10.154053377838823 2.0726874663907564
310 1 8.060862495208974 11.423310050068675 2.0726874663907564
311 1 5.862445451061073 12.692566722298528 2.0726874663907564
312 1 8.060862495208974 13.96182339452838 2.0726874663907564
313 1 5.862445451061073 15.231080066758235 2.0726874663907564
314 1 8.060862495208974 16.50033673898809 2.0726874663907564
315 1 5.862445451061073 17.76959341121794 2.0726874663907564
316 1 8.060862495208974 19.038850083447795 2.0726874663907564
317 1 5.862445451061073 20.308106755677645 2.0726874663907564
318 1 8.060862495208974 21.5773634279075 2.0726874663907564
319 1 5.862445451061073 22.84662010013735 2.0726874663907564
320 1 8.060862495208974 24.115876772367205 2.0726874663907564
321 1 5.862445451061073 25.385133444597056 2.0726874663907564
322 1 8.060862495208974 26.65439011682691 2.0726874663907564
323 1 5.862445451061073 27.92364678905676 2.0726874663907564
324 1 8.060862495208974 29.192903461286615 2.0726874663907564
325 1 5.862445451061073 30.46216013351647 2.0726874663907564
326 1 8.060862495208974 31.731416805746324 2.0726874663907564
327 1 5.862445451061073 33.00067347797617 2.0726874663907564
328 1 8.060862495208974 34.26993015020602 2.0726874663907564
329 1 5.862445451061073 35.53918682243588 2.0726874663907564
330 1 8.060862495208974 36.80844349466573 2.0726874663907564
331 1 10.259279539356877 2.311985780645964e-16 2.0726874663907564
332 1 12.457696583504779 1.269256672229853 2.0726874663907564
333 1 10.259279539356877 2.538513344459706 2.0726874663907564
334 1 12.457696583504779 3.8077700166895587 2.0726874663907564
335 1 10.259279539356877 5.077026688919411 2.0726874663907564
336 1 12.457696583504779 6.346283361149265 2.0726874663907564
337 1 10.259279539356877 7.6155400333791174 2.0726874663907564
338 1 12.457696583504779 8.88479670560897 2.0726874663907564
339 1 10.259279539356877 10.154053377838823 2.0726874663907564
340 1 12.457696583504779 11.423310050068675 2.0726874663907564
341 1 10.259279539356877 12.692566722298528 2.0726874663907564
342 1 12.457696583504779 13.96182339452838 2.0726874663907564
343 1 10.259279539356877 15.231080066758235 2.0726874663907564
344 1 12.457696583504779 16.50033673898809 2.0726874663907564
345 1 10.259279539356877 17.76959341121794 2.0726874663907564
346 1 12.457696583504779 19.038850083447795 2.0726874663907564
347 1 10.259279539356877 20.308106755677645 2.0726874663907564
348 1 12.457696583504779 21.5773634279075 2.0726874663907564
349 1 10.259279539356877 22.84662010013735 2.0726874663907564
350 1 12.457696583504779 24.115876772367205 2.0726874663907564
351 1 10.259279539356877 25.385133444597056 2.0726874663907564
352 1 12.457696583504779 26.65439011682691 2.0726874663907564
353 1 10.259279539356877 27.92364678905676 2.0726874663907564
354 1 12.457696583504779 29.192903461286615 2.0726874663907564
355 1 10.259279539356877 30.46216013351647 2.0726874663907564
356 1 12.457696583504779 31.731416805746324 2.0726874663907564
357 1 10.259279539356877 33.00067347797617 2.0726874663907564
358 1 12.457696583504779 34.26993015020602 2.0726874663907564
359 1 10.259279539356877 35.53918682243588 2.0726874663907564
360 1 12.457696583504779 36.80844349466573 2.0726874663907564
361 1 14.656113627652681 2.311985780645964e-16 2.0726874663907564
362 1 16.854530671800585 1.269256672229853 2.0726874663907564
363 1 14.656113627652681 2.538513344459706 2.0726874663907564
364 1 16.854530671800585 3.8077700166895587 2.0726874663907564
365 1 14.656113627652681 5.077026688919411 2.0726874663907564
366 1 16.854530671800585 6.346283361149265 2.0726874663907564
367 1 14.656113627652681 7.6155400333791174 2.0726874663907564
368 1 16.854530671800585 8.88479670560897 2.0726874663907564
369 1 14.656113627652681 10.154053377838823 2.0726874663907564
370 1 16.854530671800585 11.423310050068675 2.0726874663907564
371 1 14.656113627652681 12.692566722298528 2.0726874663907564
372 1 16.854530671800585 13.96182339452838 2.0726874663907564
373 1 14.656113627652681 15.231080066758235 2.0726874663907564
374 1 16.854530671800585 16.50033673898809 2.0726874663907564
375 1 14.656113627652681 17.76959341121794 2.0726874663907564
376 1 16.854530671800585 19.038850083447795 2.0726874663907564
377 1 14.656113627652681 20.308106755677645 2.0726874663907564
378 1 16.854530671800585 21.5773634279075 2.0726874663907564
379 1 14.656113627652681 22.84662010013735 2.0726874663907564
380 1 16.854530671800585 24.115876772367205 2.0726874663907564
381 1 14.656113627652681 25.385133444597056 2.0726874663907564
382 1 16.854530671800585 26.65439011682691 2.0726874663907564
383 1 14.656113627652681 27.92364678905676 2.0726874663907564
384 1 16.854530671800585 29.192903461286615 2.0726874663907564
385 1 14.656113627652681 30.46216013351647 2.0726874663907564
386 1 16.854530671800585 31.731416805746324 2.0726874663907564
387 1 14.656113627652681 33.00067347797617 2.0726874663907564
388 1 16.854530671800585 34.26993015020602 2.0726874663907564
389 1 14.656113627652681 35.53918682243588 2.0726874663907564
390 1 16.854530671800585 36.80844349466573 2.0726874663907564
391 1 19.052947715948488 2.311985780645964e-16 2.0726874663907564
392 1 21.25136476009639 1.269256672229853 2.0726874663907564
393 1 19.052947715948488 2.538513344459706 2.0726874663907564
394 1 21.25136476009639 3.8077700166895587 2.0726874663907564
395 1 19.052947715948488 5.077026688919411 2.0726874663907564
396 1 21.25136476009639 6.346283361149265 2.0726874663907564
397 1 19.052947715948488 7.6155400333791174 2.0726874663907564
398 1 21.25136476009639 8.88479670560897 2.0726874663907564
399 1 19.052947715948488 10.154053377838823 2.0726874663907564
400 1 21.25136476009639 11.423310050068675 2.0726874663907564
401 1 19.052947715948488 12.692566722298528 2.0726874663907564
402 1 21.25136476009639 13.96182339452838 2.0726874663907564
403 1 19.052947715948488 15.231080066758235 2.0726874663907564
404 1 21.25136476009639 16.50033673898809 2.0726874663907564
405 1 19.052947715948488 17.76959341121794 2.0726874663907564
406 1 21.25136476009639 19.038850083447795 2.0726874663907564
407 1 19.052947715948488 20.308106755677645 2.0726874663907564
408 1 21.25136476009639 21.5773634279075 2.0726874663907564
409 1 19.052947715948488 22.84662010013735 2.0726874663907564
410 1 21.25136476009639 24.115876772367205 2.0726874663907564
411 1 19.052947715948488 25.385133444597056 2.0726874663907564
412 1 21.25136476009639 26.65439011682691 2.0726874663907564
413 1 19.052947715948488 27.92364678905676 2.0726874663907564
414 1 21.25136476009639 29.192903461286615 2.0726874663907564
415 1 19.052947715948488 30.46216013351647 2.0726874663907564
416 1 21.25136476009639 31.731416805746324 2.0726874663907564
417 1 19.052947715948488 33.00067347797617 2.0726874663907564
418 1 21.25136476009639 34.26993015020602 2.0726874663907564
419 1 19.052947715948488 35.53918682243588 2.0726874663907564
420 1 21.25136476009639 36.80844349466573 2.0726874663907564
421 1 23.449781804244292 2.311985780645964e-16 2.0726874663907564
422 1 25.648198848392195 1.269256672229853 2.0726874663907564
423 1 23.449781804244292 2.538513344459706 2.0726874663907564
424 1 25.648198848392195 3.8077700166895587 2.0726874663907564
425 1 23.449781804244292 5.077026688919411 2.0726874663907564
426 1 25.648198848392195 6.346283361149265 2.0726874663907564
427 1 23.449781804244292 7.6155400333791174 2.0726874663907564
428 1 25.648198848392195 8.88479670560897 2.0726874663907564
429 1 23.449781804244292 10.154053377838823 2.0726874663907564
430 1 25.648198848392195 11.423310050068675 2.0726874663907564
431 1 23.449781804244292 12.692566722298528 2.0726874663907564
432 1 25.648198848392195 13.96182339452838 2.0726874663907564
433 1 23.449781804244292 15.231080066758235 2.0726874663907564
434 1 25.648198848392195 16.50033673898809 2.0726874663907564
435 1 23.449781804244292 17.76959341121794 2.0726874663907564
436 1 25.648198848392195 19.038850083447795 2.0726874663907564
437 1 23.449781804244292 20.308106755677645 2.0726874663907564
438 1 25.648198848392195 21.5773634279075 2.0726874663907564
439 1 23.449781804244292 22.84662010013735 2.0726874663907564
440 1 25.648198848392195 24.115876772367205 2.0726874663907564
441 1 23.449781804244292 25.385133444597056 2.0726874663907564
442 1 25.648198848392195 26.65439011682691 2.0726874663907564
443 1 23.449781804244292 27.92364678905676 2.0726874663907564
444 1 25.648198848392195 29.192903461286615 2.0726874663907564
445 1 23.449781804244292 30.46216013351647 2.0726874663907564
446 1 25.648198848392195 31.731416805746324 2.0726874663907564
447 1 23.449781804244292 33.00067347797617 2.0726874663907564
448 1 25.648198848392195 34.26993015020602 2.0726874663907564
449 1 23.449781804244292 35.53918682243588 2.0726874663907564
450 1 25.648198848392195 36.80844349466573 2.0726874663907564
451 1 27.846615892540097 2.311985780645964e-16 2.0726874663907564
452 1 30.045032936688 1.269256672229853 2.0726874663907564
453 1 27.846615892540097 2.538513344459706 2.0726874663907564
454 1 30.045032936688 3.8077700166895587 2.0726874663907564
455 1 27.846615892540097 5.077026688919411 2.0726874663907564
456 1 30.045032936688 6.346283361149265 2.0726874663907564
457 1 27.846615892540097 7.6155400333791174 2.0726874663907564
458 1 30.045032936688 8.88479670560897 2.0726874663907564
459 1 27.846615892540097 10.154053377838823 2.0726874663907564
460 1 30.045032936688 11.423310050068675 2.0726874663907564
461 1 27.846615892540097 12.692566722298528 2.0726874663907564
462 1 30.045032936688 13.96182339452838 2.0726874663907564
463 1 27.846615892540097 15.231080066758235 2.0726874663907564
464 1 30.045032936688 16.50033673898809 2.0726874663907564
465 1 27.846615892540097 17.76959341121794 2.0726874663907564
466 1 30.045032936688 19.038850083447795 2.0726874663907564
467 1 27.846615892540097 20.308106755677645 2.0726874663907564
468 1 30.045032936688 21.5773634279075 2.0726874663907564
469 1 27.846615892540097 22.84662010013735 2.0726874663907564
470 1 30.045032936688 24.115876772367205 2.0726874663907564
471 1 27.846615892540097 25.385133444597056 2.0726874663907564
472 1 30.045032936688 26.65439011682691 2.0726874663907564
473 1 27.846615892540097 27.92364678905676 2.0726874663907564
474 1 30.045032936688 29.192903461286615 2.0726874663907564
475 1 27.846615892540097 30.46216013351647 2.0726874663907564
476 1 30.045032936688 31.731416805746324 2.0726874663907564
477 1 27.846615892540097 33.00067347797617 2.0726874663907564
478 1 30.045032936688 34.26993015020602 2.0726874663907564
479 1 27.846615892540097 35.53918682243588 2.0726874663907564
480 1 30.045032936688 36.80844349466573 2.0726874663907564
481 1 32.2434499808359 2.311985780645964e-16 2.0726874663907564
482 1 34.4418670249838 1.269256672229853 2.0726874663907564
483 1 32.2434499808359 2.538513344459706 2.0726874663907564
484 1 34.4418670249838 3.8077700166895587 2.0726874663907564
485 1 32.2434499808359 5.077026688919411 2.0726874663907564
486 1 34.4418670249838 6.346283361149265 2.0726874663907564
487 1 32.2434499808359 7.6155400333791174 2.0726874663907564
488 1 34.4418670249838 8.88479670560897 2.0726874663907564
489 1 32.2434499808359 10.154053377838823 2.0726874663907564
490 1 34.4418670249838 11.423310050068675 2.0726874663907564
491 1 32.2434499808359 12.692566722298528 2.0726874663907564
492 1 34.4418670249838 13.96182339452838 2.0726874663907564
493 1 32.2434499808359 15.231080066758235 2.0726874663907564
494 1 34.4418670249838 16.50033673898809 2.0726874663907564
495 1 32.2434499808359 17.76959341121794 2.0726874663907564
496 1 34.4418670249838 19.038850083447795 2.0726874663907564
497 1 32.2434499808359 20.308106755677645 2.0726874663907564
498 1 34.4418670249838 21.5773634279075 2.0726874663907564
499 1 32.2434499808359 22.84662010013735 2.0726874663907564
500 1 34.4418670249838 24.115876772367205 2.0726874663907564
501 1 32.2434499808359 25.385133444597056 2.0726874663907564
502 1 34.4418670249838 26.65439011682691 2.0726874663907564
503 1 32.2434499808359 27.92364678905676 2.0726874663907564
504 1 34.4418670249838 29.192903461286615 2.0726874663907564
505 1 32.2434499808359 30.46216013351647 2.0726874663907564
506 1 34.4418670249838 31.731416805746324 2.0726874663907564
507 1 32.2434499808359 33.00067347797617 2.0726874663907564
508 1 34.4418670249838 34.26993015020602 2.0726874663907564
509 1 32.2434499808359 35.53918682243588 2.0726874663907564
510 1 34.4418670249838 36.80844349466573 2.0726874663907564
511 1 36.6402840691317 2.311985780645964e-16 2.0726874663907564
512 1 38.838701113279605 1.269256672229853 2.0726874663907564
513 1 36.6402840691317 2.538513344459706 2.0726874663907564
514 1 38.838701113279605 3.8077700166895587 2.0726874663907564
515 1 36.6402840691317 5.077026688919411 2.0726874663907564
516 1 38.838701113279605 6.346283361149265 2.0726874663907564
517 1 36.6402840691317 7.6155400333791174 2.0726874663907564
518 1 38.838701113279605 8.88479670560897 2.0726874663907564
519 1 36.6402840691317 10.154053377838823 2.0726874663907564
520 1 38.838701113279605 11.423310050068675 2.0726874663907564
521 1 36.6402840691317 12.692566722298528 2.0726874663907564
522 1 38.838701113279605 13.96182339452838 2.0726874663907564
523 1 36.6402840691317 15.231080066758235 2.0726874663907564
524 1 38.838701113279605 16.50033673898809 2.0726874663907564
525 1 36.6402840691317 17.76959341121794 2.0726874663907564
526 1 38.838701113279605 19.038850083447795 2.0726874663907564
527 1 36.6402840691317 20.308106755677645 2.0726874663907564
528 1 38.838701113279605 21.5773634279075 2.0726874663907564
529 1 36.6402840691317 22.84662010013735 2.0726874663907564
530 1 38.838701113279605 24.115876772367205 2.0726874663907564
531 1 36.6402840691317 25.385133444597056 2.0726874663907564
532 1 38.838701113279605 26.65439011682691 2.0726874663907564
533 1 36.6402840691317 27.92364678905676 2.0726874663907564
534 1 38.838701113279605 29.192903461286615 2.0726874663907564
535 1 36.6402840691317 30.46216013351647 2.0726874663907564
536 1 38.838701113279605 31.731416805746324 2.0726874663907564
537 1 36.6402840691317 33.00067347797617 2.0726874663907564
538 1 38.838701113279605 34.26993015020602 2.0726874663907564
539 1 36.6402840691317 35.53918682243588 2.0726874663907564
540 1 38.838701113279605 36.80844349466573 2.0726874663907564
541 1 2.9312227255305365 4.623971561291928e-16 4.145374932781513
542 1 0.7328056813826341 1.269256672229853 4.145374932781513
543 1 2.9312227255305365 2.538513344459706 4.145374932781513
544 1 0.7328056813826341 3.8077700166895587 4.145374932781513
545 1 2.9312227255305365 5.077026688919412 4.145374932781513
546 1 0.7328056813826341 6.346283361149265 4.145374932781513
547 1 2.9312227255305365 7.615540033379118 4.145374932781513
548 1 0.7328056813826341 8.88479670560897 4.145374932781513
549 1 2.9312227255305365 10.154053377838823 4.145374932781513
550 1 0.7328056813826341 11.423310050068675 4.145374932781513
551 1 2.9312227255305365 12.692566722298528 4.145374932781513
552 1 0.7328056813826341 13.96182339452838 4.145374932781513
553 1 2.9312227255305365 15.231080066758235 4.145374932781513
554 1 0.7328056813826341 16.50033673898809 4.145374932781513
555 1 2.9312227255305365 17.76959341121794 4.145374932781513
556 1 0.7328056813826341 19.038850083447795 4.145374932781513
557 1 2.9312227255305365 20.308106755677645 4.145374932781513
558 1 0.7328056813826341 21.5773634279075 4.145374932781513
559 1 2.9312227255305365 22.84662010013735 4.145374932781513
560 1 0.7328056813826341 24.115876772367205 4.145374932781513
561 1 2.9312227255305365 25.385133444597056 4.145374932781513
562 1 0.7328056813826341 26.65439011682691 4.145374932781513
563 1 2.9312227255305365 27.92364678905676 4.145374932781513
564 1 0.7328056813826341 29.192903461286615 4.145374932781513
565 1 2.9312227255305365 30.46216013351647 4.145374932781513
566 1 0.7328056813826341 31.731416805746324 4.145374932781513
567 1 2.9312227255305365 33.00067347797617 4.145374932781513
568 1 0.7328056813826341 34.26993015020602 4.145374932781513
569 1 2.9312227255305365 35.53918682243588 4.145374932781513
570 1 0.7328056813826341 36.80844349466573 4.145374932781513
571 1 7.3280568138263416 4.623971561291928e-16 4.145374932781513
572 1 5.129639769678438 1.269256672229853 4.145374932781513
573 1 7.3280568138263416 2.538513344459706 4.145374932781513
574 1 5.129639769678438 3.8077700166895587 4.145374932781513
575 1 7.3280568138263416 5.077026688919412 4.145374932781513
576 1 5.129639769678438 6.346283361149265 4.145374932781513
577 1 7.3280568138263416 7.615540033379118 4.145374932781513
578 1 5.129639769678438 8.88479670560897 4.145374932781513
579 1 7.3280568138263416 10.154053377838823 4.145374932781513
580 1 5.129639769678438 11.423310050068675 4.145374932781513
581 1 7.3280568138263416 12.692566722298528 4.145374932781513
582 1 5.129639769678438 13.96182339452838 4.145374932781513
583 1 7.3280568138263416 15.231080066758235 4.145374932781513
584 1 5.129639769678438 16.50033673898809 4.145374932781513
585 1 7.3280568138263416 17.76959341121794 4.145374932781513
586 1 5.129639769678438 19.038850083447795 4.145374932781513
587 1 7.3280568138263416 20.308106755677645 4.145374932781513
588 1 5.129639769678438 21.5773634279075 4.145374932781513
589 1 7.3280568138263416 22.84662010013735 4.145374932781513
590 1 5.129639769678438 24.115876772367205 4.145374932781513
591 1 7.3280568138263416 25.385133444597056 4.145374932781513
592 1 5.129639769678438 26.65439011682691 4.145374932781513
593 1 7.3280568138263416 27.92364678905676 4.145374932781513
594 1 5.129639769678438 29.192903461286615 4.145374932781513
595 1 7.3280568138263416 30.46216013351647 4.145374932781513
596 1 5.129639769678438 31.731416805746324 4.145374932781513
597 1 7.3280568138263416 33.00067347797617 4.145374932781513
598 1 5.129639769678438 34.26993015020602 4.145374932781513
599 1 7.3280568138263416 35.53918682243588 4.145374932781513
600 1 5.129639769678438 36.80844349466573 4.145374932781513
601 1 11.724890902122146 4.623971561291928e-16 4.145374932781513
602 1 9.526473857974244 1.269256672229853 4.145374932781513
603 1 11.724890902122146 2.538513344459706 4.145374932781513
604 1 9.526473857974244 3.8077700166895587 4.145374932781513
605 1 11.724890902122146 5.077026688919412 4.145374932781513
606 1 9.526473857974244 6.346283361149265 4.145374932781513
607 1 11.724890902122146 7.615540033379118 4.145374932781513
608 1 9.526473857974244 8.88479670560897 4.145374932781513
609 1 11.724890902122146 10.154053377838823 4.145374932781513
610 1 9.526473857974244 11.423310050068675 4.145374932781513
611 1 11.724890902122146 12.692566722298528 4.145374932781513
612 1 9.526473857974244 13.96182339452838 4.145374932781513
613 1 11.724890902122146 15.231080066758235 4.145374932781513
614 1 9.526473857974244 16.50033673898809 4.145374932781513
615 1 11.724890902122146 17.76959341121794 4.145374932781513
616 1 9.526473857974244 19.038850083447795 4.145374932781513
617 1 11.724890902122146 20.308106755677645 4.145374932781513
618 1 9.526473857974244 21.5773634279075 4.145374932781513
619 1 11.724890902122146 22.84662010013735 4.145374932781513
620 1 9.526473857974244 24.115876772367205 4.145374932781513
621 1 11.724890902122146 25.385133444597056 4.145374932781513
622 1 9.526473857974244 26.65439011682691 4.145374932781513
623 1 11.724890902122146 27.92364678905676 4.145374932781513
624 1 9.526473857974244 29.192903461286615 4.145374932781513
625 1 11.724890902122146 30.46216013351647 4.145374932781513
626 1 9.526473857974244 31.731416805746324 4.145374932781513
627 1 11.724890902122146 33.00067347797617 4.145374932781513
628 1 9.526473857974244 34.26993015020602 4.145374932781513
629 1 11.724890902122146 35.53918682243588 4.145374932781513
630 1 9.526473857974244 36.80844349466573 4.145374932781513
631 1 16.12172499041795 4.623971561291928e-16 4.145374932781513
632 1 13.923307946270048 1.269256672229853 4.145374932781513
633 1 16.12172499041795 2.538513344459706 4.145374932781513
634 1 13.923307946270048 3.8077700166895587 4.145374932781513
635 1 16.12172499041795 5.077026688919412 4.145374932781513
636 1 13.923307946270048 6.346283361149265 4.145374932781513
637 1 16.12172499041795 7.615540033379118 4.145374932781513
638 1 13.923307946270048 8.88479670560897 4.145374932781513
639 1 16.12172499041795 10.154053377838823 4.145374932781513
640 1 13.923307946270048 11.423310050068675 4.145374932781513
641 1 16.12172499041795 12.692566722298528 4.145374932781513
642 1 13.923307946270048 13.96182339452838 4.145374932781513
643 1 16.12172499041795 15.231080066758235 4.145374932781513
644 1 13.923307946270048 16.50033673898809 4.145374932781513
645 1 16.12172499041795 17.76959341121794 4.145374932781513
646 1 13.923307946270048 19.038850083447795 4.145374932781513
647 1 16.12172499041795 20.308106755677645 4.145374932781513
648 1 13.923307946270048 21.5773634279075 4.145374932781513
649 1 16.12172499041795 22.84662010013735 4.145374932781513
650 1 13.923307946270048 24.115876772367205 4.145374932781513
651 1 16.12172499041795 25.385133444597056 4.145374932781513
652 1 13.923307946270048 26.65439011682691 4.145374932781513
653 1 16.12172499041795 27.92364678905676 4.145374932781513
654 1 13.923307946270048 29.192903461286615 4.145374932781513
655 1 16.12172499041795 30.46216013351647 4.145374932781513
656 1 13.923307946270048 31.731416805746324 4.145374932781513
657 1 16.12172499041795 33.00067347797617 4.145374932781513
658 1 13.923307946270048 34.26993015020602 4.145374932781513
659 1 16.12172499041795 35.53918682243588 4.145374932781513
660 1 13.923307946270048 36.80844349466573 4.145374932781513
661 1 20.518559078713754 4.623971561291928e-16 4.145374932781513
662 1 18.32014203456585 1.269256672229853 4.145374932781513
663 1 20.518559078713754 2.538513344459706 4.145374932781513
664 1 18.32014203456585 3.8077700166895587 4.145374932781513
665 1 20.518559078713754 5.077026688919412 4.145374932781513
666 1 18.32014203456585 6.346283361149265 4.145374932781513
667 1 20.518559078713754 7.615540033379118 4.145374932781513
668 1 18.32014203456585 8.88479670560897 4.145374932781513
669 1 20.518559078713754 10.154053377838823 4.145374932781513
670 1 18.32014203456585 11.423310050068675 4.145374932781513
671 1 20.518559078713754 12.692566722298528 4.145374932781513
672 1 18.32014203456585 13.96182339452838 4.145374932781513
673 1 20.518559078713754 15.231080066758235 4.145374932781513
674 1 18.32014203456585 16.50033673898809 4.145374932781513
675 1 20.518559078713754 17.76959341121794 4.145374932781513
676 1 18.32014203456585 19.038850083447795 4.145374932781513
677 1 20.518559078713754 20.308106755677645 4.145374932781513
678 1 18.32014203456585 21.5773634279075 4.145374932781513
679 1 20.518559078713754 22.84662010013735 4.145374932781513
680 1 18.32014203456585 24.115876772367205 4.145374932781513
681 1 20.518559078713754 25.385133444597056 4.145374932781513
682 1 18.32014203456585 26.65439011682691 4.145374932781513
683 1 20.518559078713754 27.92364678905676 4.145374932781513
684 1 18.32014203456585 29.192903461286615 4.145374932781513
685 1 20.518559078713754 30.46216013351647 4.145374932781513
686 1 18.32014203456585 31.731416805746324 4.145374932781513
687 1 20.518559078713754 33.00067347797617 4.145374932781513
688 1 18.32014203456585 34.26993015020602 4.145374932781513
689 1 20.518559078713754 35.53918682243588 4.145374932781513
690 1 18.32014203456585 36.80844349466573 4.145374932781513
691 1 24.915393167009558 4.623971561291928e-16 4.145374932781513
692 1 22.716976122861656 1.269256672229853 4.145374932781513
693 1 24.915393167009558 2.538513344459706 4.145374932781513
694 1 22.716976122861656 3.8077700166895587 4.145374932781513
695 1 24.915393167009558 5.077026688919412 4.145374932781513
696 1 22.716976122861656 6.346283361149265 4.145374932781513
697 1 24.915393167009558 7.615540033379118 4.145374932781513
698 1 22.716976122861656 8.88479670560897 4.145374932781513
699 1 24.915393167009558 10.154053377838823 4.145374932781513
700 1 22.716976122861656 11.423310050068675 4.145374932781513
701 1 24.915393167009558 12.692566722298528 4.145374932781513
702 1 22.716976122861656 13.96182339452838 4.145374932781513
703 1 24.915393167009558 15.231080066758235 4.145374932781513
704 1 22.716976122861656 16.50033673898809 4.145374932781513
705 1 24.915393167009558 17.76959341121794 4.145374932781513
706 1 22.716976122861656 19.038850083447795 4.145374932781513
707 1 24.915393167009558 20.308106755677645 4.145374932781513
708 1 22.716976122861656 21.5773634279075 4.145374932781513
709 1 24.915393167009558 22.84662010013735 4.145374932781513
710 1 22.716976122861656 24.115876772367205 4.145374932781513
711 1 24.915393167009558 25.385133444597056 4.145374932781513
712 1 22.716976122861656 26.65439011682691 4.145374932781513
713 1 24.915393167009558 27.92364678905676 4.145374932781513
714 1 22.716976122861656 29.192903461286615 4.145374932781513
715 1 24.915393167009558 30.46216013351647 4.145374932781513
716 1 22.716976122861656 31.731416805746324 4.145374932781513
717 1 24.915393167009558 33.00067347797617 4.145374932781513
718 1 22.716976122861656 34.26993015020602 4.145374932781513
719 1 24.915393167009558 35.53918682243588 4.145374932781513
720 1 22.716976122861656 36.80844349466573 4.145374932781513
721 1 29.312227255305363 4.623971561291928e-16 4.145374932781513
722 1 27.11381021115746 1.269256672229853 4.145374932781513
723 1 29.312227255305363 2.538513344459706 4.145374932781513
724 1 27.11381021115746 3.8077700166895587 4.145374932781513
725 1 29.312227255305363 5.077026688919412 4.145374932781513
726 1 27.11381021115746 6.346283361149265 4.145374932781513
727 1 29.312227255305363 7.615540033379118 4.145374932781513
728 1 27.11381021115746 8.88479670560897 4.145374932781513
729 1 29.312227255305363 10.154053377838823 4.145374932781513
730 1 27.11381021115746 11.423310050068675 4.145374932781513
731 1 29.312227255305363 12.692566722298528 4.145374932781513
732 1 27.11381021115746 13.96182339452838 4.145374932781513
733 1 29.312227255305363 15.231080066758235 4.145374932781513
734 1 27.11381021115746 16.50033673898809 4.145374932781513
735 1 29.312227255305363 17.76959341121794 4.145374932781513
736 1 27.11381021115746 19.038850083447795 4.145374932781513
737 1 29.312227255305363 20.308106755677645 4.145374932781513
738 1 27.11381021115746 21.5773634279075 4.145374932781513
739 1 29.312227255305363 22.84662010013735 4.145374932781513
740 1 27.11381021115746 24.115876772367205 4.145374932781513
741 1 29.312227255305363 25.385133444597056 4.145374932781513
742 1 27.11381021115746 26.65439011682691 4.145374932781513
743 1 29.312227255305363 27.92364678905676 4.145374932781513
744 1 27.11381021115746 29.192903461286615 4.145374932781513
745 1 29.312227255305363 30.46216013351647 4.145374932781513
746 1 27.11381021115746 31.731416805746324 4.145374932781513
747 1 29.312227255305363 33.00067347797617 4.145374932781513
748 1 27.11381021115746 34.26993015020602 4.145374932781513
749 1 29.312227255305363 35.53918682243588 4.145374932781513
750 1 27.11381021115746 36.80844349466573 4.145374932781513
751 1 33.70906134360117 4.623971561291928e-16 4.145374932781513
752 1 31.510644299453265 1.269256672229853 4.145374932781513
753 1 33.70906134360117 2.538513344459706 4.145374932781513
754 1 31.510644299453265 3.8077700166895587 4.145374932781513
755 1 33.70906134360117 5.077026688919412 4.145374932781513
756 1 31.510644299453265 6.346283361149265 4.145374932781513
757 1 33.70906134360117 7.615540033379118 4.145374932781513
758 1 31.510644299453265 8.88479670560897 4.145374932781513
759 1 33.70906134360117 10.154053377838823 4.145374932781513
760 1 31.510644299453265 11.423310050068675 4.145374932781513
761 1 33.70906134360117 12.692566722298528 4.145374932781513
762 1 31.510644299453265 13.96182339452838 4.145374932781513
763 1 33.70906134360117 15.231080066758235 4.145374932781513
764 1 31.510644299453265 16.50033673898809 4.145374932781513
765 1 33.70906134360117 17.76959341121794 4.145374932781513
766 1 31.510644299453265 19.038850083447795 4.145374932781513
767 1 33.70906134360117 20.308106755677645 4.145374932781513
768 1 31.510644299453265 21.5773634279075 4.145374932781513
769 1 33.70906134360117 22.84662010013735 4.145374932781513
770 1 31.510644299453265 24.115876772367205 4.145374932781513
771 1 33.70906134360117 25.385133444597056 4.145374932781513
772 1 31.510644299453265 26.65439011682691 4.145374932781513
773 1 33.70906134360117 27.92364678905676 4.145374932781513
774 1 31.510644299453265 29.192903461286615 4.145374932781513
775 1 33.70906134360117 30.46216013351647 4.145374932781513
776 1 31.510644299453265 31.731416805746324 4.145374932781513
777 1 33.70906134360117 33.00067347797617 4.145374932781513
778 1 31.510644299453265 34.26993015020602 4.145374932781513
779 1 33.70906134360117 35.53918682243588 4.145374932781513
780 1 31.510644299453265 36.80844349466573 4.145374932781513
781 1 38.105895431896975 4.623971561291928e-16 4.145374932781513
782 1 35.90747838774907 1.269256672229853 4.145374932781513
783 1 38.105895431896975 2.538513344459706 4.145374932781513
784 1 35.90747838774907 3.8077700166895587 4.145374932781513
785 1 38.105895431896975 5.077026688919412 4.145374932781513
786 1 35.90747838774907 6.346283361149265 4.145374932781513
787 1 38.105895431896975 7.615540033379118 4.145374932781513
788 1 35.90747838774907 8.88479670560897 4.145374932781513
789 1 38.105895431896975 10.154053377838823 4.145374932781513
790 1 35.90747838774907 11.423310050068675 4.145374932781513
791 1 38.105895431896975 12.692566722298528 4.145374932781513
792 1 35.90747838774907 13.96182339452838 4.145374932781513
793 1 38.105895431896975 15.231080066758235 4.145374932781513
794 1 35.90747838774907 16.50033673898809 4.145374932781513
795 1 38.105895431896975 17.76959341121794 4.145374932781513
796 1 35.90747838774907 19.038850083447795 4.145374932781513
797 1 38.105895431896975 20.308106755677645 4.145374932781513
798 1 35.90747838774907 21.5773634279075 4.145374932781513
799 1 38.105895431896975 22.84662010013735 4.145374932781513
800 1 35.90747838774907 24.115876772367205 4.145374932781513
801 1 38.105895431896975 25.385133444597056 4.145374932781513
802 1 35.90747838774907 26.65439011682691 4.145374932781513
803 1 38.105895431896975 27.92364678905676 4.145374932781513
804 1 35.90747838774907 29.192903461286615 4.145374932781513
805 1 38.105895431896975 30.46216013351647 4.145374932781513
806 1 35.90747838774907 31.731416805746324 4.145374932781513
807 1 38.105895431896975 33.00067347797617 4.145374932781513
808 1 35.90747838774907 34.26993015020602 4.145374932781513
809 1 38.105895431896975 35.53918682243588 4.145374932781513
810 1 35.90747838774907 36.80844349466573 4.145374932781513
811 1 0.0 0.0 6.218062399172269
812 1 2.1984170441479023 1.2692566722298528 6.218062399172269
813 1 0.0 2.5385133444597057 6.218062399172269
814 1 2.1984170441479023 3.8077700166895587 6.218062399172269
815 1 0.0 5.077026688919411 6.218062399172269
816 1 2.1984170441479023 6.346283361149264 6.218062399172269
817 1 0.0 7.6155400333791174 6.218062399172269
818 1 2.1984170441479023 8.88479670560897 6.218062399172269
819 1 0.0 10.154053377838823 6.218062399172269
820 1 2.1984170441479023 11.423310050068675 6.218062399172269
821 1 0.0 12.692566722298528 6.218062399172269
822 1 2.1984170441479023 13.96182339452838 6.218062399172269
823 1 0.0 15.231080066758235 6.218062399172269
824 1 2.1984170441479023 16.50033673898809 6.218062399172269
825 1 0.0 17.76959341121794 6.218062399172269
826 1 2.1984170441479023 19.038850083447795 6.218062399172269
827 1 0.0 20.308106755677645 6.218062399172269
828 1 2.1984170441479023 21.5773634279075 6.218062399172269
829 1 0.0 22.84662010013735 6.218062399172269
830 1 2.1984170441479023 24.115876772367205 6.218062399172269
831 1 0.0 25.385133444597056 6.218062399172269
832 1 2.1984170441479023 26.65439011682691 6.218062399172269
833 1 0.0 27.92364678905676 6.218062399172269
834 1 2.1984170441479023 29.192903461286615 6.218062399172269
835 1 0.0 30.46216013351647 6.218062399172269
836 1 2.1984170441479023 31.731416805746324 6.218062399172269
837 1 0.0 33.00067347797617 6.218062399172269
838 1 2.1984170441479023 34.26993015020602 6.218062399172269
839 1 0.0 35.53918682243588 6.218062399172269
840 1 2.1984170441479023 36.80844349466573 6.218062399172269
841 1 4.396834088295805 0.0 6.218062399172269
842 1 6.595251132443707 1.2692566722298528 6.218062399172269
843 1 4.396834088295805 2.5385133444597057 6.218062399172269
844 1 6.595251132443707 3.8077700166895587 6.218062399172269
845 1 4.396834088295805 5.077026688919411 6.218062399172269
846 1 6.595251132443707 6.346283361149264 6.218062399172269
847 1 4.396834088295805 7.6155400333791174 6.218062399172269
848 1 6.595251132443707 8.88479670560897 6.218062399172269
849 1 4.396834088295805 10.154053377838823 6.218062399172269
850 1 6.595251132443707 11.423310050068675 6.218062399172269
851 1 4.396834088295805 12.692566722298528 6.218062399172269
852 1 6.595251132443707 13.96182339452838 6.218062399172269
853 1 4.396834088295805 15.231080066758235 6.218062399172269
854 1 6.595251132443707 16.50033673898809 6.218062399172269
855 1 4.396834088295805 17.76959341121794 6.218062399172269
856 1 6.595251132443707 19.038850083447795 6.218062399172269
857 1 4.396834088295805 20.308106755677645 6.218062399172269
858 1 6.595251132443707 21.5773634279075 6.218062399172269
859 1 4.396834088295805 22.84662010013735 6.218062399172269
860 1 6.595251132443707 24.115876772367205 6.218062399172269
861 1 4.396834088295805 25.385133444597056 6.218062399172269
862 1 6.595251132443707 26.65439011682691 6.218062399172269
863 1 4.396834088295805 27.92364678905676 6.218062399172269
864 1 6.595251132443707 29.192903461286615 6.218062399172269
865 1 4.396834088295805 30.46216013351647 6.218062399172269
866 1 6.595251132443707 31.731416805746324 6.218062399172269
867 1 4.396834088295805 33.00067347797617 6.218062399172269
868 1 6.595251132443707 34.26993015020602 6.218062399172269
869 1 4.396834088295805 35.53918682243588 6.218062399172269
870 1 6.595251132443707 36.80844349466573 6.218062399172269
871 1 8.79366817659161 0.0 6.218062399172269
872 1 10.992085220739511 1.2692566722298528 6.218062399172269
873 1 8.79366817659161 2.5385133444597057 6.218062399172269
874 1 10.992085220739511 3.8077700166895587 6.218062399172269
875 1 8.79366817659161 5.077026688919411 6.218062399172269
876 1 10.992085220739511 6.346283361149264 6.218062399172269
877 1 8.79366817659161 7.6155400333791174 6.218062399172269
878 1 10.992085220739511 8.88479670560897 6.218062399172269
879 1 8.79366817659161 10.154053377838823 6.218062399172269
880 1 10.992085220739511 11.423310050068675 6.218062399172269
881 1 8.79366817659161 12.692566722298528 6.218062399172269
882 1 10.992085220739511 13.96182339452838 6.218062399172269
883 1 8.79366817659161 15.231080066758235 6.218062399172269
884 1 10.992085220739511 16.50033673898809 6.218062399172269
885 1 8.79366817659161 17.76959341121794 6.218062399172269
886 1 10.992085220739511 19.038850083447795 6.218062399172269
887 1 8.79366817659161 20.308106755677645 6.218062399172269
888 1 10.992085220739511 21.5773634279075 6.218062399172269
889 1 8.79366817659161 22.84662010013735 6.218062399172269
890 1 10.992085220739511 24.115876772367205 6.218062399172269
891 1 8.79366817659161 25.385133444597056 6.218062399172269
892 1 10.992085220739511 26.65439011682691 6.218062399172269
893 1 8.79366817659161 27.92364678905676 6.218062399172269
894 1 10.992085220739511 29.192903461286615 6.218062399172269
895 1 8.79366817659161 30.46216013351647 6.218062399172269
896 1 10.992085220739511 31.731416805746324 6.218062399172269
897 1 8.79366817659161 33.00067347797617 6.218062399172269
898 1 10.992085220739511 34.26993015020602 6.218062399172269
899 1 8.79366817659161 35.53918682243588 6.218062399172269
900 1 10.992085220739511 36.80844349466573 6.218062399172269
901 1 13.190502264887414 0.0 6.218062399172269
902 1 15.388919309035316 1.2692566722298528 6.218062399172269
903 1 13.190502264887414 2.5385133444597057 6.218062399172269
904 1 15.388919309035316 3.8077700166895587 6.218062399172269
905 1 13.190502264887414 5.077026688919411 6.218062399172269
906 1 15.388919309035316 6.346283361149264 6.218062399172269
907 1 13.190502264887414 7.6155400333791174 6.218062399172269
908 1 15.388919309035316 8.88479670560897 6.218062399172269
909 1 13.190502264887414 10.154053377838823 6.218062399172269
910 1 15.388919309035316 11.423310050068675 6.218062399172269
911 1 13.190502264887414 12.692566722298528 6.218062399172269
912 1 15.388919309035316 13.96182339452838 6.218062399172269
913 1 13.190502264887414 15.231080066758235 6.218062399172269
914 1 15.388919309035316 16.50033673898809 6.218062399172269
915 1 13.190502264887414 17.76959341121794 6.218062399172269
916 1 15.388919309035316 19.038850083447795 6.218062399172269
917 1 13.190502264887414 20.308106755677645 6.218062399172269
918 1 15.388919309035316 21.5773634279075 6.218062399172269
919 1 13.190502264887414 22.84662010013735 6.218062399172269
920 1 15.388919309035316 24.115876772367205 6.218062399172269
921 1 13.190502264887414 25.385133444597056 6.218062399172269
922 1 15.388919309035316 26.65439011682691 6.218062399172269
923 1 13.190502264887414 27.92364678905676 6.218062399172269
924 1 15.388919309035316 29.192903461286615 6.218062399172269
925 1 13.190502264887414 30.46216013351647 6.218062399172269
926 1 15.388919309035316 31.731416805746324 6.218062399172269
927 1 13.190502264887414 33.00067347797617 6.218062399172269
928 1 15.388919309035316 34.26993015020602 6.218062399172269
929 1 13.190502264887414 35.53918682243588 6.218062399172269
930 1 15.388919309035316 36.80844349466573 6.218062399172269
931 1 17.58733635318322 0.0 6.218062399172269
932 1 19.78575339733112 1.2692566722298528 6.218062399172269
933 1 17.58733635318322 2.5385133444597057 6.218062399172269
934 1 19.78575339733112 3.8077700166895587 6.218062399172269
935 1 17.58733635318322 5.077026688919411 6.218062399172269
936 1 19.78575339733112 6.346283361149264 6.218062399172269
937 1 17.58733635318322 7.6155400333791174 6.218062399172269
938 1 19.78575339733112 8.88479670560897 6.218062399172269
939 1 17.58733635318322 10.154053377838823 6.218062399172269
940 1 19.78575339733112 11.423310050068675 6.218062399172269
941 1 17.58733635318322 12.692566722298528 6.218062399172269
942 1 19.78575339733112 13.96182339452838 6.218062399172269
943 1 17.58733635318322 15.231080066758235 6.218062399172269
944 1 19.78575339733112 16.50033673898809 6.218062399172269
945 1 17.58733635318322 17.76959341121794 6.218062399172269
946 1 19.78575339733112 19.038850083447795 6.218062399172269
947 1 17.58733635318322 20.308106755677645 6.218062399172269
948 1 19.78575339733112 21.5773634279075 6.218062399172269
949 1 17.58733635318322 22.84662010013735 6.218062399172269
950 1 19.78575339733112 24.115876772367205 6.218062399172269
951 1 17.58733635318322 25.385133444597056 6.218062399172269
952 1 19.78575339733112 26.65439011682691 6.218062399172269
953 1 17.58733635318322 27.92364678905676 6.218062399172269
954 1 19.78575339733112 29.192903461286615 6.218062399172269
955 1 17.58733635318322 30.46216013351647 6.218062399172269
956 1 19.78575339733112 31.731416805746324 6.218062399172269
957 1 17.58733635318322 33.00067347797617 6.218062399172269
958 1 19.78575339733112 34.26993015020602 6.218062399172269
959 1 17.58733635318322 35.53918682243588 6.218062399172269
960 1 19.78575339733112 36.80844349466573 6.218062399172269
961 1 21.984170441479023 0.0 6.218062399172269
962 1 24.182587485626925 1.2692566722298528 6.218062399172269
963 1 21.984170441479023 2.5385133444597057 6.218062399172269
964 1 24.182587485626925 3.8077700166895587 6.218062399172269
965 1 21.984170441479023 5.077026688919411 6.218062399172269
966 1 24.182587485626925 6.346283361149264 6.218062399172269
967 1 21.984170441479023 7.6155400333791174 6.218062399172269
968 1 24.182587485626925 8.88479670560897 6.218062399172269
969 1 21.984170441479023 10.154053377838823 6.218062399172269
970 1 24.182587485626925 11.423310050068675 6.218062399172269
971 1 21.984170441479023 12.692566722298528 6.218062399172269
972 1 24.182587485626925 13.96182339452838 6.218062399172269
973 1 21.984170441479023 15.231080066758235 6.218062399172269
974 1 24.182587485626925 16.50033673898809 6.218062399172269
975 1 21.984170441479023 17.76959341121794 6.218062399172269
976 1 24.182587485626925 19.038850083447795 6.218062399172269
977 1 21.984170441479023 20.308106755677645 6.218062399172269
978 1 24.182587485626925 21.5773634279075 6.218062399172269
979 1 21.984170441479023 22.84662010013735 6.218062399172269
980 1 24.182587485626925 24.115876772367205 6.218062399172269
981 1 21.984170441479023 25.385133444597056 6.218062399172269
982 1 24.182587485626925 26.65439011682691 6.218062399172269
983 1 21.984170441479023 27.92364678905676 6.218062399172269
984 1 24.182587485626925 29.192903461286615 6.218062399172269
985 1 21.984170441479023 30.46216013351647 6.218062399172269
986 1 24.182587485626925 31.731416805746324 6.218062399172269
987 1 21.984170441479023 33.00067347797617 6.218062399172269
988 1 24.182587485626925 34.26993015020602 6.218062399172269
989 1 21.984170441479023 35.53918682243588 6.218062399172269
990 1 24.182587485626925 36.80844349466573 6.218062399172269
991 1 26.381004529774827 0.0 6.218062399172269
992 1 28.57942157392273 1.2692566722298528 6.218062399172269
993 1 26.381004529774827 2.5385133444597057 6.218062399172269
994 1 28.57942157392273 3.8077700166895587 6.218062399172269
995 1 26.381004529774827 5.077026688919411 6.218062399172269
996 1 28.57942157392273 6.346283361149264 6.218062399172269
997 1 26.381004529774827 7.6155400333791174 6.218062399172269
998 1 28.57942157392273 8.88479670560897 6.218062399172269
999 1 26.381004529774827 10.154053377838823 6.218062399172269
1000 1 28.57942157392273 11.423310050068675 6.218062399172269
1001 1 26.381004529774827 12.692566722298528 6.218062399172269
1002 1 28.57942157392273 13.96182339452838 6.218062399172269
1003 1 26.381004529774827 15.231080066758235 6.218062399172269
1004 1 28.57942157392273 16.50033673898809 6.218062399172269
1005 1 26.381004529774827 17.76959341121794 6.218062399172269
1006 1 28.57942157392273 19.038850083447795 6.218062399172269
1007 1 26.381004529774827 20.308106755677645 6.218062399172269
1008 1 28.57942157392273 21.5773634279075 6.218062399172269
1009 1 26.381004529774827 22.84662010013735 6.218062399172269
1010 1 28.57942157392273 24.115876772367205 6.218062399172269
1011 1 26.381004529774827 25.385133444597056 6.218062399172269
1012 1 28.57942157392273 26.65439011682691 6.218062399172269
1013 1 26.381004529774827 27.92364678905676 6.218062399172269
1014 1 28.57942157392273 29.192903461286615 6.218062399172269
1015 1 26.381004529774827 30.46216013351647 6.218062399172269
1016 1 28.57942157392273 31.731416805746324 6.218062399172269
1017 1 26.381004529774827 33.00067347797617 6.218062399172269
1018 1 28.57942157392273 34.26993015020602 6.218062399172269
1019 1 26.381004529774827 35.53918682243588 6.218062399172269
1020 1 28.57942157392273 36.80844349466573 6.218062399172269
1021 1 30.777838618070632 0.0 6.218062399172269
1022 1 32.976255662218534 1.2692566722298528 6.218062399172269
1023 1 30.777838618070632 2.5385133444597057 6.218062399172269
1024 1 32.976255662218534 3.8077700166895587 6.218062399172269
1025 1 30.777838618070632 5.077026688919411 6.218062399172269
1026 1 32.976255662218534 6.346283361149264 6.218062399172269
1027 1 30.777838618070632 7.6155400333791174 6.218062399172269
1028 1 32.976255662218534 8.88479670560897 6.218062399172269
1029 1 30.777838618070632 10.154053377838823 6.218062399172269
1030 1 32.976255662218534 11.423310050068675 6.218062399172269
1031 1 30.777838618070632 12.692566722298528 6.218062399172269
1032 1 32.976255662218534 13.96182339452838 6.218062399172269
1033 1 30.777838618070632 15.231080066758235 6.218062399172269
1034 1 32.976255662218534 16.50033673898809 6.218062399172269
1035 1 30.777838618070632 17.76959341121794 6.218062399172269
1036 1 32.976255662218534 19.038850083447795 6.218062399172269
1037 1 30.777838618070632 20.308106755677645 6.218062399172269
1038 1 32.976255662218534 21.5773634279075 6.218062399172269
1039 1 30.777838618070632 22.84662010013735 6.218062399172269
1040 1 32.976255662218534 24.115876772367205 6.218062399172269
1041 1 30.777838618070632 25.385133444597056 6.218062399172269
1042 1 32.976255662218534 26.65439011682691 6.218062399172269
1043 1 30.777838618070632 27.92364678905676 6.218062399172269
1044 1 32.976255662218534 29.192903461286615 6.218062399172269
1045 1 30.777838618070632 30.46216013351647 6.218062399172269
1046 1 32.976255662218534 31.731416805746324 6.218062399172269
1047 1 30.777838618070632 33.00067347797617 6.218062399172269
1048 1 32.976255662218534 34.26993015020602 6.218062399172269
1049 1 30.777838618070632 35.53918682243588 6.218062399172269
1050 1 32.976255662218534 36.80844349466573 6.218062399172269
1051 1 35.17467270636644 0.0 6.218062399172269
1052 1 37.37308975051434 1.2692566722298528 6.218062399172269
1053 1 35.17467270636644 2.5385133444597057 6.218062399172269
1054 1 37.37308975051434 3.8077700166895587 6.218062399172269
1055 1 35.17467270636644 5.077026688919411 6.218062399172269
1056 1 37.37308975051434 6.346283361149264 6.218062399172269
1057 1 35.17467270636644 7.6155400333791174 6.218062399172269
1058 1 37.37308975051434 8.88479670560897 6.218062399172269
1059 1 35.17467270636644 10.154053377838823 6.218062399172269
1060 1 37.37308975051434 11.423310050068675 6.218062399172269
1061 1 35.17467270636644 12.692566722298528 6.218062399172269
1062 1 37.37308975051434 13.96182339452838 6.218062399172269
1063 1 35.17467270636644 15.231080066758235 6.218062399172269
1064 1 37.37308975051434 16.50033673898809 6.218062399172269
1065 1 35.17467270636644 17.76959341121794 6.218062399172269
1066 1 37.37308975051434 19.038850083447795 6.218062399172269
1067 1 35.17467270636644 20.308106755677645 6.218062399172269
1068 1 37.37308975051434 21.5773634279075 6.218062399172269
1069 1 35.17467270636644 22.84662010013735 6.218062399172269
1070 1 37.37308975051434 24.115876772367205 6.218062399172269
1071 1 35.17467270636644 25.385133444597056 6.218062399172269
1072 1 37.37308975051434 26.65439011682691 6.218062399172269
1073 1 35.17467270636644 27.92364678905676 6.218062399172269
1074 1 37.37308975051434 29.192903461286615 6.218062399172269
1075 1 35.17467270636644 30.46216013351647 6.218062399172269
1076 1 37.37308975051434 31.731416805746324 6.218062399172269
1077 1 35.17467270636644 33.00067347797617 6.218062399172269
1078 1 37.37308975051434 34.26993015020602 6.218062399172269
1079 1 35.17467270636644 35.53918682243588 6.218062399172269
1080 1 37.37308975051434 36.80844349466573 6.218062399172269
1081 1 1.4656113627652683 2.311985780645964e-16 8.290749865563026
1082 1 3.6640284069131703 1.269256672229853 8.290749865563026
1083 1 1.4656113627652683 2.538513344459706 8.290749865563026
1084 1 3.6640284069131703 3.8077700166895587 8.290749865563026
1085 1 1.4656113627652683 5.077026688919411 8.290749865563026
1086 1 3.6640284069131703 6.346283361149265 8.290749865563026
1087 1 1.4656113627652683 7.6155400333791174 8.290749865563026
1088 1 3.6640284069131703 8.88479670560897 8.290749865563026
1089 1 1.4656113627652683 10.154053377838823 8.290749865563026
1090 1 3.6640284069131703 11.423310050068675 8.290749865563026
1091 1 1.4656113627652683 12.692566722298528 8.290749865563026
1092 1 3.6640284069131703 13.96182339452838 8.290749865563026
1093 1 1.4656113627652683 15.231080066758235 8.290749865563026
1094 1 3.6640284069131703 16.50033673898809 8.290749865563026
1095 1 1.4656113627652683 17.76959341121794 8.290749865563026
1096 1 3.6640284069131703 19.038850083447795 8.290749865563026
1097 1 1.4656113627652683 20.308106755677645 8.290749865563026
1098 1 3.6640284069131703 21.5773634279075 8.290749865563026
1099 1 1.4656113627652683 22.84662010013735 8.290749865563026
1100 1 3.6640284069131703 24.115876772367205 8.290749865563026
1101 1 1.4656113627652683 25.385133444597056 8.290749865563026
1102 1 3.6640284069131703 26.65439011682691 8.290749865563026
1103 1 1.4656113627652683 27.92364678905676 8.290749865563026
1104 1 3.6640284069131703 29.192903461286615 8.290749865563026
1105 1 1.4656113627652683 30.46216013351647 8.290749865563026
1106 1 3.6640284069131703 31.731416805746324 8.290749865563026
1107 1 1.4656113627652683 33.00067347797617 8.290749865563026
1108 1 3.6640284069131703 34.26993015020602 8.290749865563026
1109 1 1.4656113627652683 35.53918682243588 8.290749865563026
1110 1 3.6640284069131703 36.80844349466573 8.290749865563026
1111 1 5.862445451061073 2.311985780645964e-16 8.290749865563026
1112 1 8.060862495208974 1.269256672229853 8.290749865563026
1113 1 5.862445451061073 2.538513344459706 8.290749865563026
1114 1 8.060862495208974 3.8077700166895587 8.290749865563026
1115 1 5.862445451061073 5.077026688919411 8.290749865563026
1116 1 8.060862495208974 6.346283361149265 8.290749865563026
1117 1 5.862445451061073 7.6155400333791174 8.290749865563026
1118 1 8.060862495208974 8.88479670560897 8.290749865563026
1119 1 5.862445451061073 10.154053377838823 8.290749865563026
1120 1 8.060862495208974 11.423310050068675 8.290749865563026
1121 1 5.862445451061073 12.692566722298528 8.290749865563026
1122 1 8.060862495208974 13.96182339452838 8.290749865563026
1123 1 5.862445451061073 15.231080066758235 8.290749865563026
1124 1 8.060862495208974 16.50033673898809 8.290749865563026
1125 1 5.862445451061073 17.76959341121794 8.290749865563026
1126 1 8.060862495208974 19.038850083447795 8.290749865563026
1127 1 5.862445451061073 20.308106755677645 8.290749865563026
1128 1 8.060862495208974 21.5773634279075 8.290749865563026
1129 1 5.862445451061073 22.84662010013735 8.290749865563026
1130 1 8.060862495208974 24.115876772367205 8.290749865563026
1131 1 5.862445451061073 25.385133444597056 8.290749865563026
1132 1 8.060862495208974 26.65439011682691 8.290749865563026
1133 1 5.862445451061073 27.92364678905676 8.290749865563026
1134 1 8.060862495208974 29.192903461286615 8.290749865563026
1135 1 5.862445451061073 30.46216013351647 8.290749865563026
1136 1 8.060862495208974 31.731416805746324 8.290749865563026
1137 1 5.862445451061073 33.00067347797617 8.290749865563026
1138 1 8.060862495208974 34.26993015020602 8.290749865563026
1139 1 5.862445451061073 35.53918682243588 8.290749865563026
1140 1 8.060862495208974 36.80844349466573 8.290749865563026
1141 1 10.259279539356877 2.311985780645964e-16 8.290749865563026
1142 1 12.457696583504779 1.269256672229853 8.290749865563026
1143 1 10.259279539356877 2.538513344459706 8.290749865563026
1144 1 12.457696583504779 3.8077700166895587 8.290749865563026
1145 1 10.259279539356877 5.077026688919411 8.290749865563026
1146 1 12.457696583504779 6.346283361149265 8.290749865563026
1147 1 10.259279539356877 7.6155400333791174 8.290749865563026
1148 1 12.457696583504779 8.88479670560897 8.290749865563026
1149 1 10.259279539356877 10.154053377838823 8.290749865563026
1150 1 12.457696583504779 11.423310050068675 8.290749865563026
1151 1 10.259279539356877 12.692566722298528 8.290749865563026
1152 1 12.457696583504779 13.96182339452838 8.290749865563026
1153 1 10.259279539356877 15.231080066758235 8.290749865563026
1154 1 12.457696583504779 16.50033673898809 8.290749865563026
1155 1 10.259279539356877 17.76959341121794 8.290749865563026
1156 1 12.457696583504779 19.038850083447795 8.290749865563026
1157 1 10.259279539356877 20.308106755677645 8.290749865563026
1158 1 12.457696583504779 21.5773634279075 8.290749865563026
1159 1 10.259279539356877 22.84662010013735 8.290749865563026
1160 1 12.457696583504779 24.115876772367205 8.290749865563026
1161 1 10.259279539356877 25.385133444597056 8.290749865563026
1162 1 12.457696583504779 26.65439011682691 8.290749865563026
1163 1 10.259279539356877 27.92364678905676 8.290749865563026
1164 1 12.457696583504779 29.192903461286615 8.290749865563026
1165 1 10.259279539356877 30.46216013351647 8.290749865563026
1166 1 12.457696583504779 31.731416805746324 8.290749865563026
1167 1 10.259279539356877 33.00067347797617 8.290749865563026
1168 1 12.457696583504779 34.26993015020602 8.290749865563026
1169 1 10.259279539356877 35.53918682243588 8.290749865563026
1170 1 12.457696583504779 36.80844349466573 8.290749865563026
1171 1 14.656113627652681 2.311985780645964e-16 8.290749865563026
1172 1 16.854530671800585 1.269256672229853 8.290749865563026
1173 1 14.656113627652681 2.538513344459706 8.290749865563026
1174 1 16.854530671800585 3.8077700166895587 8.290749865563026
1175 1 14.656113627652681 5.077026688919411 8.290749865563026
1176 1 16.854530671800585 6.346283361149265 8.290749865563026
1177 1 14.656113627652681 7.6155400333791174 8.290749865563026
1178 1 16.854530671800585 8.88479670560897 8.290749865563026
1179 1 14.656113627652681 10.154053377838823 8.290749865563026
1180 1 16.854530671800585 11.423310050068675 8.290749865563026
1181 1 14.656113627652681 12.692566722298528 8.290749865563026
1182 1 16.854530671800585 13.96182339452838 8.290749865563026
1183 1 14.656113627652681 15.231080066758235 8.290749865563026
1184 1 16.854530671800585 16.50033673898809 8.290749865563026
1185 1 14.656113627652681 17.76959341121794 8.290749865563026
1186 1 16.854530671800585 19.038850083447795 8.290749865563026
1187 1 14.656113627652681 20.308106755677645 8.290749865563026
1188 1 16.854530671800585 21.5773634279075 8.290749865563026
1189 1 14.656113627652681 22.84662010013735 8.290749865563026
1190 1 16.854530671800585 24.115876772367205 8.290749865563026
1191 1 14.656113627652681 25.385133444597056 8.290749865563026
1192 1 16.854530671800585 26.65439011682691 8.290749865563026
1193 1 14.656113627652681 27.92364678905676 8.290749865563026
1194 1 16.854530671800585 29.192903461286615 8.290749865563026
1195 1 14.656113627652681 30.46216013351647 8.290749865563026
1196 1 16.854530671800585 31.731416805746324 8.290749865563026
1197 1 14.656113627652681 33.00067347797617 8.290749865563026
1198 1 16.854530671800585 34.26993015020602 8.290749865563026
1199 1 14.656113627652681 35.53918682243588 8.290749865563026
1200 1 16.854530671800585 36.80844349466573 8.290749865563026
1201 1 19.052947715948488 2.311985780645964e-16 8.290749865563026
1202 1 21.25136476009639 1.269256672229853 8.290749865563026
1203 1 19.052947715948488 2.538513344459706 8.290749865563026
1204 1 21.25136476009639 3.8077700166895587 8.290749865563026
1205 1 19.052947715948488 5.077026688919411 8.290749865563026
1206 1 21.25136476009639 6.346283361149265 8.290749865563026
1207 1 19.052947715948488 7.6155400333791174 8.290749865563026
1208 1 21.25136476009639 8.88479670560897 8.290749865563026
1209 1 19.052947715948488 10.154053377838823 8.290749865563026
1210 1 21.25136476009639 11.423310050068675 8.290749865563026
1211 1 19.052947715948488 12.692566722298528 8.290749865563026
1212 1 21.25136476009639 13.96182339452838 8.290749865563026
1213 1 19.052947715948488 15.231080066758235 8.290749865563026
1214 1 21.25136476009639 16.50033673898809 8.290749865563026
1215 1 19.052947715948488 17.76959341121794 8.290749865563026
1216 1 21.25136476009639 19.038850083447795 8.290749865563026
1217 1 19.052947715948488 20.308106755677645 8.290749865563026
1218 1 21.25136476009639 21.5773634279075 8.290749865563026
1219 1 19.052947715948488 22.84662010013735 8.290749865563026
1220 1 21.25136476009639 24.115876772367205 8.290749865563026
1221 1 19.052947715948488 25.385133444597056 8.290749865563026
1222 1 21.25136476009639 26.65439011682691 8.290749865563026
1223 1 19.052947715948488 27.92364678905676 8.290749865563026
1224 1 21.25136476009639 29.192903461286615 8.290749865563026
1225 1 19.052947715948488 30.46216013351647 8.290749865563026
1226 1 21.25136476009639 31.731416805746324 8.290749865563026
1227 1 19.052947715948488 33.00067347797617 8.290749865563026
1228 1 21.25136476009639 34.26993015020602 8.290749865563026
1229 1 19.052947715948488 35.53918682243588 8.290749865563026
1230 1 21.25136476009639 36.80844349466573 8.290749865563026
1231 1 23.449781804244292 2.311985780645964e-16 8.290749865563026
1232 1 25.648198848392195 1.269256672229853 8.290749865563026
1233 1 23.449781804244292 2.538513344459706 8.290749865563026
1234 1 25.648198848392195 3.8077700166895587 8.290749865563026
1235 1 23.449781804244292 5.077026688919411 8.290749865563026
1236 1 25.648198848392195 6.346283361149265 8.290749865563026
1237 1 23.449781804244292 7.6155400333791174 8.290749865563026
1238 1 25.648198848392195 8.88479670560897 8.290749865563026
1239 1 23.449781804244292 10.154053377838823 8.290749865563026
1240 1 25.648198848392195 11.423310050068675 8.290749865563026
1241 1 23.449781804244292 12.692566722298528 8.290749865563026
1242 1 25.648198848392195 13.96182339452838 8.290749865563026
1243 1 23.449781804244292 15.231080066758235 8.290749865563026
1244 1 25.648198848392195 16.50033673898809 8.290749865563026
1245 1 23.449781804244292 17.76959341121794 8.290749865563026
1246 1 25.648198848392195 19.038850083447795 8.290749865563026
1247 1 23.449781804244292 20.308106755677645 8.290749865563026
1248 1 25.648198848392195 21.5773634279075 8.290749865563026
1249 1 23.449781804244292 22.84662010013735 8.290749865563026
1250 1 25.648198848392195 24.115876772367205 8.290749865563026
1251 1 23.449781804244292 25.385133444597056 8.290749865563026
1252 1 25.648198848392195 26.65439011682691 8.290749865563026
1253 1 23.449781804244292 27.92364678905676 8.290749865563026
1254 1 25.648198848392195 29.192903461286615 8.290749865563026
1255 1 23.449781804244292 30.46216013351647 8.290749865563026
1256 1 25.648198848392195 31.731416805746324 8.290749865563026
1257 1 23.449781804244292 33.00067347797617 8.290749865563026
1258 1 25.648198848392195 34.26993015020602 8.290749865563026
1259 1 23.449781804244292 35.53918682243588 8.290749865563026
1260 1 25.648198848392195 36.80844349466573 8.290749865563026
1261 1 27.846615892540097 2.311985780645964e-16 8.290749865563026
1262 1 30.045032936688 1.269256672229853 8.290749865563026
1263 1 27.846615892540097 2.538513344459706 8.290749865563026
1264 1 30.045032936688 3.8077700166895587 8.290749865563026
1265 1 27.846615892540097 5.077026688919411 8.290749865563026
1266 1 30.045032936688 6.346283361149265 8.290749865563026
1267 1 27.846615892540097 7.6155400333791174 8.290749865563026
1268 1 30.045032936688 8.88479670560897 8.290749865563026
1269 1 27.846615892540097 10.154053377838823 8.290749865563026
1270 1 30.045032936688 11.423310050068675 8.290749865563026
1271 1 27.846615892540097 12.692566722298528 8.290749865563026
1272 1 30.045032936688 13.96182339452838 8.290749865563026
1273 1 27.846615892540097 15.231080066758235 8.290749865563026
1274 1 30.045032936688 16.50033673898809 8.290749865563026
1275 1 27.846615892540097 17.76959341121794 8.290749865563026
1276 1 30.045032936688 19.038850083447795 8.290749865563026
1277 1 27.846615892540097 20.308106755677645 8.290749865563026
1278 1 30.045032936688 21.5773634279075 8.290749865563026
1279 1 27.846615892540097 22.84662010013735 8.290749865563026
1280 1 30.045032936688 24.115876772367205 8.290749865563026
1281 1 27.846615892540097 25.385133444597056 8.290749865563026
1282 1 30.045032936688 26.65439011682691 8.290749865563026
1283 1 27.846615892540097 27.92364678905676 8.290749865563026
1284 1 30.045032936688 29.192903461286615 8.290749865563026
1285 1 27.846615892540097 30.46216013351647 8.290749865563026
1286 1 30.045032936688 31.731416805746324 8.290749865563026
1287 1 27.846615892540097 33.00067347797617 8.290749865563026
1288 1 30.045032936688 34.26993015020602 8.290749865563026
1289 1 27.846615892540097 35.53918682243588 8.290749865563026
1290 1 30.045032936688 36.80844349466573 8.290749865563026
1291 1 32.2434499808359 2.311985780645964e-16 8.290749865563026
1292 1 34.4418670249838 1.269256672229853 8.290749865563026
1293 1 32.2434499808359 2.538513344459706 8.290749865563026
1294 1 34.4418670249838 3.8077700166895587 8.290749865563026
1295 1 32.2434499808359 5.077026688919411 8.290749865563026
1296 1 34.4418670249838 6.346283361149265 8.290749865563026
1297 1 32.2434499808359 7.6155400333791174 8.290749865563026
1298 1 34.4418670249838 8.88479670560897 8.290749865563026
1299 1 32.2434499808359 10.154053377838823 8.290749865563026
1300 1 34.4418670249838 11.423310050068675 8.290749865563026
1301 1 32.2434499808359 12.692566722298528 8.290749865563026
1302 1 34.4418670249838 13.96182339452838 8.290749865563026
1303 1 32.2434499808359 15.231080066758235 8.290749865563026
1304 1 34.4418670249838 16.50033673898809 8.290749865563026
1305 1 32.2434499808359 17.76959341121794 8.290749865563026
1306 1 34.4418670249838 19.038850083447795 8.290749865563026
1307 1 32.2434499808359 20.308106755677645 8.290749865563026
1308 1 34.4418670249838 21.5773634279075 8.290749865563026
1309 1 32.2434499808359 22.84662010013735 8.290749865563026
1310 1 34.4418670249838 24.115876772367205 8.290749865563026
1311 1 32.2434499808359 25.385133444597056 8.290749865563026
1312 1 34.4418670249838 26.65439011682691 8.290749865563026
1313 1 32.2434499808359 27.92364678905676 8.290749865563026
1314 1 34.4418670249838 29.192903461286615 8.290749865563026
1315 1 32.2434499808359 30.46216013351647 8.290749865563026
1316 1 34.4418670249838 31.731416805746324 8.290749865563026
1317 1 32.2434499808359 33.00067347797617 8.290749865563026
1318 1 34.4418670249838 34.26993015020602 8.290749865563026
1319 1 32.2434499808359 35.53918682243588 8.290749865563026
1320 1 34.4418670249838 36.80844349466573 8.290749865563026
1321 1 36.6402840691317 2.311985780645964e-16 8.290749865563026
1322 1 38.838701113279605 1.269256672229853 8.290749865563026
1323 1 36.6402840691317 2.538513344459706 8.290749865563026
1324 1 38.838701113279605 3.8077700166895587 8.290749865563026
1325 1 36.6402840691317 5.077026688919411 8.290749865563026
1326 1 38.838701113279605 6.346283361149265 8.290749865563026
1327 1 36.6402840691317 7.6155400333791174 8.290749865563026
1328 1 38.838701113279605 8.88479670560897 8.290749865563026
1329 1 36.6402840691317 10.154053377838823 8.290749865563026
1330 1 38.838701113279605 11.423310050068675 8.290749865563026
1331 1 36.6402840691317 12.692566722298528 8.290749865563026
1332 1 38.838701113279605 13.96182339452838 8.290749865563026
1333 1 36.6402840691317 15.231080066758235 8.290749865563026
1334 1 38.838701113279605 16.50033673898809 8.290749865563026
1335 1 36.6402840691317 17.76959341121794 8.290749865563026
1336 1 38.838701113279605 19.038850083447795 8.290749865563026
1337 1 36.6402840691317 20.308106755677645 8.290749865563026
1338 1 38.838701113279605 21.5773634279075 8.290749865563026
1339 1 36.6402840691317 22.84662010013735 8.290749865563026
1340 1 38.838701113279605 24.115876772367205 8.290749865563026
1341 1 36.6402840691317 25.385133444597056 8.290749865563026
1342 1 38.838701113279605 26.65439011682691 8.290749865563026
1343 1 36.6402840691317 27.92364678905676 8.290749865563026
1344 1 38.838701113279605 29.192903461286615 8.290749865563026
1345 1 36.6402840691317 30.46216013351647 8.290749865563026
1346 1 38.838701113279605 31.731416805746324 8.290749865563026
1347 1 36.6402840691317 33.00067347797617 8.290749865563026
1348 1 38.838701113279605 34.26993015020602 8.290749865563026
1349 1 36.6402840691317 35.53918682243588 8.290749865563026
1350 1 38.838701113279605 36.80844349466573 8.290749865563026
1351 1 2.9312227255305365 4.623971561291928e-16 10.363437331953783
1352 1 0.7328056813826341 1.269256672229853 10.363437331953783
1353 1 2.9312227255305365 2.538513344459706 10.363437331953783
1354 1 0.7328056813826341 3.8077700166895587 10.363437331953783
1355 1 2.9312227255305365 5.077026688919412 10.363437331953783
1356 1 0.7328056813826341 6.346283361149265 10.363437331953783
1357 1 2.9312227255305365 7.615540033379118 10.363437331953783
1358 1 0.7328056813826341 8.88479670560897 10.363437331953783
1359 1 2.9312227255305365 10.154053377838823 10.363437331953783
1360 1 0.7328056813826341 11.423310050068675 10.363437331953783
1361 1 2.9312227255305365 12.692566722298528 10.363437331953783
1362 1 0.7328056813826341 13.96182339452838 10.363437331953783
1363 1 2.9312227255305365 15.231080066758235 10.363437331953783
1364 1 0.7328056813826341 16.50033673898809 10.363437331953783
1365 1 2.9312227255305365 17.76959341121794 10.363437331953783
1366 1 0.7328056813826341 19.038850083447795 10.363437331953783
1367 1 2.9312227255305365 20.308106755677645 10.363437331953783
1368 1 0.7328056813826341 21.5773634279075 10.363437331953783
1369 1 2.9312227255305365 22.84662010013735 10.363437331953783
1370 1 0.7328056813826341 24.115876772367205 10.363437331953783
1371 1 2.9312227255305365 25.385133444597056 10.363437331953783
1372 1 0.7328056813826341 26.65439011682691 10.363437331953783
1373 1 2.9312227255305365 27.92364678905676 10.363437331953783
1374 1 0.7328056813826341 29.192903461286615 10.363437331953783
1375 1 2.9312227255305365 30.46216013351647 10.363437331953783
1376 1 0.7328056813826341 31.731416805746324 10.363437331953783
1377 1 2.9312227255305365 33.00067347797617 10.363437331953783
1378 1 0.7328056813826341 34.26993015020602 10.363437331953783
1379 1 2.9312227255305365 35.53918682243588 10.363437331953783
1380 1 0.7328056813826341 36.80844349466573 10.363437331953783
1381 1 7.3280568138263416 4.623971561291928e-16 10.363437331953783
1382 1 5.129639769678438 1.269256672229853 10.363437331953783
1383 1 7.3280568138263416 2.538513344459706 10.363437331953783
1384 1 5.129639769678438 3.8077700166895587 10.363437331953783
1385 1 7.3280568138263416 5.077026688919412 10.363437331953783
1386 1 5.129639769678438 6.346283361149265 10.363437331953783
1387 1 7.3280568138263416 7.615540033379118 10.363437331953783
1388 1 5.129639769678438 8.88479670560897 10.363437331953783
1389 1 7.3280568138263416 10.154053377838823 10.363437331953783
1390 1 5.129639769678438 11.423310050068675 10.363437331953783
1391 1 7.3280568138263416 12.692566722298528 10.363437331953783
1392 1 5.129639769678438 13.96182339452838 10.363437331953783
1393 1 7.3280568138263416 15.231080066758235 10.363437331953783
1394 1 5.129639769678438 16.50033673898809 10.363437331953783
1395 1 7.3280568138263416 17.76959341121794 10.363437331953783
1396 1 5.129639769678438 19.038850083447795 10.363437331953783
1397 1 7.3280568138263416 20.308106755677645 10.363437331953783
1398 1 5.129639769678438 21.5773634279075 10.363437331953783
1399 1 7.3280568138263416 22.84662010013735 10.363437331953783
1400 1 5.129639769678438 24.115876772367205 10.363437331953783
1401 1 7.3280568138263416 25.385133444597056 10.363437331953783
1402 1 5.129639769678438 26.65439011682691 10.363437331953783
1403 1 7.3280568138263416 27.92364678905676 10.363437331953783
1404 1 5.129639769678438 29.192903461286615 10.363437331953783
1405 1 7.3280568138263416 30.46216013351647 10.363437331953783
1406 1 5.129639769678438 31.731416805746324 10.363437331953783
1407 1 7.3280568138263416 33.00067347797617 10.363437331953783
1408 1 5.129639769678438 34.26993015020602 10.363437331953783
1409 1 7.3280568138263416 35.53918682243588 10.363437331953783
1410 1 5.129639769678438 36.80844349466573 10.363437331953783
1411 1 11.724890902122146 4.623971561291928e-16 10.363437331953783
1412 1 9.526473857974244 1.269256672229853 10.363437331953783
1413 1 11.724890902122146 2.538513344459706 10.363437331953783
1414 1 9.526473857974244 3.8077700166895587 10.363437331953783
1415 1 11.724890902122146 5.077026688919412 10.363437331953783
1416 1 9.526473857974244 6.346283361149265 10.363437331953783
1417 1 11.724890902122146 7.615540033379118 10.363437331953783
1418 1 9.526473857974244 8.88479670560897 10.363437331953783
1419 1 11.724890902122146 10.154053377838823 10.363437331953783
1420 1 9.526473857974244 11.423310050068675 10.363437331953783
1421 1 11.724890902122146 12.692566722298528 10.363437331953783
1422 1 9.526473857974244 13.96182339452838 10.363437331953783
1423 1 11.724890902122146 15.231080066758235 10.363437331953783
1424 1 9.526473857974244 16.50033673898809 10.363437331953783
1425 1 11.724890902122146 17.76959341121794 10.363437331953783
1426 1 9.526473857974244 19.038850083447795 10.363437331953783
1427 1 11.724890902122146 20.308106755677645 10.363437331953783
1428 1 9.526473857974244 21.5773634279075 10.363437331953783
1429 1 11.724890902122146 22.84662010013735 10.363437331953783
1430 1 9.526473857974244 24.115876772367205 10.363437331953783
1431 1 11.724890902122146 25.385133444597056 10.363437331953783
1432 1 9.526473857974244 26.65439011682691 10.363437331953783
1433 1 11.724890902122146 27.92364678905676 10.363437331953783
1434 1 9.526473857974244 29.192903461286615 10.363437331953783
1435 1 11.724890902122146 30.46216013351647 10.363437331953783
1436 1 9.526473857974244 31.731416805746324 10.363437331953783
1437 1 11.724890902122146 33.00067347797617 10.363437331953783
1438 1 9.526473857974244 34.26993015020602 10.363437331953783
1439 1 11.724890902122146 35.53918682243588 10.363437331953783
1440 1 9.526473857974244 36.80844349466573 10.363437331953783
1441 1 16.12172499041795 4.623971561291928e-16 10.363437331953783
1442 1 13.923307946270048 1.269256672229853 10.363437331953783
1443 1 16.12172499041795 2.538513344459706 10.363437331953783
1444 1 13.923307946270048 3.8077700166895587 10.363437331953783
1445 1 16.12172499041795 5.077026688919412 10.363437331953783
1446 1 13.923307946270048 6.346283361149265 10.363437331953783
1447 1 16.12172499041795 7.615540033379118 10.363437331953783
1448 1 13.923307946270048 8.88479670560897 10.363437331953783
1449 1 16.12172499041795 10.154053377838823 10.363437331953783
1450 1 13.923307946270048 11.423310050068675 10.363437331953783
1451 1 16.12172499041795 12.692566722298528 10.363437331953783
1452 1 13.923307946270048 13.96182339452838 10.363437331953783
1453 1 16.12172499041795 15.231080066758235 10.363437331953783
1454 1 13.923307946270048 16.50033673898809 10.363437331953783
1455 1 16.12172499041795 17.76959341121794 10.363437331953783
1456 1 13.923307946270048 19.038850083447795 10.363437331953783
1457 1 16.12172499041795 20.308106755677645 10.363437331953783
1458 1 13.923307946270048 21.5773634279075 10.363437331953783
1459 1 16.12172499041795 22.84662010013735 10.363437331953783
1460 1 13.923307946270048 24.115876772367205 10.363437331953783
1461 1 16.12172499041795 25.385133444597056 10.363437331953783
1462 1 13.923307946270048 26.65439011682691 10.363437331953783
1463 1 16.12172499041795 27.92364678905676 10.363437331953783
1464 1 13.923307946270048 29.192903461286615 10.363437331953783
1465 1 16.12172499041795 30.46216013351647 10.363437331953783
1466 1 13.923307946270048 31.731416805746324 10.363437331953783
1467 1 16.12172499041795 33.00067347797617 10.363437331953783
1468 1 13.923307946270048 34.26993015020602 10.363437331953783
1469 1 16.12172499041795 35.53918682243588 10.363437331953783
1470 1 13.923307946270048 36.80844349466573 10.363437331953783
1471 1 20.518559078713754 4.623971561291928e-16 10.363437331953783
1472 1 18.32014203456585 1.269256672229853 10.363437331953783
1473 1 20.518559078713754 2.538513344459706 10.363437331953783
1474 1 18.32014203456585 3.8077700166895587 10.363437331953783
1475 1 20.518559078713754 5.077026688919412 10.363437331953783
1476 1 18.32014203456585 6.346283361149265 10.363437331953783
1477 1 20.518559078713754 7.615540033379118 10.363437331953783
1478 1 18.32014203456585 8.88479670560897 10.363437331953783
1479 1 20.518559078713754 10.154053377838823 10.363437331953783
1480 1 18.32014203456585 11.423310050068675 10.363437331953783
1481 1 20.518559078713754 12.692566722298528 10.363437331953783
1482 1 18.32014203456585 13.96182339452838 10.363437331953783
1483 1 20.518559078713754 15.231080066758235 10.363437331953783
1484 1 18.32014203456585 16.50033673898809 10.363437331953783
1485 1 20.518559078713754 17.76959341121794 10.363437331953783
1486 1 18.32014203456585 19.038850083447795 10.363437331953783
1487 1 20.518559078713754 20.308106755677645 10.363437331953783
1488 1 18.32014203456585 21.5773634279075 10.363437331953783
1489 1 20.518559078713754 22.84662010013735 10.363437331953783
1490 1 18.32014203456585 24.115876772367205 10.363437331953783
1491 1 20.518559078713754 25.385133444597056 10.363437331953783
1492 1 18.32014203456585 26.65439011682691 10.363437331953783
1493 1 20.518559078713754 27.92364678905676 10.363437331953783
1494 1 18.32014203456585 29.192903461286615 10.363437331953783
1495 1 20.518559078713754 30.46216013351647 10.363437331953783
1496 1 18.32014203456585 31.731416805746324 10.363437331953783
1497 1 20.518559078713754 33.00067347797617 10.363437331953783
1498 1 18.32014203456585 34.26993015020602 10.363437331953783
1499 1 20.518559078713754 35.53918682243588 10.363437331953783
1500 1 18.32014203456585 36.80844349466573 10.363437331953783
1501 1 24.915393167009558 4.623971561291928e-16 10.363437331953783
1502 1 22.716976122861656 1.269256672229853 10.363437331953783
1503 1 24.915393167009558 2.538513344459706 10.363437331953783
1504 1 22.716976122861656 3.8077700166895587 10.363437331953783
1505 1 24.915393167009558 5.077026688919412 10.363437331953783
1506 1 22.716976122861656 6.346283361149265 10.363437331953783
1507 1 24.915393167009558 7.615540033379118 10.363437331953783
1508 1 22.716976122861656 8.88479670560897 10.363437331953783
1509 1 24.915393167009558 10.154053377838823 10.363437331953783
1510 1 22.716976122861656 11.423310050068675 10.363437331953783
1511 1 24.915393167009558 12.692566722298528 10.363437331953783
1512 1 22.716976122861656 13.96182339452838 10.363437331953783
1513 1 24.915393167009558 15.231080066758235 10.363437331953783
1514 1 22.716976122861656 16.50033673898809 10.363437331953783
1515 1 24.915393167009558 17.76959341121794 10.363437331953783
1516 1 22.716976122861656 19.038850083447795 10.363437331953783
1517 1 24.915393167009558 20.308106755677645 10.363437331953783
1518 1 22.716976122861656 21.5773634279075 10.363437331953783
1519 1 24.915393167009558 22.84662010013735 10.363437331953783
1520 1 22.716976122861656 24.115876772367205 10.363437331953783
1521 1 24.915393167009558 25.385133444597056 10.363437331953783
1522 1 22.716976122861656 26.65439011682691 10.363437331953783
1523 1 24.915393167009558 27.92364678905676 10.363437331953783
1524 1 22.716976122861656 29.192903461286615 10.363437331953783
1525 1 24.915393167009558 30.46216013351647 10.363437331953783
1526 1 22.716976122861656 31.731416805746324 10.363437331953783
1527 1 24.915393167009558 33.00067347797617 10.363437331953783
1528 1 22.716976122861656 34.26993015020602 10.363437331953783
1529 1 24.915393167009558 35.53918682243588 10.363437331953783
1530 1 22.716976122861656 36.80844349466573 10.363437331953783
1531 1 29.312227255305363 4.623971561291928e-16 10.363437331953783
1532 1 27.11381021115746 1.269256672229853 10.363437331953783
1533 1 29.312227255305363 2.538513344459706 10.363437331953783
1534 1 27.11381021115746 3.8077700166895587 10.363437331953783
1535 1 29.312227255305363 5.077026688919412 10.363437331953783
1536 1 27.11381021115746 6.346283361149265 10.363437331953783
1537 1 29.312227255305363 7.615540033379118 10.363437331953783
1538 1 27.11381021115746 8.88479670560897 10.363437331953783
1539 1 29.312227255305363 10.154053377838823 10.363437331953783
1540 1 27.11381021115746 11.423310050068675 10.363437331953783
1541 1 29.312227255305363 12.692566722298528 10.363437331953783
1542 1 27.11381021115746 13.96182339452838 10.363437331953783
1543 1 29.312227255305363 15.231080066758235 10.363437331953783
1544 1 27.11381021115746 16.50033673898809 10.363437331953783
1545 1 29.312227255305363 17.76959341121794 10.363437331953783
1546 1 27.11381021115746 19.038850083447795 10.363437331953783
1547 1 29.312227255305363 20.308106755677645 10.363437331953783
1548 1 27.11381021115746 21.5773634279075 10.363437331953783
1549 1 29.312227255305363 22.84662010013735 10.363437331953783
1550 1 27.11381021115746 24.115876772367205 10.363437331953783
1551 1 29.312227255305363 25.385133444597056 10.363437331953783
1552 1 27.11381021115746 26.65439011682691 10.363437331953783
1553 1 29.312227255305363 27.92364678905676 10.363437331953783
1554 1 27.11381021115746 29.192903461286615 10.363437331953783
1555 1 29.312227255305363 30.46216013351647 10.363437331953783
1556 1 27.11381021115746 31.731416805746324 10.363437331953783
1557 1 29.312227255305363 33.00067347797617 10.363437331953783
1558 1 27.11381021115746 34.26993015020602 10.363437331953783
1559 1 29.312227255305363 35.53918682243588 10.363437331953783
1560 1 27.11381021115746 36.80844349466573 10.363437331953783
1561 1 33.70906134360117 4.623971561291928e-16 10.363437331953783
1562 1 31.510644299453265 1.269256672229853 10.363437331953783
1563 1 33.70906134360117 2.538513344459706 10.363437331953783
1564 1 31.510644299453265 3.8077700166895587 10.363437331953783
1565 1 33.70906134360117 5.077026688919412 10.363437331953783
1566 1 31.510644299453265 6.346283361149265 10.363437331953783
1567 1 33.70906134360117 7.615540033379118 10.363437331953783
1568 1 31.510644299453265 8.88479670560897 10.363437331953783
1569 1 33.70906134360117 10.154053377838823 10.363437331953783
1570 1 31.510644299453265 11.423310050068675 10.363437331953783
1571 1 33.70906134360117 12.692566722298528 10.363437331953783
1572 1 31.510644299453265 13.96182339452838 10.363437331953783
1573 1 33.70906134360117 15.231080066758235 10.363437331953783
1574 1 31.510644299453265 16.50033673898809 10.363437331953783
1575 1 33.70906134360117 17.76959341121794 10.363437331953783
1576 1 31.510644299453265 19.038850083447795 10.363437331953783
1577 1 33.70906134360117 20.308106755677645 10.363437331953783
1578 1 31.510644299453265 21.5773634279075 10.363437331953783
1579 1 33.70906134360117 22.84662010013735 10.363437331953783
1580 1 31.510644299453265 24.115876772367205 10.363437331953783
1581 1 33.70906134360117 25.385133444597056 10.363437331953783
1582 1 31.510644299453265 26.65439011682691 10.363437331953783
1583 1 33.70906134360117 27.92364678905676 10.363437331953783
1584 1 31.510644299453265 29.192903461286615 10.363437331953783
1585 1 33.70906134360117 30.46216013351647 10.363437331953783
1586 1 31.510644299453265 31.731416805746324 10.363437331953783
1587 1 33.70906134360117 33.00067347797617 10.363437331953783
1588 1 31.510644299453265 34.26993015020602 10.363437331953783
1589 1 33.70906134360117 35.53918682243588 10.363437331953783
1590 1 31.510644299453265 36.80844349466573 10.363437331953783
1591 1 38.105895431896975 4.623971561291928e-16 10.363437331953783
1592 1 35.90747838774907 1.269256672229853 10.363437331953783
1593 1 38.105895431896975 2.538513344459706 10.363437331953783
1594 1 35.90747838774907 3.8077700166895587 10.363437331953783
1595 1 38.105895431896975 5.077026688919412 10.363437331953783
1596 1 35.90747838774907 6.346283361149265 10.363437331953783
1597 1 38.105895431896975 7.615540033379118 10.363437331953783
1598 1 35.90747838774907 8.88479670560897 10.363437331953783
1599 1 38.105895431896975 10.154053377838823 10.363437331953783
1600 1 35.90747838774907 11.423310050068675 10.363437331953783
1601 1 38.105895431896975 12.692566722298528 10.363437331953783
1602 1 35.90747838774907 13.96182339452838 10.363437331953783
1603 1 38.105895431896975 15.231080066758235 10.363437331953783
1604 1 35.90747838774907 16.50033673898809 10.363437331953783
1605 1 38.105895431896975 17.76959341121794 10.363437331953783
1606 1 35.90747838774907 19.038850083447795 10.363437331953783
1607 1 38.105895431896975 20.308106755677645 10.363437331953783
1608 1 35.90747838774907 21.5773634279075 10.363437331953783
1609 1 38.105895431896975 22.84662010013735 10.363437331953783
1610 1 35.90747838774907 24.115876772367205 10.363437331953783
1611 1 38.105895431896975 25.385133444597056 10.363437331953783
1612 1 35.90747838774907 26.65439011682691 10.363437331953783
1613 1 38.105895431896975 27.92364678905676 10.363437331953783
1614 1 35.90747838774907 29.192903461286615 10.363437331953783
1615 1 38.105895431896975 30.46216013351647 10.363437331953783
1616 1 35.90747838774907 31.731416805746324 10.363437331953783
1617 1 38.105895431896975 33.00067347797617 10.363437331953783
1618 1 35.90747838774907 34.26993015020602 10.363437331953783
1619 1 38.105895431896975 35.53918682243588 10.363437331953783
1620 1 35.90747838774907 36.80844349466573 10.363437331953783
